GO0006259
GO0035725
GO0046777
GO0006163
GO0070925
GO0034641
GO0006310
GO0034645
GO0043241
GO0000209
GO0051480
GO0009101
GO0030258
GO0048863
GO0046474
GO0048864
GO0006082
GO0072657
GO0071363
GO0006644
GO0006643
GO0044257
GO0044255
GO0048468
GO0042110
GO0046488
GO0016570
GO0046649
GO0046486
GO0046483
GO0043161
GO0007017
GO0050900
GO0007010
GO0016477
GO0016071
GO0007268
GO0030036
GO0030031
GO0030030
GO0009117
GO0006650
GO0016567
GO0048870
GO0000398
GO0009116
GO0016070
GO0006091
GO0044267
GO0006790
GO0044265
GO0044262
GO0042278
GO0006796
GO0048667
GO0006412
GO0071417
GO0006399
GO0043624
GO0006413
GO0006397
GO0006396
GO0000165
GO0034660
GO0061564
GO0006486
GO0000226
GO1901605
GO0007411
GO0032990
GO0007005
GO0046395
GO0006414
GO0030029
GO0023014
GO0032446
GO0071345
GO0048666
GO0009259
GO0045165
GO0007067
GO0007093
GO0006139
GO0006281
GO0009100
GO0000904
GO0051276
GO0048699
GO0048858
GO0015980
GO0032787
GO0030855
GO0016050
GO0000375
GO0043062
GO0030154
GO0006631
GO0022402
GO0051186
GO0090305
GO0006401
GO0007018
GO0008654
GO0006402
GO0006366
GO0006367
GO0006725
GO0031175
GO0030003
GO0006351
GO0006352
GO0000082
GO0043687
GO1901653
GO0007409
GO0006996
GO0006470
GO0006520
GO1903047
GO0043603
GO0006915
GO0012501
GO0006873
GO0006874
GO0071396
GO0055085
GO0055086
GO0006974
GO0055082
GO0007059
GO0001775
GO0006875
GO0071310
GO0044770
GO0044772
GO0006457
GO0060271
GO0044344
GO0019725
GO0045216
GO0016032
GO0006511
GO0021953
GO0051716
GO0034976
GO0002521
GO0007049
GO0009165
GO0044237
GO0006464
GO0034220
GO0019058
GO0022008
GO0019752
GO0098655
GO0000956
GO0007154
GO0045321
GO0030182
GO0018108
GO0008380
GO0032870
GO0019439
GO0071407
GO0048812
GO0033554
GO0000278
GO0019637
GO0016310
GO0016311
GO0006575
GO0018193
GO0019941
GO0006887
GO0032940
GO0071375
GO0051301
GO0045333
GO0032869
GO0071805
GO0006468
GO0030198
GO0007267
