GO0001822
GO0072001
GO0008406
GO0030097
GO0048863
GO0002521
GO0043583
GO0009653
GO0007275
GO0001763
GO0048589
GO0032990
GO0061448
GO0007399
GO0061061
GO0001701
GO0009790
GO0009792
GO0007517
GO0048864
GO0021953
GO0048666
GO0007507
GO0007423
GO0035239
GO0045165
GO0048732
GO0060485
GO0048562
GO0060173
GO0030182
GO0048568
GO0048468
GO0007417
GO0060271
GO0035295
GO0009952
GO0001525
GO0048812
GO0007420
GO0048646
GO0001501
GO0000904
GO0061138
GO0048699
GO0048858
GO0032502
GO0060429
GO0022008
GO0001655
GO0048598
GO0072358
GO0002009
GO0061458
GO0030855
GO0007409
GO0003006
GO0001654
GO0048856
GO0001568
GO0009888
GO0048705
GO0060322
GO0043009
GO0048608
GO0030154
GO0007548
GO0060562
GO0030323
GO0048729
GO0007389
GO0009887
GO0048667
GO0048514
GO0048513
GO0045137
GO0001944
GO0008544
