GO0046903
GO0006869
GO0046907
GO0051169
GO0090150
GO0030001
GO0015698
GO0016482
GO0034220
GO0051649
GO0072594
GO0045184
GO0006898
GO0072657
GO0006897
GO0051641
GO0051640
GO0098655
GO0010876
GO0006605
GO0006913
GO0006816
GO0006814
GO0006812
GO0006813
GO0006810
GO0006811
GO0055085
GO0015031
GO0048193
GO0033365
GO0034613
GO0016192
GO0016197
GO0035725
GO0015992
GO0015672
GO0015711
GO0051656
GO0032940
GO0008104
GO0006909
GO0071805
GO0006820
GO0015849
GO0006887
GO0046942
GO0006886
