GO0005654
GO0005789
GO0005788
GO0005765
GO0005815
GO0005740
GO0000228
GO0031090
GO0005874
GO0005743
GO0031301
GO0000790
GO0005759
GO0005681
GO0010008
GO0000139
GO0005730
GO0031981
GO0005774
GO0012506
GO0031966
GO0016607
GO0016604
GO0030659
GO0098588
GO0005882
GO0000785
GO0019866
GO0005875
