GO0005654
GO0005789
GO0005788
GO0005743
GO0097060
GO0005815
GO0005740
GO0005783
GO0005768
GO0005634
GO0005938
GO0015630
GO0005856
GO0000228
GO0005875
GO0005874
GO0043229
GO0005765
GO0005764
GO0030141
GO0016324
GO0042175
GO0016323
GO0005759
GO0016023
GO0005773
GO0000790
GO0009897
GO0005794
GO0005681
GO0031253
GO0030529
GO0005739
GO0036477
GO0005737
GO0000139
GO0005667
GO0031966
GO0030424
GO0005694
GO0000151
GO0031410
GO0031981
GO0012505
GO0005774
GO0005829
GO0005840
GO0005929
GO0048471
GO0005882
GO0030135
GO0016604
GO0030659
GO0030016
GO0030133
GO0005886
GO0005887
GO0043231
GO0030139
GO0010008
GO0045211
GO0043005
GO0000785
GO0016607
GO0045177
GO0015629
GO0019866
GO0005730
GO0042995
GO0009986
GO0031226
GO0045111
GO0071944
