GO0015630
GO0000228
GO0005764
GO0005783
GO0005768
GO0005634
GO0005856
GO0043229
GO0030141
GO0016023
GO0005794
GO0005739
GO0031988
GO0005730
GO0031982
GO0005773
GO0005840
GO0005929
GO0030135
GO0030016
GO0030133
GO0043231
GO0030139
GO0031410
GO0015629
GO0070062
GO0005694
GO0045111
