	GO0005759	GO0005788	GO0031981
Q96I99	1.0	inf	inf
H0Y8E8	inf	inf	1.0
Q5MIZ7	inf	inf	1.0
P31749	inf	inf	1.0
O00622	inf	0.0	inf
O75791	inf	inf	1.0
P34998	0.0	0.0	0.0
Q9H0E7	0.0	inf	1.0
P23409	inf	inf	1.0
Q7Z460	0.0	inf	0.0
Q9H0E3	0.0	inf	inf
Q9H0E2	inf	inf	1.0
O00629	inf	inf	1.0
O00628	0.0	0.0	inf
Q9NQT5	inf	inf	1.0
Q9NQT4	inf	inf	1.0
O00623	inf	inf	0.0
Q86WA9	0.0	inf	inf
Q86WA8	0.0	inf	inf
E5RK26	inf	inf	1.0
O15072	inf	0.0	0.0
O96004	inf	inf	1.0
Q9NZL3	inf	0.0	1.0
Q7LFL8	inf	inf	1.0
D6RFI3	inf	inf	1.0
Q8TBF2	inf	inf	0.0
Q9HC77	0.0	inf	inf
P84077	inf	inf	0.0
P23919	inf	0.0	inf
Q8NHX9	0.0	0.0	0.0
P18615	inf	inf	1.0
K7ELC5	inf	inf	1.0
Q9BUF7	0.0	inf	0.0
Q9BZQ6	inf	1.0	inf
A2RRH5	inf	inf	1.0
Q9C0H2	0.0	inf	0.0
Q15633	inf	inf	1.0
Q9NXR1	inf	0.0	inf
Q00536	inf	inf	0.0
Q96J66	inf	0.0	inf
Q06587	inf	inf	1.0
Q92917	inf	inf	1.0
E7EQ57	inf	inf	1.0
O95259	inf	inf	1.0
Q9HBM6	0.0	0.0	1.0
P21675	inf	0.0	1.0
Q9UBM7	0.0	inf	inf
Q6UXI9	inf	0.0	inf
P30291	inf	inf	1.0
P07711	0.0	0.0	inf
P40424	inf	inf	1.0
P17050	inf	inf	0.0
Q9BW83	inf	inf	0.0
Q07699	inf	0.0	0.0
P40429	inf	inf	1.0
Q92913	inf	inf	1.0
Q12837	inf	inf	1.0
Q9HB09	0.0	0.0	inf
Q9BZ95	inf	inf	1.0
O95985	inf	inf	1.0
P08842	inf	1.0	inf
P58400	0.0	0.0	inf
P02768	0.0	inf	inf
Q5TD94	inf	inf	1.0
D6RC52	inf	inf	1.0
P78346	inf	inf	1.0
P78347	inf	inf	1.0
P78344	inf	0.0	inf
Q9NRZ9	inf	0.0	inf
Q01201	inf	inf	1.0
B4DWJ3	inf	inf	1.0
P10275	inf	inf	1.0
Q9NTZ6	inf	inf	1.0
P16885	0.0	0.0	inf
P20618	inf	inf	1.0
Q8WWM7	inf	inf	1.0
Q8WUU5	inf	inf	1.0
P52272	0.0	0.0	1.0
A0AVT1	inf	inf	0.0
Q9Y2U8	0.0	0.0	0.0
O76027	0.0	inf	inf
Q96T60	0.0	0.0	1.0
Q08188	inf	inf	0.0
O00408	1.0	inf	inf
Q8TDX7	inf	inf	1.0
Q15365	inf	inf	1.0
O15259	inf	0.0	0.0
Q9BT30	1.0	inf	inf
Q5VWT9	inf	inf	1.0
Q969U6	inf	inf	0.0
Q9UMS0	inf	inf	1.0
P29401	0.0	0.0	1.0
Q9UMS4	inf	inf	1.0
Q56P03	inf	inf	1.0
O00141	inf	inf	1.0
Q9H0S4	inf	0.0	1.0
Q15554	inf	inf	1.0
P35240	inf	inf	1.0
Q96N96	inf	inf	1.0
Q4VC44	inf	inf	1.0
Q9H9Z2	inf	inf	1.0
P43034	0.0	inf	inf
P08621	inf	inf	1.0
Q9NVP1	inf	inf	1.0
Q9NVP2	0.0	0.0	1.0
P21730	inf	0.0	0.0
P62805	0.0	inf	1.0
Q5TID7	inf	inf	1.0
Q92833	0.0	inf	1.0
Q8IVQ6	inf	0.0	0.0
Q92831	0.0	inf	1.0
Q92830	inf	inf	1.0
P17936	0.0	0.0	inf
P17181	inf	inf	0.0
Q92834	0.0	0.0	inf
P06401	inf	inf	1.0
P28347	inf	inf	1.0
P14373	inf	inf	1.0
Q9BXW4	0.0	inf	0.0
P51878	inf	inf	0.0
P06280	inf	inf	0.0
Q8IYW5	inf	inf	1.0
Q9Y6E0	inf	inf	1.0
Q5VWQ8	inf	inf	0.0
P01019	inf	inf	0.0
Q9H1A4	inf	inf	1.0
Q8N2S1	0.0	0.0	0.0
Q9H8H0	0.0	0.0	inf
Q71F23	inf	inf	1.0
Q9H8H2	inf	inf	1.0
O75385	inf	inf	0.0
Q13018	0.0	0.0	0.0
Q8NEM7	inf	inf	1.0
F2Z2J1	inf	inf	1.0
P52655	inf	inf	1.0
Q9Y4G8	inf	inf	0.0
P52657	0.0	inf	1.0
P78563	inf	inf	1.0
P04035	0.0	inf	0.0
Q8N196	inf	inf	1.0
Q5MNZ6	0.0	inf	inf
Q92633	0.0	0.0	0.0
P22352	0.0	0.0	inf
Q8N9N5	inf	inf	1.0
P23229	0.0	0.0	inf
P55017	inf	inf	0.0
O43474	0.0	inf	1.0
Q92615	inf	inf	1.0
Q5TDH0	inf	inf	1.0
Q14562	inf	inf	1.0
O60762	0.0	inf	inf
Q9BX26	inf	inf	1.0
Q14565	inf	inf	1.0
O75943	0.0	inf	inf
O75940	inf	inf	1.0
Q15185	inf	inf	1.0
Q8WVK7	0.0	inf	inf
P53384	inf	inf	0.0
Q9H147	inf	inf	1.0
Q66K74	inf	inf	1.0
Q13886	inf	inf	1.0
P61011	inf	inf	1.0
Q9BXC9	inf	inf	0.0
P20036	0.0	0.0	0.0
Q9NYG2	0.0	inf	inf
Q05586	0.0	inf	0.0
Q9UHF3	inf	0.0	0.0
Q9ULD4	inf	inf	1.0
Q9UHF4	0.0	0.0	0.0
Q9NPF2	inf	0.0	inf
Q9NYG5	0.0	0.0	1.0
O94907	0.0	0.0	inf
O94905	inf	inf	0.0
Q9ULX9	inf	inf	1.0
C9JSZ1	inf	inf	1.0
B7Z5F4	inf	inf	1.0
Q9BVC4	inf	inf	1.0
Q13127	0.0	inf	1.0
O43242	inf	inf	1.0
O43791	0.0	0.0	inf
Q01970	inf	0.0	1.0
O75096	0.0	inf	0.0
Q9NRF9	inf	0.0	inf
Q9UGB7	inf	inf	0.0
Q9UPN4	inf	inf	1.0
Q8N684	0.0	inf	1.0
F2Z3P9	inf	inf	1.0
I3L2Q0	inf	inf	1.0
P53634	0.0	inf	inf
Q9Y5Q9	inf	inf	1.0
Q14108	0.0	inf	inf
H0YC29	inf	inf	1.0
Q9Y3Y4	inf	inf	1.0
Q53HV7	inf	inf	1.0
Q9Y3Y2	inf	inf	1.0
Q14103	0.0	0.0	1.0
Q9HAP6	inf	0.0	0.0
P27449	0.0	inf	inf
Q7Z7C8	0.0	0.0	1.0
O75486	inf	inf	1.0
O43424	0.0	0.0	inf
Q96HA7	inf	inf	1.0
E9PKF6	inf	inf	1.0
Q641Q3	0.0	0.0	0.0
P16152	inf	0.0	0.0
P16150	inf	inf	0.0
P16157	0.0	inf	inf
Q96HA8	0.0	0.0	inf
O43182	inf	inf	0.0
P54098	inf	0.0	0.0
P08697	inf	inf	0.0
Q16853	inf	inf	0.0
P99999	inf	0.0	inf
Q9H211	0.0	inf	1.0
Q16854	1.0	inf	inf
P54762	0.0	inf	0.0
P19474	inf	inf	1.0
Q96G21	0.0	inf	1.0
P04629	0.0	0.0	0.0
E5RIH5	inf	inf	1.0
P54764	inf	inf	0.0
E9PDR5	inf	inf	1.0
O75367	0.0	inf	1.0
Q9UK32	inf	inf	1.0
O75563	inf	inf	1.0
O75362	0.0	inf	1.0
Q13232	inf	0.0	0.0
P56817	0.0	inf	0.0
P51955	inf	inf	1.0
Q8TCT7	0.0	inf	0.0
P26885	0.0	inf	0.0
Q14746	0.0	inf	0.0
Q8WY36	inf	inf	1.0
Q00534	inf	inf	1.0
Q8TCT8	0.0	inf	0.0
P41145	inf	inf	0.0
P41146	inf	0.0	0.0
P10916	0.0	0.0	0.0
P20851	inf	0.0	inf
O14786	0.0	inf	0.0
Q9BY44	inf	inf	0.0
Q6NWY9	inf	inf	1.0
C9J4X5	inf	inf	1.0
Q8N726	inf	0.0	1.0
Q9BWG6	inf	inf	1.0
Q96BT3	0.0	0.0	inf
Q96BT7	inf	inf	1.0
Q6UN15	inf	inf	1.0
Q13347	0.0	inf	0.0
P12645	0.0	0.0	inf
P12644	0.0	0.0	inf
P12643	0.0	0.0	inf
Q96CF2	inf	0.0	inf
P48146	0.0	inf	0.0
P48145	0.0	0.0	inf
Q9BQG2	0.0	0.0	inf
P49419	1.0	inf	inf
P21980	inf	0.0	0.0
O94762	inf	inf	1.0
Q96RU2	0.0	inf	inf
Q9UK41	inf	inf	0.0
Q8N3U4	inf	0.0	inf
P62508	inf	inf	1.0
Q9NYU1	inf	1.0	inf
Q9NYU2	inf	1.0	0.0
P56178	inf	inf	1.0
Q14964	0.0	inf	inf
P20585	inf	0.0	inf
Q96L58	0.0	0.0	0.0
P11474	inf	0.0	1.0
P36639	1.0	inf	inf
Q9NWS9	0.0	0.0	inf
E9PBI4	inf	inf	1.0
Q96FZ7	inf	0.0	inf
Q9BYP7	inf	inf	0.0
Q96GY3	inf	inf	1.0
P49773	inf	inf	1.0
O94763	inf	inf	1.0
Q9BQ52	inf	0.0	inf
B4DSU6	inf	inf	1.0
P40306	inf	inf	1.0
O15527	inf	inf	1.0
Q9NPC3	inf	inf	1.0
P62140	0.0	0.0	1.0
P04080	inf	inf	1.0
Q7L1T6	0.0	inf	inf
O15520	0.0	0.0	inf
Q02127	inf	0.0	1.0
O95633	inf	0.0	inf
Q6XZB0	0.0	inf	0.0
Q9BQ67	inf	inf	1.0
P25208	inf	inf	1.0
Q8NAA4	inf	inf	1.0
Q6P6C2	0.0	inf	1.0
Q9BQ15	inf	inf	1.0
Q8TBE0	inf	0.0	1.0
Q9H6Z4	inf	inf	1.0
Q9UBW7	inf	inf	1.0
Q9BYN8	inf	inf	1.0
Q08AG7	inf	inf	0.0
Q9NVM4	0.0	0.0	1.0
J3QLJ5	inf	inf	1.0
Q9GZY8	inf	0.0	0.0
Q9NXA8	inf	0.0	inf
Q9H6R4	inf	inf	1.0
P06702	0.0	inf	inf
O15067	inf	inf	0.0
P48551	inf	0.0	0.0
P48552	inf	inf	1.0
O95747	inf	inf	0.0
P01833	0.0	inf	inf
Q9BUE0	inf	inf	1.0
E9PJH7	inf	inf	1.0
Q9UBZ9	inf	inf	1.0
P07093	0.0	inf	0.0
M0R2Q2	inf	inf	1.0
Q8NAP3	0.0	0.0	inf
Q9HC62	inf	0.0	inf
P16422	0.0	0.0	0.0
Q9BXJ1	inf	inf	0.0
Q14CS0	0.0	inf	inf
P68402	inf	inf	1.0
P37231	0.0	inf	1.0
C9JBE1	inf	inf	1.0
P69905	0.0	inf	0.0
P13598	0.0	inf	0.0
K7EIL0	inf	inf	1.0
Q8NCD3	inf	inf	1.0
Q96H72	0.0	0.0	0.0
Q9BZV1	inf	inf	1.0
Q9Y6R1	inf	0.0	0.0
Q03989	0.0	inf	1.0
U3KQA3	inf	inf	1.0
P62244	inf	inf	0.0
Q06609	1.0	inf	1.0
Q9UBL9	0.0	inf	0.0
Q6Q788	inf	0.0	inf
Q9Y296	inf	inf	0.0
Q9Y297	inf	inf	1.0
Q9Y294	0.0	inf	1.0
Q9UBL3	inf	inf	1.0
Q6UXN9	inf	0.0	inf
Q96GX5	inf	inf	1.0
G5EA30	inf	inf	1.0
Q9NUQ3	inf	0.0	0.0
Q15833	inf	inf	0.0
Q6ICB4	inf	inf	0.0
Q6MZP7	inf	inf	1.0
Q08629	inf	inf	0.0
Q96SW2	inf	inf	1.0
P49959	inf	0.0	1.0
Q53F39	0.0	0.0	1.0
Q9UBB5	inf	inf	1.0
C9JA69	inf	inf	1.0
O14639	inf	inf	0.0
Q5FYB1	inf	1.0	inf
Q5FYB0	inf	1.0	inf
P49796	inf	inf	1.0
P49790	inf	inf	1.0
Q01813	0.0	0.0	inf
Q96JB3	inf	inf	1.0
B0I1T2	0.0	0.0	0.0
P29274	0.0	0.0	0.0
H0YE12	inf	inf	1.0
Q8TDI0	0.0	0.0	1.0
Q9Y2Z4	1.0	inf	inf
Q93009	0.0	0.0	inf
P11137	inf	inf	1.0
B5MCF4	inf	inf	1.0
O76031	1.0	inf	inf
Q00613	inf	inf	1.0
P35813	0.0	inf	1.0
P78356	inf	inf	1.0
Q01740	inf	1.0	inf
O76039	inf	inf	1.0
P09874	inf	inf	1.0
Q5VUG0	inf	inf	1.0
O15446	inf	inf	1.0
Q9Y2Y4	inf	inf	1.0
Q5T7V8	inf	inf	1.0
Q9UQ13	inf	inf	1.0
Q15170	inf	inf	1.0
Q02363	inf	inf	1.0
O15243	0.0	inf	inf
Q5T2R2	1.0	inf	inf
Q9NVC6	0.0	inf	1.0
Q9H0P0	inf	inf	0.0
Q9NVC3	0.0	inf	inf
Q9BT43	inf	0.0	1.0
Q5T7F5	inf	inf	1.0
Q15370	inf	inf	1.0
F5GY33	inf	inf	1.0
Q9P0L0	0.0	inf	0.0
P31483	inf	inf	1.0
C9JG63	inf	inf	1.0
Q9NXS2	0.0	0.0	inf
P29475	inf	inf	0.0
Q969T9	inf	inf	1.0
P07476	inf	inf	0.0
P09543	inf	inf	1.0
P01138	0.0	0.0	inf
P35250	inf	0.0	inf
Q01101	0.0	inf	1.0
Q8IY17	inf	inf	0.0
Q8IY18	inf	0.0	inf
Q92731	inf	inf	1.0
Q9UGM1	0.0	0.0	inf
Q5VU57	0.0	inf	0.0
P08631	0.0	0.0	inf
Q9UGM6	1.0	inf	inf
Q6Y2X3	inf	inf	1.0
Q8WVX6	inf	inf	1.0
Q86UR5	0.0	inf	0.0
P20340	0.0	0.0	0.0
O60603	inf	inf	0.0
O15265	inf	inf	1.0
Q5U5X0	1.0	inf	inf
Q8IVV2	inf	0.0	inf
Q9NYP7	0.0	inf	inf
O00505	inf	inf	1.0
Q8TCI5	0.0	inf	inf
Q6RW13	inf	inf	1.0
Q9Y4P8	inf	inf	1.0
Q9UKM7	0.0	inf	0.0
P20132	inf	inf	0.0
F5GXF0	inf	inf	1.0
Q9Y4P1	inf	inf	0.0
Q9BXP5	inf	inf	1.0
Q8TAM2	0.0	0.0	0.0
O43927	0.0	0.0	0.0
Q9Y6D5	0.0	0.0	inf
P01008	inf	0.0	0.0
Q6ULP2	inf	inf	1.0
P02753	0.0	0.0	0.0
Q01581	inf	inf	1.0
Q8N9W8	inf	inf	1.0
Q00987	inf	inf	1.0
Q9BZD3	inf	inf	1.0
P43155	inf	inf	0.0
Q13003	0.0	inf	0.0
P78345	inf	inf	1.0
Q92600	0.0	0.0	inf
P14416	inf	inf	0.0
Q99856	inf	inf	1.0
Q13009	0.0	inf	inf
O75390	inf	0.0	inf
Q92608	0.0	inf	0.0
Q92609	0.0	0.0	inf
P0DI83	inf	inf	1.0
P10070	inf	inf	1.0
P10071	inf	inf	1.0
Q9UH77	inf	0.0	0.0
Q9BZJ0	inf	inf	1.0
O75888	inf	inf	1.0
Q6PI25	0.0	0.0	inf
Q99075	0.0	0.0	inf
Q15468	inf	inf	0.0
Q9NQ38	inf	inf	0.0
Q6EMK4	inf	0.0	0.0
P04066	inf	inf	0.0
P62701	inf	inf	0.0
Q9BSJ2	inf	inf	1.0
Q99988	0.0	0.0	0.0
P18065	0.0	0.0	inf
Q9BSJ6	inf	inf	1.0
P27694	0.0	inf	1.0
P27695	inf	inf	1.0
O75952	inf	inf	1.0
O75955	inf	inf	0.0
P17858	0.0	0.0	0.0
Q9BTC8	inf	inf	1.0
Q08379	inf	0.0	inf
Q08378	inf	inf	1.0
Q9NRI5	inf	0.0	inf
Q9H7Z6	0.0	inf	inf
O43257	0.0	0.0	1.0
Q9NYF0	inf	inf	1.0
Q9H422	inf	inf	1.0
Q9C0C2	inf	inf	1.0
O43251	inf	inf	1.0
Q09028	0.0	inf	1.0
Q9UHE5	0.0	0.0	0.0
P68543	0.0	inf	inf
Q5T8A7	inf	inf	1.0
Q06830	1.0	inf	inf
Q5T3J3	inf	inf	1.0
Q5SYC1	inf	inf	0.0
Q9NRG4	inf	inf	1.0
O60921	inf	inf	1.0
Q5TA45	inf	inf	1.0
Q9NRG0	inf	inf	1.0
P53350	inf	inf	1.0
O76021	inf	inf	1.0
Q5NUL3	0.0	0.0	inf
Q76L83	inf	inf	1.0
Q13131	inf	inf	1.0
Q99217	0.0	inf	0.0
P28838	inf	inf	1.0
Q9UGC7	1.0	inf	inf
Q14137	0.0	inf	inf
Q9UPM9	inf	inf	0.0
Q9UI08	inf	inf	0.0
Q6P387	inf	inf	1.0
P08235	inf	inf	1.0
O76024	inf	inf	0.0
Q8N4X5	inf	inf	0.0
F8W954	inf	inf	1.0
P46782	0.0	inf	0.0
P46781	inf	inf	1.0
Q9C0C9	inf	inf	1.0
Q8WW43	inf	inf	0.0
P55103	inf	inf	0.0
Q9UIS9	inf	inf	1.0
O94806	inf	inf	1.0
O95400	inf	inf	1.0
O94804	inf	inf	0.0
O95402	inf	inf	1.0
Q7Z7J5	inf	inf	1.0
P08047	inf	inf	1.0
P27361	inf	0.0	1.0
P28340	inf	inf	1.0
Q9H222	inf	0.0	inf
P11182	1.0	inf	inf
O75175	0.0	inf	inf
Q99453	inf	inf	1.0
P19440	0.0	0.0	inf
O15399	inf	inf	0.0
Q9H4G4	inf	0.0	0.0
Q9BWT1	inf	inf	1.0
Q99697	inf	inf	1.0
Q9BWT3	inf	inf	1.0
P11215	0.0	inf	inf
Q8WWN8	inf	inf	0.0
Q16514	inf	0.0	inf
Q15369	inf	inf	1.0
O60391	0.0	inf	inf
Q13224	inf	0.0	0.0
Q16513	inf	inf	1.0
Q8TCU5	0.0	inf	0.0
Q8N144	0.0	inf	inf
O15143	inf	inf	0.0
Q2TAZ0	inf	0.0	inf
O95067	inf	inf	1.0
Q6P2H3	inf	inf	1.0
O77932	inf	inf	1.0
Q9H3P2	inf	inf	1.0
P19224	0.0	inf	inf
P40938	inf	0.0	inf
B2RXF5	inf	inf	1.0
Q9NUT2	inf	0.0	inf
A6NNK5	inf	inf	1.0
P40933	inf	inf	1.0
P40937	inf	0.0	inf
Q96S44	0.0	inf	inf
Q9NY72	inf	inf	0.0
Q9UFC0	inf	inf	1.0
P82912	1.0	inf	inf
Q9H814	inf	inf	1.0
P82914	1.0	inf	inf
Q9UHK6	inf	inf	0.0
P31942	0.0	0.0	inf
Q9Y5P4	inf	0.0	inf
Q99523	0.0	inf	0.0
Q13351	0.0	inf	1.0
Q9UHK0	0.0	inf	1.0
C9J029	inf	inf	1.0
Q7Z419	inf	inf	0.0
Q9GZT4	inf	inf	0.0
Q9Y5P8	inf	inf	1.0
Q96DA6	inf	0.0	inf
P60604	0.0	inf	0.0
P61604	1.0	inf	0.0
Q6PL18	inf	0.0	inf
D6RC27	inf	inf	1.0
Q96MF7	inf	0.0	inf
O95436	0.0	inf	0.0
P63151	inf	inf	1.0
H3BTF4	inf	inf	1.0
Q9UMS5	inf	inf	1.0
Q8NHS3	inf	inf	1.0
Q9UJU2	inf	inf	1.0
Q9Y2K7	inf	inf	1.0
P37088	inf	0.0	0.0
Q9Y2K1	0.0	0.0	1.0
P50416	inf	0.0	inf
Q14654	inf	inf	0.0
Q9Y5B0	inf	inf	1.0
Q96MT3	inf	0.0	inf
Q8NDV7	0.0	inf	1.0
P61421	0.0	0.0	0.0
O14682	inf	inf	1.0
E7EX82	inf	inf	1.0
Q96MT8	inf	0.0	inf
Q16644	inf	inf	1.0
E9PQT8	inf	inf	1.0
O15530	inf	inf	1.0
Q16643	inf	inf	0.0
O95625	inf	inf	1.0
Q58WW2	inf	inf	1.0
Q7Z589	inf	inf	1.0
Q9UPQ4	inf	inf	1.0
O15151	0.0	inf	1.0
Q96B67	0.0	inf	inf
Q00978	inf	inf	1.0
H3BQ40	inf	inf	1.0
Q5T160	1.0	inf	inf
Q03426	inf	inf	0.0
Q9BS26	0.0	1.0	0.0
E7EP87	inf	inf	1.0
Q2PZI1	0.0	inf	0.0
Q8ND90	inf	inf	1.0
Q9UHC6	0.0	inf	0.0
P50897	0.0	inf	inf
Q15427	inf	inf	1.0
Q9HC52	0.0	inf	inf
Q9NXB0	inf	inf	0.0
J3KN38	inf	inf	1.0
Q8N1N2	0.0	inf	inf
Q9NQZ2	0.0	0.0	1.0
Q01955	inf	inf	0.0
Q13586	inf	inf	0.0
Q9Y5X5	inf	inf	0.0
Q08209	inf	inf	1.0
Q6UXY1	0.0	inf	inf
P13349	inf	inf	1.0
Q16602	0.0	inf	inf
Q15517	0.0	inf	0.0
P16455	0.0	0.0	inf
Q9NUB1	1.0	inf	inf
O75533	inf	inf	1.0
P30411	inf	inf	0.0
O96020	inf	inf	1.0
Q8IXJ6	inf	inf	1.0
Q8NHV4	inf	inf	1.0
Q9Y5X1	inf	inf	0.0
O75531	inf	inf	1.0
Q6TDP4	0.0	0.0	0.0
Q9Y6U3	inf	inf	0.0
Q9C0J8	inf	0.0	1.0
Q8IWL3	inf	inf	0.0
P38159	0.0	0.0	1.0
P10588	inf	inf	1.0
P10589	inf	inf	1.0
P48436	0.0	inf	1.0
Q8NCK7	0.0	0.0	inf
O00267	0.0	inf	inf
Q96AC1	inf	inf	1.0
Q8WWQ0	0.0	inf	inf
Q9UEY8	inf	inf	1.0
Q9NYH9	inf	inf	1.0
E7ES00	inf	inf	1.0
J3QT10	inf	inf	1.0
Q9NQ50	1.0	inf	1.0
Q01826	0.0	inf	inf
Q7Z443	0.0	inf	0.0
Q07343	0.0	0.0	inf
P13765	0.0	inf	inf
P78368	0.0	0.0	inf
O76041	inf	0.0	0.0
E7ETB3	inf	inf	1.0
P13010	inf	inf	1.0
Q00604	0.0	inf	0.0
Q9NRX4	0.0	inf	0.0
Q9NRX5	inf	inf	0.0
Q53EZ4	0.0	inf	inf
P04229	inf	0.0	inf
Q9NRX1	inf	inf	1.0
Q9UNS1	0.0	inf	inf
O95342	inf	0.0	inf
Q9Y2W1	inf	inf	1.0
O60551	inf	inf	0.0
P05129	0.0	0.0	inf
Q9UJ96	0.0	0.0	inf
Q8WYK2	inf	inf	1.0
P05121	inf	0.0	0.0
Q9UL51	0.0	inf	0.0
Q86UA6	inf	inf	1.0
Q9UL54	inf	inf	1.0
O95183	inf	0.0	inf
O43623	inf	inf	1.0
F8WBL2	inf	inf	1.0
Q5HYA8	inf	0.0	0.0
Q495M3	inf	0.0	0.0
Q9NQH7	inf	0.0	0.0
P29460	inf	inf	0.0
Q53G59	inf	0.0	inf
P57739	inf	0.0	0.0
Q9P0M9	1.0	inf	inf
Q9Y605	inf	inf	1.0
P57735	0.0	0.0	0.0
Q6NXR4	inf	inf	1.0
Q86W54	inf	inf	1.0
P28482	inf	inf	1.0
Q8N6M6	inf	inf	1.0
Q5GFL6	0.0	0.0	inf
Q9UHQ1	inf	inf	1.0
Q8NBK3	inf	1.0	inf
P28335	inf	inf	0.0
Q7RTU7	inf	0.0	inf
P28330	inf	inf	0.0
P28331	inf	0.0	inf
P62829	inf	inf	1.0
Q9NVV9	inf	inf	1.0
A0A087WYL7	inf	inf	1.0
Q8IYU2	0.0	inf	inf
P62820	inf	0.0	inf
Q6ZW49	0.0	inf	inf
P35712	inf	inf	1.0
P35713	inf	0.0	1.0
P83369	0.0	inf	1.0
P01588	0.0	inf	inf
D6RAG5	inf	inf	1.0
Q9UKI2	inf	inf	0.0
Q8IVW6	inf	inf	1.0
Q9Y4W2	inf	inf	1.0
Q8IVW8	inf	0.0	0.0
P05230	0.0	inf	inf
P01583	0.0	0.0	0.0
P01584	0.0	inf	0.0
Q8TCJ2	0.0	inf	0.0
Q9UKJ5	inf	0.0	inf
Q8IZ13	inf	inf	1.0
P02741	0.0	inf	inf
P55083	0.0	0.0	inf
J3KQ69	inf	inf	1.0
O95295	0.0	inf	inf
F2Z2P2	inf	inf	1.0
P02749	0.0	0.0	0.0
P01033	0.0	0.0	0.0
P01034	inf	inf	0.0
Q8WVB6	inf	inf	1.0
P01036	0.0	inf	inf
Q8NB78	inf	inf	1.0
P08514	inf	inf	0.0
Q9UKX5	inf	inf	0.0
Q9UKX7	inf	inf	1.0
Q6IPT4	inf	inf	1.0
Q9Y4E1	0.0	0.0	inf
Q9UKX2	inf	0.0	inf
Q8N9N8	inf	inf	1.0
Q8IYK4	inf	1.0	inf
Q6UW63	inf	1.0	inf
Q13033	inf	inf	1.0
P78540	1.0	inf	inf
O75569	inf	inf	1.0
Q9BZK7	0.0	0.0	inf
O60701	inf	inf	1.0
Q0VAQ4	inf	inf	1.0
Q6NT76	inf	inf	1.0
Q8TE76	inf	inf	1.0
Q14344	inf	0.0	inf
Q86VI1	0.0	inf	0.0
Q8N335	inf	0.0	0.0
Q8N442	1.0	inf	inf
Q8N441	0.0	0.0	0.0
Q8N336	inf	inf	1.0
O43504	inf	inf	0.0
Q8TAP6	inf	0.0	inf
P35625	0.0	0.0	inf
P21549	1.0	inf	0.0
P01100	inf	inf	1.0
Q8NCN4	inf	0.0	inf
E9PMC9	inf	inf	1.0
H3BP71	inf	inf	1.0
Q9H165	inf	inf	1.0
Q9Y6E7	inf	inf	0.0
P42765	inf	0.0	inf
Q9UHD8	inf	inf	0.0
P22087	inf	0.0	1.0
Q9NPH9	inf	inf	0.0
P49450	0.0	inf	1.0
Q9NPH5	inf	inf	1.0
E7EN32	inf	inf	1.0
Q9UHD4	0.0	inf	0.0
Q9NRD0	inf	0.0	inf
E7EVV8	inf	inf	1.0
Q9NZN5	inf	inf	0.0
Q7Z5G4	0.0	inf	0.0
G8JLH2	inf	inf	1.0
P31941	inf	inf	1.0
P40926	1.0	inf	1.0
B4E2D5	inf	inf	1.0
Q92930	inf	0.0	inf
E2QRD4	inf	inf	1.0
P61964	inf	0.0	1.0
P18124	inf	inf	1.0
Q9HC16	inf	inf	0.0
P15407	inf	inf	1.0
P35270	inf	inf	1.0
P10114	0.0	inf	0.0
Q9UI17	1.0	inf	inf
Q9UI12	0.0	inf	inf
A6NLJ0	inf	inf	1.0
P17482	inf	inf	1.0
Q8WV24	inf	inf	1.0
Q6UWR7	inf	0.0	0.0
Q8TEX9	inf	inf	1.0
O94817	0.0	inf	inf
Q9GZS0	0.0	inf	inf
Q5W0Z9	0.0	0.0	0.0
Q96HC4	0.0	inf	inf
O94818	inf	inf	1.0
Q8IWY4	inf	inf	0.0
O43681	inf	inf	1.0
Q6NUN0	1.0	inf	inf
O43683	inf	inf	1.0
O43684	0.0	0.0	inf
Q8WUM4	inf	inf	0.0
O43687	0.0	0.0	inf
F8W6A0	inf	inf	1.0
Q9UBY9	inf	inf	1.0
O75182	inf	inf	1.0
Q99685	0.0	inf	inf
Q99684	inf	inf	1.0
F5H0R1	inf	inf	1.0
Q99683	0.0	inf	0.0
Q05655	inf	inf	1.0
P25685	0.0	inf	1.0
P25686	0.0	inf	inf
Q8N157	0.0	inf	inf
Q9UMY1	inf	inf	1.0
Q5VVJ2	0.0	inf	inf
Q2M5E4	inf	inf	0.0
O75386	0.0	inf	1.0
Q99436	inf	inf	1.0
P36382	0.0	0.0	0.0
Q9NRA8	inf	inf	1.0
Q9NUS5	inf	inf	1.0
Q15744	inf	inf	1.0
P33151	0.0	inf	inf
Q9NY61	inf	inf	1.0
Q13363	inf	0.0	1.0
P23769	inf	inf	1.0
Q96DB2	0.0	inf	1.0
Q9GZS1	0.0	inf	inf
O95500	0.0	inf	0.0
O43353	inf	inf	0.0
O95503	0.0	inf	1.0
F8WE56	inf	inf	1.0
Q9ULZ3	inf	inf	1.0
Q9NYK5	1.0	inf	inf
Q86YS7	inf	inf	0.0
Q86YS6	inf	0.0	0.0
Q9UHJ3	0.0	0.0	1.0
Q99538	inf	0.0	inf
P80723	inf	inf	1.0
Q96PK6	0.0	inf	1.0
Q6PEW1	inf	inf	1.0
Q13367	inf	inf	1.0
Q9BQE4	0.0	inf	0.0
Q8N1G2	inf	inf	1.0
Q16478	0.0	inf	inf
Q9UNZ2	inf	inf	1.0
M0QZS6	inf	inf	1.0
Q96RS6	inf	inf	1.0
Q9ULD0	inf	inf	0.0
Q0ZGT2	inf	0.0	inf
Q96ME7	inf	inf	1.0
I3L0U5	inf	inf	1.0
B8ZZU6	inf	inf	1.0
Q96KK3	0.0	0.0	0.0
M5A8F1	0.0	0.0	inf
Q9UL03	inf	0.0	1.0
P68871	0.0	inf	inf
Q9UHJ9	0.0	inf	inf
Q9UJT2	inf	0.0	inf
V9GYJ9	1.0	inf	inf
Q8N1Q8	1.0	inf	inf
Q96FX2	inf	inf	1.0
Q96FX7	0.0	inf	inf
Q12769	inf	inf	0.0
Q8N1G0	inf	inf	1.0
O95619	inf	inf	1.0
Q9Y5C1	inf	0.0	0.0
O43865	inf	inf	0.0
Q9NS69	inf	inf	0.0
O15503	0.0	inf	0.0
P48051	0.0	0.0	0.0
Q16656	inf	inf	1.0
Q16654	1.0	inf	inf
Q9NS61	inf	inf	0.0
Q15691	inf	inf	0.0
P48059	inf	0.0	0.0
P48058	0.0	0.0	0.0
P03372	inf	inf	1.0
E7EQT4	inf	inf	1.0
K7ERQ8	0.0	inf	inf
B4DUA7	inf	inf	1.0
P12757	inf	inf	1.0
Q14004	inf	inf	1.0
Q9UPP1	0.0	inf	1.0
F5GWD3	inf	inf	1.0
Q9NS87	inf	0.0	inf
P51151	0.0	inf	0.0
Q96EL2	1.0	inf	inf
E9PS93	inf	inf	1.0
Q3SYG4	0.0	inf	inf
Q9BX68	inf	inf	1.0
Q9BV86	inf	inf	1.0
Q9BV81	0.0	inf	inf
P22897	inf	0.0	inf
B4DDC6	inf	inf	1.0
P04554	inf	inf	1.0
Q9HD34	1.0	inf	inf
Q9HD36	inf	inf	0.0
E7EWR4	inf	inf	1.0
Q9HD33	inf	inf	0.0
O60942	inf	inf	1.0
Q14831	0.0	0.0	0.0
J3KN01	inf	inf	1.0
Q14832	0.0	inf	0.0
O15287	inf	inf	1.0
Q13591	0.0	0.0	0.0
O14746	1.0	0.0	inf
Q5T4B2	inf	1.0	inf
Q8WWB7	0.0	0.0	inf
Q8N5Y2	inf	inf	1.0
P22415	inf	0.0	1.0
P13807	inf	inf	0.0
P16444	0.0	inf	inf
P22413	0.0	0.0	0.0
P15259	0.0	inf	inf
O00303	inf	inf	0.0
P50402	0.0	inf	0.0
Q9BY12	inf	inf	1.0
P55160	0.0	0.0	0.0
Q8NHU3	0.0	inf	inf
Q96D15	inf	1.0	inf
Q7Z3K3	inf	inf	1.0
P84022	inf	inf	1.0
Q15334	inf	inf	0.0
E9PJD7	inf	inf	1.0
Q15717	inf	inf	1.0
Q14209	inf	inf	1.0
Q9UBN4	inf	inf	0.0
P10599	inf	inf	1.0
O60499	0.0	0.0	inf
Q86V40	0.0	inf	inf
Q9Y2J8	inf	inf	0.0
P30711	0.0	inf	0.0
O00213	inf	inf	1.0
P55345	inf	inf	1.0
Q6UXL0	inf	0.0	0.0
O00217	inf	0.0	0.0
Q8N5K1	inf	inf	0.0
H7C171	inf	inf	1.0
P00338	inf	0.0	inf
P52803	0.0	0.0	0.0
Q15233	inf	0.0	inf
Q9Y2D1	inf	inf	1.0
Q9Y2D0	1.0	inf	inf
C9JA08	inf	inf	1.0
O00186	inf	0.0	inf
Q9Y2D8	inf	0.0	inf
P59103	inf	0.0	inf
J3KMZ8	inf	inf	1.0
E9PH71	inf	inf	1.0
E9PH70	inf	inf	1.0
Q92845	0.0	inf	1.0
Q9NV31	inf	inf	1.0
Q96C03	inf	inf	0.0
B9A032	inf	inf	1.0
Q13686	inf	inf	1.0
Q53GT1	inf	inf	0.0
P13716	0.0	inf	inf
Q5VWG9	0.0	inf	inf
Q01831	inf	inf	1.0
Q9Y4H2	0.0	inf	0.0
O76050	inf	0.0	0.0
Q12888	inf	inf	1.0
Q16254	inf	inf	1.0
P14920	0.0	inf	inf
P14921	inf	inf	1.0
Q07666	inf	inf	1.0
Q969X6	0.0	inf	inf
Q12882	inf	inf	0.0
Q9NRY2	0.0	0.0	1.0
Q9ULL8	inf	inf	0.0
Q3T906	0.0	inf	inf
Q12884	inf	inf	0.0
D6RC60	inf	inf	1.0
O00327	0.0	inf	inf
Q13950	inf	inf	1.0
O00322	inf	inf	0.0
Q92994	inf	inf	1.0
O15084	inf	inf	1.0
Q9Y2V2	inf	0.0	inf
Q92993	0.0	inf	1.0
A8MWX3	0.0	inf	0.0
Q96CB8	inf	inf	1.0
Q9Y6M5	inf	inf	0.0
H0Y8X4	inf	inf	1.0
Q96CB5	inf	inf	1.0
P01730	0.0	inf	inf
P16615	0.0	inf	inf
Q9Y639	0.0	inf	0.0
P57729	inf	inf	0.0
Q12873	inf	inf	1.0
Q7Z4N8	inf	1.0	inf
P29322	0.0	0.0	inf
P29323	0.0	0.0	0.0
P29320	inf	0.0	inf
P39059	inf	1.0	inf
Q8N6L0	inf	inf	1.0
P57052	0.0	inf	1.0
Q8NE79	inf	0.0	0.0
Q8NBJ5	inf	1.0	inf
P28325	0.0	0.0	0.0
P28324	inf	inf	1.0
P04196	0.0	inf	0.0
F5H6H0	inf	inf	1.0
P02647	inf	1.0	inf
Q7LDG7	0.0	inf	0.0
Q969H6	inf	inf	1.0
Q9P086	inf	inf	1.0
Q9UJX5	inf	0.0	1.0
Q969H0	inf	inf	1.0
Q8IYT8	0.0	inf	0.0
Q32P28	0.0	inf	inf
Q969H8	inf	1.0	inf
P51828	0.0	inf	inf
P01024	0.0	inf	0.0
P01023	0.0	inf	inf
Q9UHF7	0.0	inf	1.0
Q9H2G2	inf	inf	0.0
P17677	inf	inf	0.0
P53990	0.0	0.0	0.0
P09429	inf	0.0	1.0
P51825	inf	inf	1.0
Q9Y256	0.0	inf	inf
P41214	inf	inf	1.0
Q9Y255	inf	0.0	inf
Q8TAC9	inf	0.0	0.0
Q9Y253	inf	inf	1.0
O15350	inf	inf	1.0
Q9Y6F1	0.0	inf	inf
P08727	0.0	0.0	inf
O15354	0.0	0.0	inf
O15357	inf	inf	0.0
Q5SW96	0.0	0.0	0.0
Q8IX07	inf	inf	1.0
Q9UKY1	0.0	inf	1.0
Q9GZN2	inf	inf	1.0
Q96QR8	inf	inf	1.0
Q9BXL7	inf	inf	0.0
Q9BXL5	inf	inf	1.0
Q8IYJ3	inf	inf	0.0
Q9BSH4	inf	inf	1.0
Q8TAQ2	inf	0.0	1.0
Q9BRQ6	inf	inf	0.0
O15504	inf	inf	1.0
P15529	0.0	inf	0.0
Q14332	inf	inf	0.0
P35638	inf	inf	1.0
Q9H7X7	0.0	inf	0.0
Q07869	inf	inf	1.0
P16870	inf	0.0	inf
Q92753	inf	inf	1.0
Q8N187	inf	inf	1.0
P43007	inf	0.0	inf
P43005	0.0	inf	0.0
Q5T7B8	inf	0.0	0.0
O75971	inf	inf	1.0
Q86WX3	inf	inf	1.0
P42574	0.0	inf	inf
Q02447	inf	inf	1.0
Q02446	inf	inf	1.0
Q13115	inf	inf	1.0
Q16658	inf	inf	0.0
Q13112	inf	inf	1.0
Q13111	0.0	0.0	1.0
H3BLZ8	inf	inf	1.0
Q8N3F8	0.0	inf	0.0
Q9NYD6	inf	inf	1.0
P58340	inf	inf	1.0
P32418	0.0	0.0	inf
Q86VZ5	0.0	inf	inf
P08473	inf	inf	0.0
P42680	0.0	inf	0.0
Q96JJ7	inf	inf	0.0
Q9HAU4	inf	inf	1.0
Q6IQ55	0.0	inf	inf
P10124	inf	inf	0.0
I6L8A6	inf	inf	1.0
P04179	1.0	0.0	0.0
Q05823	inf	inf	1.0
Q7LBE3	inf	0.0	inf
Q14241	inf	inf	1.0
I3L4J3	inf	inf	1.0
O95429	0.0	inf	inf
O94823	0.0	inf	inf
Q9UDW3	inf	inf	1.0
Q8IVL5	inf	1.0	0.0
P35680	inf	inf	1.0
Q5W0U4	inf	inf	1.0
Q92759	inf	inf	1.0
P06858	0.0	0.0	0.0
Q8TD30	1.0	inf	inf
Q8N6P7	0.0	inf	0.0
Q13200	inf	inf	1.0
P49336	inf	inf	1.0
F5H2A4	inf	inf	1.0
O75197	inf	inf	0.0
Q1ED39	inf	inf	1.0
O75190	inf	inf	1.0
Q9H244	inf	0.0	inf
O75192	inf	0.0	inf
P31350	inf	inf	1.0
Q6PIY2	inf	inf	1.0
Q5IJ48	0.0	0.0	inf
O75356	0.0	inf	0.0
P11230	0.0	inf	0.0
P63000	inf	inf	0.0
Q8N163	1.0	inf	1.0
Q8IVH4	1.0	inf	inf
Q8N165	inf	inf	1.0
O94953	inf	inf	1.0
Q8WY41	inf	inf	0.0
E7EV03	inf	inf	1.0
Q9BWX5	inf	inf	1.0
Q96BS2	inf	inf	1.0
P16298	0.0	inf	inf
P82932	1.0	inf	inf
P82933	1.0	inf	1.0
Q6UW56	0.0	0.0	0.0
Q15750	inf	inf	1.0
Q92610	inf	inf	1.0
Q9GZR5	0.0	inf	inf
Q16790	inf	inf	1.0
Q9NWB7	inf	0.0	inf
P54198	0.0	inf	1.0
P19086	inf	inf	0.0
Q16795	1.0	inf	inf
O14910	inf	0.0	0.0
P53999	inf	0.0	1.0
P62280	inf	inf	1.0
P16050	0.0	inf	0.0
P67809	inf	inf	1.0
Q9Y5R2	0.0	0.0	inf
Q16401	inf	inf	1.0
Q9UHI5	inf	inf	0.0
Q9UHI6	inf	inf	1.0
P25787	0.0	inf	1.0
P49427	inf	inf	1.0
Q8NDF8	inf	inf	1.0
M0R268	inf	inf	1.0
D6REM1	inf	inf	1.0
Q9NR22	0.0	inf	inf
U3KPW4	inf	inf	1.0
Q86Z02	inf	inf	1.0
Q96RP9	1.0	inf	inf
L7N2F9	inf	0.0	inf
Q9NR23	inf	inf	0.0
P17658	inf	0.0	0.0
K7EPV1	inf	inf	1.0
P61626	0.0	0.0	0.0
Q8IZH2	inf	inf	0.0
Q10570	inf	inf	1.0
Q9ULW5	inf	inf	0.0
Q9ULW2	inf	inf	0.0
Q9ULW3	inf	inf	1.0
Q8NFT6	inf	inf	1.0
F5H8D0	1.0	inf	inf
D6REC9	inf	inf	1.0
Q8N3Z6	inf	inf	1.0
Q9H9Q4	0.0	0.0	inf
Q8TBC4	inf	0.0	inf
P21953	1.0	0.0	0.0
Q12797	0.0	inf	inf
Q12794	inf	inf	0.0
P22557	1.0	inf	0.0
O94776	0.0	0.0	inf
O94777	inf	inf	0.0
Q9HCE5	0.0	0.0	inf
Q8NC60	inf	0.0	0.0
Q9HCE7	inf	inf	1.0
P09917	0.0	0.0	inf
Q9HCE1	inf	0.0	inf
P15813	inf	inf	0.0
Q9NX20	1.0	inf	inf
O15516	inf	inf	1.0
O43889	inf	inf	1.0
D6R9Q3	inf	inf	1.0
Q9BUT1	inf	inf	0.0
P55199	inf	inf	1.0
P63220	inf	inf	0.0
P11142	inf	inf	1.0
Q14839	inf	inf	1.0
O43768	inf	inf	1.0
Q9UPW6	inf	inf	1.0
Q5TB30	inf	inf	1.0
Q9NQX7	0.0	inf	0.0
P13498	inf	inf	0.0
Q16134	1.0	inf	inf
Q96EK4	inf	inf	1.0
Q15388	inf	inf	0.0
Q08999	inf	inf	1.0
Q9HBX8	inf	inf	1.0
Q96NY9	inf	0.0	1.0
Q9BV94	inf	1.0	inf
Q9NZH6	inf	inf	1.0
Q9NZH0	inf	inf	1.0
F8WDE9	inf	inf	1.0
J3KN13	inf	inf	1.0
Q9NWN3	inf	inf	1.0
Q96T49	inf	0.0	inf
Q70HW3	inf	0.0	0.0
Q13761	inf	inf	1.0
Q14807	inf	inf	1.0
Q8N5Z0	1.0	inf	inf
O14773	inf	0.0	inf
P15260	inf	inf	0.0
O14776	0.0	0.0	inf
Q13569	inf	inf	1.0
E9PJK2	inf	inf	1.0
Q9NW38	inf	inf	1.0
P16278	inf	inf	0.0
P55197	inf	inf	1.0
P62266	inf	inf	1.0
P49407	inf	inf	1.0
P85037	0.0	inf	1.0
Q9Y2M0	inf	inf	1.0
Q9UJW3	0.0	inf	inf
Q9BWJ5	inf	inf	1.0
H0YG67	inf	inf	1.0
P13385	0.0	inf	inf
Q9NZV8	0.0	0.0	inf
Q96HA9	inf	0.0	0.0
Q9Y6W6	inf	inf	1.0
Q8NAM6	inf	inf	1.0
P31146	inf	inf	0.0
Q9UNX4	inf	inf	1.0
Q8NE86	inf	0.0	0.0
Q9NUN7	0.0	inf	inf
B5MEB3	inf	inf	1.0
O15273	inf	0.0	inf
Q9UQL6	inf	inf	1.0
O00203	inf	0.0	inf
P10721	0.0	0.0	inf
O75164	inf	inf	1.0
Q9Y2G2	inf	inf	1.0
Q6UX06	inf	0.0	inf
P08887	0.0	inf	0.0
Q9HB40	inf	0.0	0.0
O00192	inf	inf	1.0
P17014	0.0	0.0	1.0
C9JZ40	inf	inf	1.0
P54646	inf	inf	1.0
Q9NV06	0.0	0.0	inf
Q6NS38	0.0	0.0	1.0
B4E0Y9	inf	inf	1.0
Q01844	inf	inf	1.0
P08172	inf	inf	0.0
Q5VZU9	inf	inf	1.0
O76064	inf	0.0	1.0
Q9BTT0	0.0	0.0	1.0
O76061	0.0	inf	0.0
Q9BTT4	inf	inf	1.0
Q8N5Y8	inf	inf	0.0
P05108	1.0	inf	inf
Q96G23	0.0	inf	0.0
Q9H9Y2	inf	inf	1.0
Q5T5C0	inf	inf	0.0
O00330	1.0	inf	inf
Q08495	0.0	inf	0.0
O00161	inf	inf	1.0
Q9Y2Q3	1.0	inf	inf
Q9Y2Q0	0.0	inf	inf
Q08499	0.0	inf	0.0
P54760	0.0	0.0	0.0
P05106	0.0	0.0	inf
Q9Y2Q5	0.0	0.0	0.0
Q9UHB9	inf	inf	1.0
Q9Y624	0.0	0.0	0.0
O95168	inf	inf	1.0
O95166	inf	inf	0.0
O43543	inf	inf	0.0
P06132	inf	inf	1.0
P23396	inf	inf	1.0
Q6FI81	inf	inf	1.0
M0QZ34	inf	inf	1.0
P18858	inf	inf	1.0
Q12968	inf	inf	1.0
Q00577	inf	inf	1.0
Q12965	inf	inf	0.0
Q96EY5	inf	inf	1.0
Q12967	0.0	0.0	inf
Q96EY1	1.0	inf	inf
Q9P0K7	inf	inf	1.0
Q6IQ26	0.0	0.0	inf
Q9P253	inf	inf	0.0
Q9UID6	0.0	0.0	1.0
Q6IQ22	inf	inf	0.0
P07942	inf	0.0	inf
Q9P258	0.0	inf	1.0
P04181	1.0	inf	inf
P04180	inf	0.0	inf
A4D1S5	inf	inf	0.0
Q9H0H0	inf	inf	1.0
P53814	inf	inf	1.0
Q9NXX6	0.0	inf	inf
Q96NS1	inf	inf	1.0
P34130	0.0	inf	0.0
Q9BXS5	0.0	inf	inf
Q9BXS4	inf	inf	0.0
Q86UU0	inf	inf	1.0
Q9BXS9	inf	inf	0.0
Q9H3F6	inf	inf	1.0
Q86UU5	inf	inf	1.0
Q96QC0	inf	inf	1.0
P20783	0.0	0.0	inf
Q6PJ72	inf	inf	1.0
Q9H1E1	inf	0.0	0.0
P43364	inf	inf	1.0
P55809	1.0	inf	inf
Q6ZU65	inf	inf	1.0
P00505	inf	0.0	0.0
Q15031	1.0	inf	inf
Q9Y244	inf	inf	1.0
Q9Y3E0	inf	inf	0.0
O15162	0.0	inf	1.0
Q9Y243	inf	inf	1.0
Q99460	inf	inf	1.0
P0C0E4	inf	inf	0.0
O96017	inf	inf	1.0
G3V256	inf	inf	1.0
Q99828	inf	inf	1.0
Q8TE54	inf	inf	0.0
O75506	inf	inf	1.0
E5KLJ9	inf	inf	1.0
Q9UKV8	inf	inf	1.0
O95948	inf	0.0	1.0
O75508	0.0	0.0	inf
O75509	0.0	0.0	0.0
Q9UKV3	inf	inf	1.0
Q9Y4K0	0.0	0.0	inf
P01275	inf	1.0	inf
Q9Y6K1	inf	inf	1.0
Q01538	inf	inf	1.0
P46199	inf	inf	1.0
O60729	0.0	inf	inf
Q5VV67	inf	inf	1.0
Q9Y6K8	inf	inf	0.0
P50613	inf	inf	1.0
P05362	inf	inf	0.0
P62993	inf	inf	1.0
O76082	inf	0.0	inf
Q9H3Q1	inf	inf	0.0
Q8NFU1	0.0	inf	0.0
Q6P1M0	0.0	0.0	inf
P42568	0.0	inf	1.0
Q92743	inf	0.0	0.0
E7ETV8	inf	inf	1.0
Q6ISB3	0.0	0.0	inf
Q00444	inf	inf	1.0
Q14814	inf	inf	1.0
Q9UHG0	inf	inf	0.0
O95388	inf	inf	0.0
Q5W0Q7	inf	0.0	inf
B5MCL5	inf	inf	1.0
Q13164	inf	inf	1.0
P00403	inf	inf	0.0
Q14032	inf	inf	0.0
Q99959	inf	0.0	1.0
Q8N9A8	inf	inf	0.0
Q6ZMZ3	0.0	inf	inf
Q04656	0.0	inf	inf
Q9UI33	0.0	inf	0.0
Q9UI32	1.0	inf	inf
Q7KZN9	inf	0.0	0.0
Q9UI30	0.0	inf	0.0
P53367	0.0	0.0	inf
Q92560	inf	inf	1.0
P39019	inf	inf	1.0
Q9HAT2	inf	0.0	inf
P42695	inf	inf	1.0
P48443	inf	inf	1.0
Q96JK9	0.0	inf	inf
Q53FZ2	1.0	inf	inf
P18146	inf	inf	1.0
A6NFA1	0.0	inf	inf
P61981	inf	0.0	inf
Q7Z6K1	0.0	0.0	1.0
Q9BV10	0.0	inf	0.0
Q8TEV9	inf	inf	1.0
P0C5Y9	inf	inf	1.0
Q14254	inf	0.0	0.0
Q5VTR2	inf	0.0	1.0
Q9UIV1	0.0	0.0	inf
Q6P4F2	1.0	inf	inf
Q8N4C8	inf	inf	0.0
P10914	inf	inf	1.0
Q8WU79	inf	inf	1.0
Q8IU81	inf	inf	1.0
Q8IU80	0.0	inf	0.0
J3KPH8	inf	inf	1.0
O94832	0.0	0.0	0.0
Q96HE7	inf	1.0	inf
Q7LG56	inf	inf	1.0
O95104	inf	inf	1.0
Q6UWF3	0.0	inf	0.0
Q53HL2	inf	0.0	inf
Q8N6S4	0.0	inf	0.0
Q9UKN8	inf	inf	1.0
P08311	0.0	inf	inf
H9KVB1	inf	inf	1.0
Q8TD23	0.0	0.0	inf
Q8IW40	inf	inf	0.0
O14908	inf	inf	0.0
P49184	0.0	inf	inf
Q14781	0.0	inf	inf
Q04727	inf	inf	1.0
Q8TED0	inf	inf	1.0
Q8WUP2	0.0	inf	0.0
O75326	0.0	inf	0.0
P14635	inf	inf	1.0
P53567	inf	inf	1.0
Q86YC2	inf	inf	1.0
O94941	inf	inf	1.0
P07992	inf	inf	1.0
O43598	inf	inf	1.0
P07996	inf	1.0	0.0
Q659A1	0.0	inf	1.0
O43592	inf	inf	1.0
Q8N2Q7	inf	inf	0.0
P24863	inf	inf	1.0
O14904	inf	0.0	0.0
P82251	0.0	inf	0.0
P24864	0.0	0.0	inf
P40126	0.0	0.0	inf
P41181	0.0	0.0	inf
Q9NUQ6	inf	inf	1.0
O43379	inf	inf	1.0
Q96BP2	inf	inf	1.0
P16284	0.0	inf	0.0
Q86X52	inf	0.0	inf
Q5SQT3	inf	inf	1.0
Q86X55	inf	inf	1.0
Q9NWM8	inf	1.0	inf
Q9NY43	inf	inf	1.0
Q02763	inf	0.0	0.0
Q9C026	inf	inf	0.0
Q96PM9	inf	inf	1.0
Q13308	0.0	0.0	inf
Q9UHH9	inf	inf	1.0
Q9Y5S8	0.0	inf	0.0
P07203	1.0	inf	inf
Q9ULX6	inf	inf	1.0
Q4U2R8	inf	inf	0.0
Q92876	inf	inf	1.0
O60216	inf	inf	1.0
Q96RQ3	1.0	inf	inf
Q4U2R6	1.0	0.0	inf
Q8IWF2	inf	1.0	inf
Q9ULV5	inf	inf	1.0
O94766	0.0	inf	inf
Q13285	inf	inf	1.0
Q9ULV1	0.0	0.0	0.0
Q9ULV0	inf	0.0	inf
P40879	inf	0.0	0.0
P40692	0.0	0.0	inf
Q9BQ16	inf	inf	0.0
O15554	inf	0.0	inf
P61160	inf	inf	0.0
H0YJS3	inf	inf	1.0
H3BP82	inf	inf	1.0
P36894	0.0	0.0	0.0
P36896	0.0	0.0	0.0
Q9H469	inf	inf	0.0
Q12788	inf	inf	1.0
Q9UNF0	inf	inf	1.0
E9PFE2	inf	inf	1.0
P84996	0.0	inf	0.0
Q9H9P8	inf	0.0	inf
Q9NX38	inf	inf	1.0
Q13416	inf	inf	1.0
Q8IU60	inf	inf	1.0
P07333	0.0	0.0	inf
P07332	inf	inf	0.0
Q8IU68	inf	inf	0.0
Q13418	inf	inf	1.0
P61764	inf	inf	1.0
O00571	inf	inf	1.0
P10600	0.0	0.0	inf
P30154	inf	0.0	inf
E5RFF3	inf	inf	1.0
P47900	inf	0.0	0.0
Q9NZI2	inf	inf	0.0
Q8N1E6	inf	inf	1.0
Q13342	inf	inf	1.0
Q7L804	inf	inf	1.0
P62072	inf	inf	0.0
Q8NHS0	0.0	0.0	inf
P62070	inf	inf	0.0
K7EIH5	inf	inf	1.0
Q15788	inf	inf	1.0
Q13574	inf	inf	1.0
P49411	1.0	inf	0.0
Q9BUI4	inf	0.0	inf
O95707	0.0	0.0	inf
P62277	0.0	inf	inf
Q96L12	inf	1.0	inf
Q9H5H4	inf	inf	1.0
Q96MM7	inf	inf	1.0
Q9NR19	inf	inf	1.0
P16083	inf	inf	1.0
P37275	inf	inf	1.0
Q9NP58	inf	inf	0.0
O00231	inf	inf	1.0
Q6PJP8	inf	inf	1.0
P05023	0.0	inf	0.0
Q8IXQ9	1.0	inf	inf
P05026	0.0	inf	0.0
Q9NSA0	0.0	0.0	0.0
P17026	inf	inf	1.0
Q9P032	inf	0.0	inf
E9PHV5	inf	inf	1.0
Q8N5M1	inf	inf	1.0
P17028	0.0	inf	1.0
P61218	0.0	0.0	1.0
Q969Q5	inf	inf	0.0
Q9HB58	inf	inf	1.0
Q8WTP8	0.0	0.0	1.0
P50993	inf	inf	0.0
B0QYY4	inf	inf	1.0
P50995	inf	inf	1.0
P52824	inf	inf	1.0
Q6RFH5	inf	inf	1.0
P62942	inf	inf	0.0
Q96TA1	inf	inf	1.0
B8ZZA1	inf	inf	1.0
Q96C24	inf	inf	1.0
Q9P2R6	inf	inf	1.0
Q9P2R7	1.0	inf	inf
C9JL75	inf	inf	1.0
P51159	0.0	inf	inf
P05111	0.0	inf	inf
Q96AP0	inf	inf	1.0
Q5BIV9	inf	inf	1.0
P51153	inf	inf	0.0
P35030	0.0	inf	inf
O76076	0.0	inf	0.0
O76075	inf	0.0	1.0
Q9BTU6	inf	0.0	inf
Q96I25	inf	inf	1.0
Q9P2D0	inf	inf	1.0
P16671	0.0	0.0	0.0
Q96T37	inf	inf	1.0
O00305	inf	0.0	inf
P56211	inf	inf	1.0
O60583	inf	inf	1.0
Q9Y2P5	0.0	inf	inf
P21796	1.0	inf	inf
Q9Y2P7	inf	0.0	1.0
Q9BVI4	inf	inf	1.0
Q9UMX2	0.0	0.0	inf
Q9Y653	0.0	0.0	inf
F6RY50	inf	inf	1.0
Q04864	0.0	inf	1.0
Q86XL3	inf	inf	0.0
Q9Y657	0.0	inf	inf
Q969X1	0.0	inf	inf
Q9UMX5	inf	inf	1.0
O14576	inf	0.0	0.0
Q9UL25	0.0	inf	inf
C9JQN2	inf	inf	1.0
Q9UL26	inf	0.0	0.0
Q13795	0.0	inf	0.0
Q13794	inf	0.0	inf
P18848	inf	inf	1.0
Q9BRQ8	inf	inf	0.0
Q9H6X2	0.0	inf	inf
M0QZ09	inf	inf	1.0
P14678	inf	inf	1.0
Q9BRQ3	inf	inf	1.0
P18846	inf	0.0	inf
Q9BRQ0	inf	inf	1.0
P62851	inf	inf	1.0
Q9NVU0	inf	inf	1.0
P02462	0.0	inf	0.0
P02461	0.0	1.0	inf
Q8N6N3	inf	inf	1.0
Q9P267	0.0	inf	inf
P52597	0.0	inf	inf
Q86WV6	0.0	0.0	0.0
Q9NQC7	0.0	0.0	1.0
Q86WV5	inf	inf	1.0
Q9H8W5	inf	inf	1.0
Q9UKI9	inf	inf	1.0
Q92889	inf	0.0	inf
Q16270	0.0	0.0	0.0
Q9Y6X5	0.0	0.0	inf
P54259	inf	inf	1.0
P01042	0.0	0.0	0.0
Q15029	inf	inf	1.0
Q9Y6X3	0.0	inf	1.0
Q9H1D9	inf	inf	1.0
Q15024	inf	inf	1.0
P20774	0.0	inf	0.0
O00541	inf	inf	1.0
Q6PJG2	inf	inf	1.0
O00590	inf	0.0	0.0
P78310	0.0	inf	inf
P29016	0.0	inf	inf
Q9H7H0	inf	inf	1.0
K7EIT2	inf	inf	1.0
P78317	inf	inf	1.0
Q5JRX3	1.0	inf	inf
P51843	inf	inf	1.0
O15178	inf	inf	1.0
F5H5B4	inf	inf	1.0
Q8TE23	inf	inf	0.0
P22303	inf	0.0	inf
Q14847	0.0	inf	0.0
P53779	inf	inf	1.0
P22307	inf	inf	1.0
P04085	0.0	inf	0.0
Q6P9F0	inf	inf	1.0
Q6IMN6	inf	inf	1.0
Q9GZL7	inf	inf	1.0
Q16762	inf	inf	0.0
P35613	inf	inf	0.0
P35612	inf	0.0	inf
P35611	inf	inf	1.0
Q9P1Z3	0.0	inf	inf
Q9Y6J9	0.0	0.0	1.0
Q9Y6J6	inf	0.0	0.0
J3KMZ0	inf	inf	1.0
P35348	0.0	0.0	inf
P78537	1.0	0.0	inf
P78536	inf	inf	0.0
O76095	inf	inf	0.0
Q8NFT8	0.0	0.0	0.0
Q14653	inf	inf	1.0
Q14318	0.0	0.0	0.0
O76090	0.0	inf	0.0
Q5TD07	inf	inf	1.0
Q9UER7	inf	inf	1.0
Q9H7V2	0.0	0.0	0.0
Q8IY57	inf	inf	1.0
P32969	inf	inf	1.0
O95393	inf	inf	0.0
Q7LBC6	inf	inf	1.0
O43818	inf	inf	1.0
Q02252	inf	0.0	inf
Q9Y6D0	0.0	inf	0.0
O95198	inf	inf	0.0
Q92551	inf	inf	1.0
Q8NFF5	1.0	inf	inf
Q9BYB0	inf	inf	0.0
Q99969	0.0	0.0	inf
J3QL36	inf	inf	1.0
O43741	inf	inf	1.0
J3KQ70	inf	inf	1.0
Q1ZZU3	inf	inf	1.0
Q9UI43	inf	inf	1.0
P23327	inf	1.0	inf
Q8TA86	inf	inf	1.0
Q92791	inf	inf	1.0
Q5JTD0	inf	inf	1.0
P86452	inf	inf	1.0
Q01459	0.0	inf	inf
B8ZZW7	inf	inf	1.0
Q96BP3	inf	inf	1.0
P04150	inf	inf	1.0
Q9Y3B4	inf	inf	1.0
Q9Y3B2	inf	inf	1.0
O96011	inf	inf	0.0
Q9HAW4	inf	inf	1.0
M0R2I2	inf	inf	1.0
Q6UWW8	inf	1.0	inf
P41235	inf	inf	1.0
Q9HAW0	inf	inf	1.0
Q9P289	inf	inf	1.0
Q99814	inf	inf	1.0
O75683	inf	inf	1.0
Q6PJG6	0.0	inf	inf
Q96IU4	inf	inf	1.0
O75688	0.0	0.0	inf
F5GZ28	inf	inf	1.0
Q8TEW0	inf	inf	0.0
Q9H082	inf	inf	0.0
Q9UMD9	inf	1.0	inf
Q9UGU0	inf	inf	1.0
Q8WU68	inf	inf	1.0
O94842	0.0	inf	1.0
Q8N4B1	0.0	0.0	inf
Q9H4K7	1.0	inf	0.0
P25490	0.0	inf	1.0
Q9P0J6	1.0	inf	inf
Q02386	inf	inf	1.0
Q6NUM9	0.0	0.0	inf
P35670	inf	inf	0.0
Q9GZY6	0.0	0.0	0.0
Q9Y3P8	0.0	0.0	inf
Q9NW13	inf	inf	1.0
Q68CQ4	0.0	inf	1.0
Q6UWE0	inf	inf	0.0
Q96D31	0.0	0.0	0.0
Q99496	0.0	inf	1.0
Q02880	inf	inf	1.0
Q53T94	inf	0.0	1.0
P57727	0.0	inf	0.0
P14625	inf	1.0	inf
Q5JPH6	1.0	inf	inf
Q8N108	inf	inf	1.0
Q12905	inf	inf	1.0
P20226	inf	inf	1.0
Q5FYA8	inf	1.0	inf
Q8TCQ1	0.0	inf	0.0
Q9UH99	inf	0.0	inf
Q9H063	inf	inf	1.0
O14972	0.0	0.0	inf
Q02086	0.0	inf	1.0
O95573	0.0	inf	inf
J3KR25	inf	inf	1.0
O14975	inf	1.0	0.0
O14978	inf	inf	1.0
Q8WUM0	inf	0.0	inf
Q99490	inf	inf	1.0
P07237	0.0	1.0	inf
O43561	0.0	0.0	0.0
Q8NBJ7	inf	1.0	inf
Q99569	inf	inf	0.0
P04628	inf	inf	0.0
Q9GZP0	inf	1.0	inf
P53420	0.0	inf	0.0
O75027	inf	0.0	0.0
Q8N3J5	1.0	inf	inf
Q05516	0.0	inf	1.0
Q05519	inf	inf	1.0
P05937	0.0	inf	inf
Q86Y91	inf	inf	1.0
P11387	inf	0.0	1.0
Q96HF1	inf	0.0	inf
Q86Y97	inf	inf	1.0
Q9UNW1	inf	1.0	inf
Q14684	0.0	inf	inf
P19397	0.0	inf	0.0
Q9HCU8	inf	inf	1.0
Q9Y6A4	inf	0.0	inf
Q14680	inf	inf	0.0
P16383	inf	0.0	inf
K7ES46	inf	inf	1.0
Q8IXH6	inf	0.0	inf
A0A0A6YYG5	inf	inf	1.0
P16389	0.0	0.0	0.0
A8MW99	inf	inf	1.0
Q9H9S0	inf	0.0	1.0
Q8N3X1	inf	inf	1.0
Q9UNA0	inf	1.0	inf
D6RAD4	inf	inf	1.0
Q9NX46	1.0	inf	inf
Q9NX47	0.0	inf	0.0
Q9UNA4	inf	inf	1.0
P38936	inf	inf	1.0
Q8IUH3	inf	inf	1.0
P36888	inf	1.0	inf
O14802	inf	0.0	inf
Q9NT62	inf	inf	0.0
P50213	1.0	inf	inf
Q96B26	inf	inf	1.0
P07305	inf	inf	1.0
Q9HCK4	0.0	inf	inf
Q9HCK5	inf	inf	0.0
Q9HCK0	inf	inf	1.0
P36406	0.0	0.0	inf
P36405	0.0	0.0	inf
P36404	inf	0.0	inf
H3BUV4	inf	inf	1.0
P05783	inf	inf	1.0
I0J062	inf	inf	1.0
Q06418	inf	0.0	inf
Q9NSP4	inf	inf	1.0
O60934	inf	inf	1.0
Q49A26	inf	inf	1.0
Q8WXI9	0.0	inf	1.0
Q9NXF1	inf	inf	1.0
Q9HC98	inf	inf	1.0
Q5FVE4	inf	inf	0.0
O95718	inf	inf	1.0
F8WJN3	inf	inf	1.0
Q9NVW2	inf	inf	1.0
P15289	inf	1.0	inf
Q15797	inf	inf	1.0
Q15796	inf	inf	1.0
O43660	inf	inf	1.0
Q13546	inf	inf	0.0
O95716	inf	0.0	0.0
Q9NY93	inf	inf	1.0
Q96RE7	inf	inf	1.0
P50454	0.0	inf	inf
P62249	0.0	0.0	0.0
Q86UT5	inf	0.0	0.0
P50452	0.0	0.0	inf
Q9UJY1	inf	inf	1.0
B1AKN7	inf	inf	1.0
Q96GW9	1.0	inf	inf
B1AKN5	inf	inf	1.0
P55317	0.0	inf	1.0
Q9UKK6	inf	inf	1.0
Q8NF37	0.0	inf	inf
Q07075	0.0	inf	inf
Q9UBC1	0.0	0.0	inf
Q9UBC3	inf	inf	1.0
B1AKN8	inf	inf	1.0
Q9HB65	0.0	inf	1.0
Q9BZZ5	inf	inf	1.0
Q5QJE6	inf	inf	1.0
Q13895	inf	inf	1.0
Q9NUL7	1.0	inf	1.0
P05109	inf	0.0	inf
Q9NUL3	inf	inf	1.0
B5MC31	inf	inf	1.0
Q5JWF2	0.0	inf	0.0
Q01860	inf	inf	1.0
Q92905	inf	inf	1.0
P84098	inf	inf	1.0
Q9NSA3	inf	inf	1.0
Q9Y2A7	0.0	inf	0.0
Q6ZRQ5	inf	inf	1.0
C9J512	inf	inf	1.0
Q9NQ90	0.0	inf	1.0
Q504Y2	inf	0.0	inf
Q9NQ92	inf	inf	1.0
P34931	inf	0.0	inf
B1AHB1	inf	inf	1.0
Q8NDX1	0.0	inf	0.0
Q5RKV6	inf	inf	1.0
Q96AW1	0.0	0.0	inf
Q9Y2S0	inf	inf	1.0
P05165	1.0	inf	inf
Q6PII3	inf	inf	1.0
P51826	inf	inf	1.0
Q9NUP9	inf	inf	0.0
Q07617	inf	inf	1.0
Q9UL15	inf	0.0	inf
Q5T2W1	inf	inf	0.0
Q6K0P9	inf	inf	1.0
P55265	inf	inf	1.0
P10412	inf	inf	1.0
P60896	inf	inf	1.0
O60840	0.0	inf	0.0
Q8NBU5	inf	0.0	inf
Q9UL18	inf	inf	1.0
Q15303	1.0	inf	inf
Q12947	0.0	inf	inf
Q86XK3	inf	0.0	1.0
O43143	inf	inf	1.0
Q9UMY4	0.0	inf	0.0
Q9Y646	inf	inf	0.0
O95140	inf	inf	0.0
Q96BK5	inf	inf	1.0
O43364	inf	inf	1.0
O14561	1.0	0.0	0.0
Q86UE4	inf	inf	1.0
Q7L7V1	inf	inf	0.0
O15066	inf	inf	0.0
E9PFX6	inf	inf	1.0
Q9Y397	inf	inf	0.0
Q9NNW5	inf	inf	0.0
O00273	inf	inf	1.0
Q9NP62	0.0	0.0	inf
Q9BRV3	0.0	inf	inf
Q9H6Y2	inf	inf	1.0
Q9NUP1	inf	inf	0.0
Q96NM4	0.0	inf	1.0
P61978	inf	inf	1.0
Q86UW2	0.0	0.0	inf
Q86UW1	inf	0.0	0.0
Q9UIF9	0.0	inf	1.0
Q9GZM8	inf	inf	1.0
Q7LBR1	0.0	inf	inf
Q9P275	0.0	inf	inf
C9JTN7	inf	inf	1.0
P51813	0.0	0.0	0.0
Q9NXZ1	inf	inf	1.0
Q14999	inf	inf	1.0
A0JLT2	inf	inf	1.0
Q96EU6	inf	0.0	1.0
Q5EBL4	inf	inf	1.0
Q9H8T0	inf	inf	1.0
Q9UKF7	inf	inf	1.0
P20160	0.0	inf	0.0
P02787	0.0	inf	inf
Q15019	inf	inf	1.0
Q8N2I9	inf	inf	1.0
P56703	inf	1.0	inf
P60008	0.0	inf	0.0
A5D8V7	inf	0.0	inf
Q15013	inf	inf	1.0
Q15014	inf	inf	1.0
Q7L0Y3	1.0	inf	inf
Q96S55	0.0	inf	inf
Q5R341	inf	inf	1.0
O43566	inf	inf	1.0
O15144	inf	inf	0.0
Q7Z2X4	inf	inf	1.0
P45973	inf	0.0	inf
P07550	0.0	0.0	inf
O14493	0.0	0.0	0.0
I3L3H2	inf	inf	1.0
K7EIU8	inf	inf	1.0
P06881	inf	inf	0.0
Q08211	inf	inf	1.0
Q9UBZ4	inf	inf	1.0
O75528	inf	inf	1.0
O75529	0.0	0.0	1.0
O75838	0.0	0.0	inf
Q9Y512	inf	0.0	inf
O75525	inf	inf	1.0
O75575	0.0	inf	inf
O75830	inf	0.0	inf
Q14997	inf	inf	1.0
Q8WYH8	inf	0.0	inf
P54709	inf	0.0	0.0
D6RD42	inf	inf	1.0
Q8TAT6	0.0	inf	inf
P09668	0.0	inf	0.0
Q8TAT2	0.0	0.0	inf
P08247	0.0	inf	0.0
P21589	inf	inf	0.0
Q9NRR3	inf	inf	0.0
Q76FK4	inf	inf	1.0
Q03828	inf	inf	1.0
P05305	inf	1.0	0.0
O43820	0.0	0.0	0.0
P02671	0.0	inf	0.0
Q03111	inf	inf	1.0
P08648	inf	inf	0.0
P02675	0.0	0.0	0.0
Q86U42	inf	inf	1.0
O43829	inf	inf	1.0
Q92945	inf	inf	1.0
P32970	0.0	inf	0.0
Q9NRL2	inf	inf	1.0
Q9H2S1	inf	0.0	inf
O15228	inf	inf	0.0
Q9Y5X4	inf	inf	1.0
Q99798	1.0	0.0	inf
Q92547	inf	inf	1.0
Q92546	inf	0.0	0.0
Q13145	inf	inf	0.0
Q99797	1.0	inf	inf
Q99972	inf	inf	0.0
Q02413	0.0	inf	0.0
O43189	inf	inf	1.0
Q05513	inf	inf	1.0
Q92781	inf	1.0	inf
P52789	0.0	inf	inf
Q01469	inf	inf	1.0
P46734	inf	inf	1.0
Q5TG39	inf	inf	1.0
Q9H4Z2	0.0	inf	1.0
Q9H4Z3	inf	inf	1.0
Q8NEC5	inf	0.0	0.0
Q9Y3C6	0.0	0.0	0.0
P05412	0.0	inf	inf
P05413	0.0	inf	inf
Q01196	inf	inf	1.0
Q6UWV6	0.0	inf	inf
Q8N573	inf	inf	1.0
Q5EE01	inf	0.0	inf
Q9HAV4	inf	inf	1.0
M0QXA0	inf	inf	1.0
Q16186	inf	inf	1.0
Q96J94	inf	inf	0.0
O43172	0.0	0.0	inf
Q15907	inf	0.0	0.0
P98155	0.0	0.0	0.0
P27352	0.0	inf	0.0
P42658	0.0	inf	0.0
Q14451	0.0	inf	0.0
O75147	inf	inf	0.0
O75306	inf	0.0	inf
Q96LW4	inf	0.0	inf
P05771	inf	inf	1.0
Q8TEB9	inf	0.0	0.0
Q9H079	inf	inf	1.0
Q5VWK5	inf	inf	0.0
P12830	inf	inf	0.0
P14091	0.0	inf	0.0
P26358	inf	inf	1.0
P51946	inf	0.0	inf
Q5UE93	inf	inf	0.0
O75473	inf	inf	0.0
Q9BSC4	inf	inf	1.0
Q6PI98	inf	inf	1.0
Q02962	0.0	inf	inf
Q8IWZ6	inf	0.0	inf
Q9Y462	0.0	inf	inf
O14965	0.0	inf	inf
Q02742	0.0	inf	inf
O14966	inf	inf	0.0
H7BYI2	inf	inf	1.0
D6RBJ1	inf	inf	1.0
F8WEL4	inf	inf	1.0
P12956	0.0	0.0	inf
Q99571	0.0	0.0	inf
Q99570	inf	inf	0.0
P54652	inf	0.0	inf
Q99575	inf	inf	1.0
Q96DN0	inf	1.0	inf
Q6QNY0	0.0	0.0	0.0
Q96DN6	inf	inf	1.0
P04553	inf	inf	1.0
Q00839	0.0	inf	inf
P11388	inf	inf	1.0
P46952	0.0	0.0	inf
F8W9A8	inf	inf	1.0
P98082	inf	inf	1.0
P49279	0.0	inf	0.0
P82650	1.0	inf	inf
P19388	0.0	0.0	inf
Q14699	inf	inf	0.0
Q8IWU6	0.0	inf	0.0
Q14697	inf	1.0	inf
Q8IWU5	0.0	inf	0.0
Q8IWU2	inf	inf	0.0
Q8N608	0.0	inf	inf
Q14692	inf	0.0	1.0
P26006	0.0	inf	0.0
P11597	inf	inf	0.0
Q9UIL1	inf	inf	0.0
P61073	inf	inf	0.0
F8VZ49	inf	inf	1.0
Q0VG06	inf	inf	1.0
Q8IXI1	0.0	inf	inf
I3L0P8	inf	inf	1.0
Q96ER9	inf	inf	1.0
Q8IXI2	0.0	0.0	0.0
Q16695	inf	0.0	inf
P00519	inf	inf	1.0
O14813	inf	inf	1.0
Q6BDI9	0.0	0.0	0.0
Q9H2W2	inf	inf	1.0
Q13432	0.0	0.0	0.0
H3BPE7	inf	inf	1.0
Q13435	inf	inf	1.0
Q9NZ94	0.0	inf	0.0
Q9UP65	inf	inf	1.0
Q9UPT9	0.0	inf	inf
Q96HY6	0.0	inf	0.0
Q9HCJ1	0.0	inf	0.0
Q9HCJ2	0.0	inf	0.0
O60306	inf	inf	1.0
P50281	inf	inf	0.0
Q969S3	inf	inf	1.0
O60303	inf	inf	1.0
P63272	inf	0.0	inf
Q6DD88	0.0	inf	inf
P61247	inf	inf	1.0
Q13952	0.0	0.0	1.0
Q68DX3	inf	inf	0.0
O15054	inf	inf	1.0
Q8WXF8	0.0	inf	1.0
Q96EH3	1.0	inf	0.0
Q8WXF7	0.0	inf	0.0
P40259	inf	inf	1.0
O60907	inf	inf	1.0
Q9BRA2	inf	0.0	0.0
O60902	inf	inf	1.0
Q13555	inf	inf	1.0
Q13554	inf	inf	1.0
P22455	inf	inf	1.0
O95721	inf	inf	0.0
Q969G3	inf	0.0	1.0
P22459	0.0	0.0	0.0
Q96GD4	0.0	inf	1.0
Q9UBP6	inf	inf	1.0
Q96GD0	inf	inf	0.0
Q9H6I2	inf	0.0	inf
O75879	inf	0.0	0.0
Q86WG3	inf	inf	0.0
P06576	inf	0.0	inf
Q6UW88	inf	0.0	0.0
P15291	0.0	0.0	0.0
Q5T4F4	0.0	inf	inf
Q3KNV8	inf	inf	1.0
O15016	inf	inf	1.0
P60903	0.0	0.0	0.0
Q16740	1.0	inf	0.0
A4D1Z4	inf	inf	1.0
Q8NG50	inf	inf	1.0
P41221	inf	1.0	inf
Q9UJX4	inf	0.0	1.0
Q06710	0.0	inf	inf
Q13829	inf	inf	1.0
Q9UJX3	0.0	0.0	1.0
Q96L34	0.0	inf	0.0
Q96JC9	inf	inf	1.0
H3BU31	inf	inf	1.0
Q6PD62	0.0	inf	1.0
E9PGT6	inf	inf	1.0
Q9UL16	inf	inf	1.0
Q9UQB9	inf	inf	1.0
Q9NSC2	inf	inf	1.0
Q63ZY3	inf	inf	0.0
J3KQ96	inf	inf	1.0
Q15274	inf	inf	0.0
Q13882	inf	inf	1.0
J3KPZ4	inf	inf	1.0
Q9BW19	inf	0.0	inf
Q13889	inf	0.0	inf
Q6J4K2	inf	inf	0.0
Q9UJJ9	0.0	inf	0.0
Q9NPI8	inf	inf	1.0
P49795	inf	inf	0.0
F6WRY4	inf	inf	1.0
Q7Z494	inf	0.0	inf
B3KNJ4	inf	inf	1.0
Q5VIR6	inf	0.0	inf
P61371	inf	inf	1.0
Q8WTV0	0.0	0.0	0.0
P51790	0.0	0.0	0.0
O14638	0.0	0.0	inf
Q03167	0.0	inf	0.0
P54274	inf	inf	1.0
B8ZZN6	inf	inf	1.0
Q9BPU9	0.0	inf	inf
P13995	inf	inf	0.0
P55011	0.0	inf	0.0
Q86XK2	inf	inf	1.0
Q9ULB1	inf	0.0	inf
E9PMP8	inf	inf	1.0
P51003	inf	inf	1.0
Q9BVW5	inf	inf	1.0
P27540	inf	inf	1.0
P52209	0.0	0.0	inf
Q5T7P8	0.0	inf	inf
Q9Y483	inf	inf	1.0
P18428	inf	0.0	0.0
Q9NQ31	inf	inf	1.0
P30049	1.0	inf	inf
P30048	1.0	inf	0.0
Q15319	inf	inf	1.0
Q9BYF1	inf	inf	0.0
P30041	inf	inf	0.0
P30040	inf	1.0	inf
Q5T2X4	inf	inf	1.0
Q9H0Z9	0.0	inf	1.0
P30044	1.0	inf	inf
Q5TCS8	inf	inf	1.0
Q8NBT2	inf	inf	1.0
Q5T0T0	0.0	0.0	0.0
Q9NQS7	inf	inf	1.0
Q12931	inf	0.0	inf
Q9Y678	0.0	inf	0.0
P25106	0.0	inf	0.0
Q9BV20	inf	inf	1.0
P25105	inf	inf	1.0
O75618	inf	inf	1.0
J3KPD3	inf	inf	1.0
Q9NZU7	0.0	0.0	inf
Q9NP71	inf	inf	1.0
Q13002	inf	inf	0.0
E9PQA6	inf	inf	1.0
E9PH18	inf	inf	1.0
P13667	0.0	1.0	inf
Q96GV9	inf	inf	0.0
Q9Y697	1.0	inf	inf
P0C7T5	inf	inf	1.0
Q9Y691	inf	inf	0.0
Q6PJW8	inf	0.0	0.0
Q86UX7	0.0	0.0	0.0
Q96DT6	inf	inf	0.0
P62877	0.0	inf	inf
P35968	0.0	inf	inf
P62875	0.0	0.0	inf
Q15006	inf	inf	1.0
O00567	inf	inf	1.0
Q86WT6	inf	inf	1.0
Q00587	inf	inf	0.0
P18887	0.0	inf	1.0
P14735	inf	inf	1.0
Q92570	inf	inf	1.0
P30626	inf	inf	1.0
Q969L4	inf	inf	1.0
O00762	inf	inf	1.0
Q86VD7	inf	0.0	inf
O14924	inf	inf	1.0
P43353	inf	inf	0.0
O15397	inf	inf	1.0
Q9UM73	0.0	inf	inf
P43356	0.0	0.0	1.0
O15393	0.0	0.0	inf
P43354	inf	inf	1.0
P07766	0.0	inf	0.0
P08246	inf	inf	0.0
P51170	0.0	inf	0.0
Q12849	1.0	inf	inf
O15156	inf	inf	1.0
Q9BTW9	inf	inf	0.0
P78357	inf	0.0	0.0
Q12840	inf	0.0	0.0
Q9H668	inf	inf	1.0
J3KQJ8	inf	inf	1.0
P18085	inf	0.0	0.0
P18084	0.0	0.0	inf
P28749	0.0	inf	1.0
O95931	inf	inf	1.0
Q8N2Z9	0.0	inf	inf
O75821	inf	inf	0.0
O75534	inf	inf	0.0
Q00059	inf	0.0	inf
P35368	0.0	0.0	inf
P35367	inf	inf	1.0
K7EQB2	inf	inf	1.0
Q53GI3	inf	inf	1.0
Q5VV43	0.0	inf	0.0
Q32NB8	inf	inf	0.0
Q96FV9	inf	inf	1.0
Q05996	0.0	inf	0.0
A9Z1X7	inf	inf	1.0
P14867	0.0	inf	0.0
Q9NRS6	inf	inf	1.0
P78426	inf	inf	1.0
Q9Y324	0.0	inf	1.0
Q8WXD5	inf	inf	1.0
Q9P2H0	inf	inf	0.0
P08651	0.0	inf	1.0
Q9NRA2	inf	inf	0.0
Q9NRA1	inf	1.0	inf
Q13158	0.0	inf	0.0
O75223	inf	0.0	0.0
Q9UJP4	inf	inf	0.0
Q13153	inf	inf	0.0
Q8NFH4	inf	inf	1.0
Q13151	inf	inf	1.0
P54826	inf	0.0	inf
Q13156	inf	inf	1.0
Q14190	inf	inf	1.0
Q14191	0.0	0.0	inf
P52799	0.0	0.0	0.0
Q14197	inf	0.0	inf
Q14195	0.0	0.0	inf
P60484	inf	inf	1.0
H3BTA2	inf	inf	1.0
P52756	inf	0.0	inf
Q96AJ9	inf	0.0	0.0
P50914	inf	inf	0.0
O60687	inf	inf	0.0
Q14207	inf	inf	1.0
Q9UII2	inf	0.0	inf
P31415	inf	inf	0.0
Q14865	inf	inf	1.0
E9PBK7	inf	inf	1.0
Q96NA2	inf	0.0	0.0
Q9UKU7	1.0	inf	inf
Q92847	0.0	inf	0.0
Q8N0Z2	0.0	inf	0.0
Q92843	0.0	0.0	inf
P10636	0.0	inf	1.0
Q8TB92	0.0	inf	inf
O43739	inf	0.0	inf
Q15910	inf	inf	1.0
E9PN18	inf	inf	1.0
Q8IW19	0.0	inf	1.0
O00478	inf	inf	1.0
P30530	inf	inf	0.0
Q9BT49	inf	inf	1.0
Q8TEC5	inf	inf	1.0
Q8TB73	inf	0.0	inf
Q7Z6P5	inf	inf	1.0
O75319	inf	inf	1.0
Q5XUX0	0.0	0.0	0.0
Q2NKJ3	0.0	0.0	1.0
P42702	0.0	inf	0.0
P35410	inf	inf	1.0
Q8N122	inf	inf	1.0
Q9NV96	inf	inf	0.0
P32322	1.0	inf	inf
Q8WV37	inf	inf	1.0
Q8WWY3	0.0	inf	1.0
Q13084	1.0	inf	inf
P12821	0.0	0.0	0.0
O15381	inf	inf	1.0
Q8WZ19	0.0	0.0	1.0
P05546	0.0	inf	0.0
P00750	inf	inf	0.0
Q96T76	inf	inf	1.0
O94992	inf	inf	1.0
Q9H1Z4	inf	inf	1.0
Q2M2I8	0.0	inf	0.0
Q86YN6	inf	0.0	1.0
P42701	0.0	inf	0.0
O95235	inf	0.0	inf
O14958	inf	1.0	inf
O95551	inf	inf	1.0
Q14738	inf	inf	1.0
Q13330	inf	inf	1.0
Q5TC82	0.0	inf	0.0
Q9GZV1	inf	inf	1.0
Q9GZV3	inf	0.0	0.0
Q9GZV5	inf	inf	1.0
Q99583	inf	inf	1.0
Q96RL1	0.0	inf	inf
Q99743	0.0	inf	inf
P22079	inf	inf	0.0
Q99747	inf	0.0	inf
O94827	inf	inf	0.0
H0YNM5	inf	inf	1.0
Q8IUX4	inf	inf	0.0
O94864	inf	0.0	1.0
P54793	inf	1.0	inf
Q9H4I2	0.0	inf	1.0
Q7Z2H8	0.0	inf	inf
Q8IWT6	0.0	0.0	0.0
Q8IWT1	0.0	inf	inf
O60264	0.0	0.0	1.0
P60468	0.0	inf	inf
P11362	0.0	inf	inf
Q8IXJ9	0.0	0.0	1.0
P26010	0.0	inf	0.0
P26012	0.0	0.0	0.0
Q6NUK1	inf	inf	0.0
Q15485	0.0	0.0	0.0
O15553	inf	0.0	inf
P51674	inf	inf	0.0
O15550	inf	inf	1.0
Q15648	0.0	inf	inf
P48023	0.0	inf	inf
J3KT43	inf	inf	1.0
Q15646	inf	inf	1.0
P21917	0.0	0.0	0.0
Q15642	inf	inf	1.0
Q16352	inf	inf	1.0
P45954	1.0	inf	inf
Q9BUX1	inf	0.0	inf
Q13428	inf	inf	1.0
P62316	inf	inf	1.0
Q7Z2Z1	inf	inf	1.0
P62314	0.0	inf	1.0
P62312	0.0	0.0	inf
Q9NZ63	inf	inf	1.0
Q9HCI7	inf	inf	1.0
Q16594	0.0	inf	1.0
Q16595	1.0	inf	0.0
P35869	inf	inf	1.0
Q5JSP0	inf	inf	0.0
O60312	0.0	inf	inf
P04843	inf	0.0	0.0
Q12852	inf	inf	0.0
Q9BUR4	inf	inf	1.0
A2ABF8	inf	inf	1.0
P38919	inf	inf	1.0
O60911	inf	inf	1.0
Q8NI27	0.0	0.0	inf
P30101	0.0	1.0	inf
P07858	inf	inf	1.0
A8MXP9	inf	inf	1.0
Q6B0I6	inf	inf	1.0
Q9BUN8	0.0	inf	0.0
P22466	0.0	inf	inf
P22460	inf	inf	0.0
Q9UBS5	inf	inf	0.0
A8MVW5	0.0	0.0	inf
Q5QJU3	inf	0.0	0.0
P48735	1.0	inf	0.0
F8VR32	inf	inf	1.0
P63316	inf	0.0	1.0
Q16775	1.0	inf	0.0
Q9NWX6	inf	inf	0.0
P30405	inf	0.0	0.0
Q66GS9	inf	0.0	inf
P01133	0.0	inf	0.0
Q2TAL8	inf	inf	1.0
Q92733	inf	inf	1.0
Q7L590	inf	inf	1.0
Q7L592	inf	0.0	0.0
P01135	inf	0.0	inf
Q9UQC2	inf	inf	0.0
Q9HBU6	inf	inf	1.0
F5H070	inf	inf	1.0
Q15262	0.0	inf	inf
P25063	0.0	0.0	0.0
Q9NUJ1	inf	inf	0.0
Q15269	inf	inf	1.0
P84095	inf	0.0	0.0
Q15465	inf	1.0	inf
A4D256	inf	inf	1.0
Q15466	inf	inf	1.0
P34913	inf	inf	0.0
Q13636	0.0	0.0	inf
Q13637	inf	inf	0.0
Q96LT9	inf	inf	1.0
P51787	inf	inf	0.0
Q8WZ33	inf	inf	1.0
D6RJ07	inf	inf	1.0
P62136	inf	inf	1.0
Q03113	inf	inf	0.0
I3L2H2	inf	inf	1.0
P55061	0.0	inf	inf
P55064	0.0	inf	inf
Q96LT7	inf	inf	1.0
P13987	inf	0.0	0.0
D6R9J8	inf	inf	1.0
Q9UNH6	inf	0.0	inf
P12109	inf	inf	0.0
O00487	inf	0.0	inf
O00482	inf	inf	1.0
O00222	0.0	0.0	inf
Q9BVT8	inf	inf	1.0
Q9UQ84	inf	inf	1.0
P05141	1.0	0.0	inf
Q9UQ80	inf	inf	1.0
Q9H2C0	inf	inf	0.0
P37802	inf	0.0	inf
Q9BYE9	0.0	0.0	inf
P31277	inf	inf	1.0
P55201	inf	inf	1.0
Q5H9F3	inf	inf	1.0
Q7Z5Q5	inf	inf	1.0
P31273	inf	inf	1.0
Q9P2G4	inf	0.0	inf
Q9BV38	inf	inf	1.0
F8W1E5	inf	inf	1.0
Q9H7S9	inf	inf	1.0
Q9NQR1	0.0	inf	1.0
P29374	0.0	0.0	inf
Q9BRT2	1.0	inf	inf
Q9BRT3	inf	inf	1.0
Q12929	0.0	inf	inf
Q04837	1.0	inf	inf
Q9P0G3	0.0	inf	inf
Q9UBE0	inf	inf	1.0
P08913	inf	inf	0.0
Q9NP87	inf	inf	1.0
Q9UBE8	inf	inf	1.0
Q9NP85	inf	inf	0.0
Q9C005	inf	0.0	inf
Q9NSB8	inf	inf	1.0
Q9Y680	inf	1.0	inf
P02458	0.0	inf	0.0
Q12834	inf	inf	1.0
P02452	inf	inf	0.0
Q969S9	1.0	inf	inf
P15848	inf	1.0	0.0
Q9C0B1	0.0	0.0	inf
P14866	inf	inf	1.0
Q9C0B5	0.0	inf	0.0
O43826	0.0	inf	0.0
Q69YH5	inf	inf	1.0
Q9UKD1	inf	inf	1.0
Q15078	inf	inf	1.0
Q96ES6	inf	0.0	inf
Q96ES7	inf	0.0	inf
P20749	inf	inf	1.0
Q08050	inf	inf	1.0
Q8TAD8	inf	inf	1.0
Q9HBG6	inf	inf	0.0
Q9HBG4	0.0	0.0	inf
Q8TAD4	0.0	0.0	inf
P05091	1.0	inf	inf
Q8WWY8	0.0	inf	0.0
Q96JM3	inf	inf	1.0
Q6IA86	inf	inf	1.0
P59190	inf	inf	0.0
Q04900	0.0	inf	0.0
P61201	inf	inf	0.0
Q6UXG2	0.0	0.0	0.0
O15126	inf	0.0	inf
Q9BTX1	inf	inf	0.0
O75818	inf	inf	1.0
Q9H1K1	1.0	inf	inf
Q86XJ1	inf	inf	0.0
P32519	0.0	inf	1.0
J3KNW4	inf	inf	1.0
Q9Y535	inf	inf	1.0
P29084	inf	inf	1.0
O75817	inf	0.0	1.0
Q9NRP4	1.0	inf	inf
P35318	inf	inf	0.0
P10826	inf	inf	1.0
P29590	inf	inf	1.0
Q02556	inf	inf	1.0
O75427	inf	inf	1.0
Q8N357	inf	0.0	inf
Q08J23	inf	inf	1.0
Q8WUA4	inf	inf	1.0
Q09470	0.0	inf	0.0
Q8WVC0	0.0	inf	1.0
P24539	inf	0.0	inf
O15234	inf	inf	1.0
O15235	1.0	inf	inf
Q9H875	inf	inf	1.0
P01009	inf	inf	0.0
O95832	0.0	inf	0.0
Q92922	0.0	0.0	1.0
Q92925	0.0	0.0	inf
P03973	0.0	0.0	0.0
O95837	0.0	0.0	inf
P47870	inf	inf	0.0
Q8WVM0	1.0	inf	inf
P83876	inf	inf	1.0
P43652	inf	0.0	inf
C9JXV0	inf	inf	1.0
Q9Y6D6	inf	inf	1.0
Q86VQ3	inf	inf	1.0
Q5T1C6	inf	inf	0.0
O75494	inf	inf	1.0
P35227	inf	inf	1.0
P35557	inf	inf	1.0
P35222	inf	inf	1.0
Q14184	inf	inf	0.0
P08138	inf	inf	1.0
P35221	inf	0.0	inf
Q8N4Q1	inf	0.0	inf
P26045	inf	inf	0.0
P35558	inf	inf	0.0
P08133	inf	0.0	inf
Q9UGJ0	0.0	inf	1.0
Q9UIJ5	inf	inf	0.0
Q9UIJ7	1.0	inf	0.0
Q9Y3A6	0.0	inf	0.0
O60674	inf	inf	1.0
Q9Y3A4	inf	0.0	1.0
Q9Y3A2	inf	inf	1.0
Q8TDR2	inf	inf	1.0
P20701	inf	inf	0.0
Q92854	0.0	inf	inf
Q9H790	inf	inf	1.0
P0C7Q3	inf	inf	1.0
Q9BXI6	inf	inf	0.0
O15427	inf	inf	0.0
Q8TDR0	inf	0.0	inf
P24158	0.0	inf	0.0
P21439	inf	inf	0.0
Q7L5N7	0.0	inf	0.0
Q7L5N1	inf	inf	1.0
Q13472	inf	inf	1.0
Q96JE9	0.0	inf	0.0
Q9H295	0.0	inf	0.0
P42892	inf	0.0	inf
O43156	inf	inf	0.0
P19087	inf	0.0	inf
Q14435	0.0	0.0	inf
Q9HAZ2	inf	0.0	inf
Q8N0W7	inf	inf	1.0
Q8N0W4	0.0	0.0	0.0
O75398	inf	inf	1.0
Q8TB61	0.0	inf	inf
E5RHX8	inf	inf	1.0
O75676	inf	inf	1.0
Q5VW27	inf	inf	1.0
Q99678	inf	0.0	0.0
Q5SSJ5	0.0	inf	inf
P14672	0.0	inf	inf
P46379	inf	inf	1.0
P04054	0.0	0.0	0.0
Q496M5	inf	inf	1.0
Q8IVM7	inf	inf	1.0
Q4G0U5	inf	0.0	inf
P23443	inf	inf	1.0
Q8N138	0.0	inf	0.0
Q9H3Y6	inf	inf	0.0
Q13451	0.0	0.0	inf
P00747	0.0	inf	0.0
O43716	inf	inf	0.0
Q9P1Q0	inf	0.0	inf
O43715	inf	0.0	0.0
O60783	1.0	inf	inf
Q04724	inf	inf	1.0
P00749	0.0	0.0	inf
Q14500	0.0	0.0	0.0
Q9P2Y5	inf	inf	0.0
Q9BSM1	inf	0.0	inf
Q9HCH5	inf	inf	1.0
Q9GZU7	0.0	inf	inf
Q8NHY2	inf	inf	1.0
K7EQ17	inf	inf	1.0
Q14722	inf	inf	0.0
E7ESC7	inf	inf	1.0
Q9H5Z1	inf	inf	0.0
H0Y7H8	inf	inf	1.0
Q12983	inf	inf	1.0
Q9UBG0	inf	inf	0.0
P19878	inf	inf	1.0
Q8NDX5	inf	inf	1.0
Q9ULC3	inf	inf	0.0
Q99594	inf	inf	1.0
Q9Y5W9	0.0	inf	0.0
Q8IV36	inf	inf	0.0
Q9NYM9	inf	0.0	inf
Q99593	inf	inf	1.0
Q6NYC1	inf	inf	1.0
Q13185	0.0	inf	inf
Q8IZU9	0.0	0.0	0.0
P49257	0.0	inf	inf
Q9UNP9	0.0	0.0	inf
P22003	inf	0.0	inf
Q9H9B1	inf	inf	1.0
Q8IZU0	inf	inf	1.0
Q8IWW8	1.0	inf	inf
Q8IWA0	inf	inf	1.0
Q6T310	inf	inf	1.0
A8K0B5	inf	inf	1.0
I3L2J8	inf	inf	1.0
H7C0J3	inf	inf	1.0
Q8WU39	inf	1.0	0.0
P82675	inf	inf	0.0
P21926	inf	0.0	0.0
P21291	0.0	0.0	inf
P51168	0.0	0.0	0.0
Q9UHR5	inf	inf	1.0
Q9BYX2	inf	0.0	inf
Q14186	inf	inf	1.0
P49753	inf	inf	0.0
Q15678	inf	inf	1.0
O43447	inf	inf	1.0
P04440	inf	0.0	0.0
Q9Y2S7	1.0	inf	inf
C9JU35	inf	inf	1.0
O75554	inf	inf	1.0
P35125	inf	inf	0.0
P48039	0.0	inf	0.0
Q68E01	inf	inf	1.0
O75884	inf	inf	1.0
P63252	0.0	inf	0.0
P62304	inf	0.0	inf
P62306	0.0	0.0	1.0
P98198	0.0	0.0	inf
Q13454	inf	0.0	0.0
Q8NEY4	inf	0.0	inf
Q16587	0.0	inf	inf
Q30201	0.0	inf	0.0
B4DGE2	inf	inf	1.0
Q9UKA2	inf	inf	1.0
J3KQJ3	inf	inf	1.0
Q6UWH6	0.0	0.0	0.0
Q7Z2E3	inf	inf	1.0
P18827	inf	inf	0.0
Q15582	0.0	inf	0.0
Q9UBR5	0.0	0.0	0.0
Q9NSY1	inf	inf	1.0
Q8ND25	0.0	0.0	inf
Q8NI36	0.0	inf	1.0
P06746	inf	inf	1.0
Q9NZE8	1.0	inf	inf
Q9NSS8	inf	inf	1.0
O14727	inf	0.0	inf
Q9UBW8	inf	inf	1.0
Q99986	inf	inf	1.0
P14174	inf	inf	1.0
P13861	inf	inf	0.0
Q06265	inf	inf	1.0
Q96BZ9	0.0	inf	inf
Q9UJZ1	0.0	inf	inf
Q9BYG7	inf	inf	1.0
P16220	0.0	inf	1.0
Q6BCY4	inf	0.0	inf
Q14669	inf	inf	1.0
P31937	1.0	inf	inf
R4GNH9	inf	inf	1.0
Q8IXK0	inf	inf	1.0
Q96DZ5	0.0	0.0	inf
Q16763	inf	inf	0.0
Q96DZ1	inf	1.0	inf
Q5C9Z4	inf	inf	1.0
P15036	inf	inf	1.0
Q7Z3C6	0.0	0.0	0.0
Q16540	inf	inf	1.0
A8MYV6	inf	inf	1.0
Q9Y265	inf	inf	1.0
Q7Z569	inf	inf	0.0
H0Y9Y4	inf	inf	1.0
Q5BJF6	inf	0.0	inf
Q8TAS1	0.0	0.0	inf
Q9UQD0	inf	0.0	inf
A8MTJ3	0.0	0.0	inf
Q5BJF2	inf	0.0	inf
Q9NR50	inf	inf	0.0
O00168	0.0	inf	inf
Q96DT7	inf	inf	1.0
O14735	inf	inf	0.0
P47895	inf	inf	0.0
Q8WTT2	inf	inf	1.0
P47897	1.0	inf	inf
P49750	inf	inf	1.0
P17275	inf	inf	1.0
O60671	inf	inf	1.0
Q15293	inf	1.0	inf
Q15291	0.0	0.0	1.0
Q9BYV7	1.0	inf	inf
Q9UK80	inf	inf	1.0
Q9NV56	inf	inf	1.0
Q9UKR3	inf	inf	0.0
Q96KS0	inf	0.0	1.0
Q15459	0.0	inf	1.0
Q13627	inf	0.0	1.0
P49711	inf	0.0	1.0
Q9NX95	inf	inf	1.0
Q9NZC9	0.0	inf	inf
P12110	0.0	inf	0.0
P51570	inf	inf	0.0
P51572	inf	inf	0.0
Q9BT92	inf	inf	0.0
E9PMR3	inf	inf	1.0
P15328	0.0	inf	0.0
P29317	0.0	0.0	inf
Q96DE0	inf	inf	1.0
Q8TDC3	inf	inf	1.0
Q9P2X0	0.0	inf	0.0
J3KPN7	inf	inf	1.0
O60894	0.0	0.0	0.0
P05154	inf	0.0	inf
P31249	inf	inf	1.0
E7EQR8	inf	inf	1.0
O95139	inf	inf	1.0
P55210	inf	inf	1.0
P55212	inf	inf	1.0
Q9BYD2	1.0	inf	inf
Q9BYD1	1.0	inf	inf
C9J5C5	inf	inf	1.0
E5RFP4	inf	inf	1.0
H7C0D9	inf	inf	1.0
P51687	1.0	inf	inf
Q96ED9	0.0	0.0	inf
A6NJX6	inf	inf	1.0
Q1W6H9	inf	inf	1.0
P51689	inf	1.0	inf
Q9H6T0	inf	inf	1.0
Q07020	inf	inf	1.0
Q07021	inf	inf	1.0
Q9UBD6	0.0	0.0	0.0
Q9UBD9	inf	0.0	inf
P31645	0.0	inf	0.0
P00441	1.0	inf	inf
Q9NP90	inf	inf	0.0
Q96QF0	inf	0.0	inf
Q9UKE5	inf	inf	1.0
Q9P021	inf	inf	1.0
Q86XF0	1.0	inf	0.0
P09529	0.0	inf	inf
P45379	0.0	0.0	inf
Q15061	inf	inf	1.0
Q15063	inf	0.0	0.0
Q8NDT2	inf	inf	1.0
Q8N9M1	inf	inf	1.0
Q9Y606	inf	inf	1.0
O00584	inf	1.0	0.0
Q12948	inf	inf	1.0
E9PR05	inf	inf	1.0
O43159	inf	inf	1.0
Q9H7D7	inf	inf	1.0
Q9NPG3	inf	inf	1.0
Q9Y237	inf	inf	1.0
P16581	0.0	0.0	0.0
Q9Y232	0.0	0.0	inf
Q6P1X5	inf	inf	1.0
Q9UM11	0.0	inf	inf
Q93088	inf	inf	0.0
Q8WWX9	inf	inf	1.0
Q8TAE7	0.0	inf	0.0
O94972	inf	inf	1.0
Q96CB9	1.0	inf	inf
P98171	inf	inf	1.0
Q12866	inf	inf	0.0
Q9BTY2	inf	inf	0.0
Q5HY92	inf	inf	1.0
P98170	inf	inf	1.0
P56270	inf	inf	1.0
Q9NNW7	1.0	inf	inf
P02730	0.0	inf	inf
O15457	inf	inf	1.0
Q9H1J7	inf	1.0	inf
P08238	inf	inf	1.0
Q9H1J1	inf	inf	1.0
O43151	inf	inf	0.0
Q9BTK6	inf	inf	1.0
Q14469	inf	inf	1.0
Q6P1J9	0.0	inf	1.0
P56748	0.0	inf	0.0
P09327	inf	inf	0.0
P00918	inf	inf	0.0
Q86U70	0.0	0.0	1.0
Q15119	1.0	inf	inf
O95822	inf	inf	0.0
P51991	inf	inf	1.0
Q15113	0.0	0.0	0.0
Q6ECI4	inf	inf	1.0
Q6NZI2	inf	inf	1.0
O15226	0.0	inf	1.0
P29120	inf	inf	0.0
Q9H840	inf	inf	1.0
Q9P2J9	1.0	inf	inf
Q8IY92	inf	inf	1.0
O43852	inf	1.0	inf
O15229	inf	0.0	0.0
Q9H845	inf	0.0	inf
Q5EBM0	inf	0.0	1.0
H7C0E2	inf	inf	1.0
F2Z3G4	inf	inf	1.0
B5MDN3	inf	inf	1.0
Q9NX24	inf	inf	1.0
Q6ZMG9	0.0	inf	0.0
Q86VP3	inf	1.0	inf
Q9Y4B6	inf	inf	1.0
Q9UGK8	inf	inf	1.0
Q5VW26	inf	inf	1.0
P15927	0.0	inf	1.0
P30876	0.0	0.0	1.0
P08123	0.0	inf	0.0
Q96AH0	inf	inf	1.0
B0QY21	inf	inf	1.0
Q8N720	inf	inf	1.0
Q7Z6G8	inf	inf	1.0
Q9H596	1.0	inf	inf
Q8TES7	inf	0.0	0.0
Q9NRG9	inf	inf	1.0
Q9H598	0.0	inf	0.0
P20393	inf	inf	1.0
Q9Y5K5	inf	0.0	1.0
Q9Y3F4	inf	inf	1.0
Q8TC07	inf	inf	0.0
P17987	inf	inf	1.0
Q6P9B9	0.0	inf	inf
P06239	0.0	0.0	0.0
Q9BXJ4	inf	inf	0.0
Q96PU5	inf	inf	1.0
Q9BXJ7	0.0	inf	0.0
Q8N0X7	inf	inf	0.0
Q96QT6	0.0	inf	1.0
Q6UWY0	inf	1.0	inf
Q9NQV8	inf	inf	1.0
Q92466	0.0	inf	1.0
O43148	0.0	inf	inf
Q86SG6	inf	inf	0.0
O94986	inf	0.0	inf
Q96JB2	inf	inf	1.0
Q643R3	0.0	inf	0.0
Q9Y3T9	inf	inf	1.0
O43633	0.0	0.0	inf
Q8IYB4	0.0	0.0	inf
Q04771	0.0	0.0	inf
Q92665	inf	inf	1.0
Q9Y467	inf	inf	1.0
B7ZBF7	inf	inf	1.0
O75665	inf	0.0	inf
P28072	inf	inf	1.0
Q8IYB8	1.0	0.0	inf
P53597	1.0	inf	inf
P04062	0.0	inf	0.0
P26368	0.0	inf	1.0
Q86YH6	1.0	inf	0.0
P52630	inf	inf	1.0
Q6PI48	1.0	inf	1.0
Q9UMX1	inf	inf	1.0
Q15022	inf	inf	1.0
E9PPX2	inf	inf	1.0
P26367	inf	inf	1.0
P14060	0.0	0.0	inf
J3KQ32	inf	inf	1.0
H7C2Q9	inf	inf	1.0
Q8TC84	inf	inf	1.0
E9PB61	inf	inf	1.0
O43709	inf	inf	1.0
Q07820	inf	inf	1.0
Q15848	0.0	inf	0.0
P61803	inf	inf	0.0
P42261	0.0	inf	0.0
P42262	inf	0.0	inf
P42263	inf	0.0	0.0
C9JWJ8	inf	inf	1.0
Q9NWH9	inf	inf	1.0
P16035	0.0	0.0	inf
K7EQ21	inf	inf	1.0
P19021	0.0	0.0	inf
Q8WYQ5	inf	inf	1.0
Q9NPA1	0.0	0.0	inf
O94989	inf	inf	0.0
O96028	inf	inf	1.0
Q9NYL4	0.0	inf	0.0
O43521	0.0	inf	0.0
O43520	inf	inf	0.0
P23511	0.0	inf	1.0
P23510	0.0	inf	0.0
O43525	inf	0.0	inf
Q9Y5X3	inf	0.0	inf
Q9Y5X0	0.0	inf	inf
O43526	0.0	0.0	0.0
Q99728	inf	inf	1.0
O60244	0.0	inf	1.0
P32019	inf	inf	0.0
Q9H9E1	0.0	inf	inf
O75064	0.0	inf	inf
Q8IWV8	0.0	inf	inf
Q9HCY8	inf	inf	1.0
Q14157	inf	inf	1.0
Q9P2N4	inf	inf	0.0
Q6ZMU5	inf	0.0	0.0
P56705	inf	1.0	0.0
H7C0K5	inf	inf	1.0
Q13423	inf	inf	0.0
Q8IY37	inf	inf	1.0
Q14159	0.0	inf	1.0
O14842	inf	0.0	0.0
E9PMC1	inf	inf	1.0
J3KRK5	inf	inf	1.0
Q9Y5J1	0.0	0.0	inf
Q9Y5J3	inf	inf	1.0
Q9Y5J5	inf	inf	0.0
Q5QGS0	0.0	inf	inf
Q9Y5J7	inf	0.0	inf
P16109	inf	inf	1.0
Q9UM63	inf	inf	1.0
P41002	0.0	inf	inf
P16104	0.0	inf	inf
P15121	inf	inf	1.0
Q13449	0.0	inf	0.0
Q9NWW0	inf	inf	1.0
O75116	inf	0.0	inf
O75110	0.0	inf	0.0
O75113	0.0	inf	1.0
P49736	inf	inf	1.0
P62330	inf	0.0	inf
P05981	inf	0.0	0.0
Q9NZ42	0.0	inf	0.0
Q13444	inf	0.0	0.0
P00748	inf	0.0	inf
Q8NEZ2	inf	inf	1.0
Q8NEZ3	inf	inf	1.0
Q96S53	inf	inf	1.0
Q16576	0.0	inf	1.0
P33121	inf	inf	0.0
O60333	inf	0.0	inf
B7Z4W5	inf	inf	1.0
Q9UBU3	inf	inf	0.0
Q16394	0.0	inf	0.0
Q86SP6	0.0	inf	0.0
Q15596	inf	inf	1.0
Q9UBU8	0.0	0.0	1.0
P61578	inf	inf	1.0
P10244	inf	inf	1.0
P41134	inf	0.0	inf
O94805	inf	inf	1.0
O95865	inf	inf	0.0
Q9UDY2	inf	inf	1.0
P61024	inf	inf	1.0
P61026	inf	0.0	0.0
Q9UDY8	inf	inf	1.0
Q13501	inf	inf	1.0
Q8N5P1	inf	inf	1.0
Q96A72	0.0	0.0	inf
Q96A70	inf	0.0	inf
E9PR89	inf	inf	1.0
Q5U623	inf	inf	1.0
Q9GZU2	inf	inf	1.0
Q9NWS1	inf	inf	1.0
P51553	inf	inf	1.0
Q86YT6	inf	inf	0.0
A6ND36	0.0	inf	inf
Q16719	inf	inf	1.0
Q8IXL6	0.0	0.0	inf
H7BY16	inf	inf	1.0
Q52LA3	inf	inf	1.0
Q86YT9	inf	0.0	inf
Q96BI3	inf	inf	0.0
Q7Z3B4	inf	inf	1.0
Q96BI1	inf	inf	0.0
Q7Z3B1	0.0	0.0	0.0
Q7Z3B3	0.0	inf	inf
O00170	inf	inf	1.0
Q7L576	0.0	0.0	0.0
P12273	0.0	0.0	inf
Q53EL6	inf	inf	1.0
P10747	0.0	0.0	0.0
Q9H8E8	inf	inf	1.0
O00178	inf	inf	0.0
Q96KR7	inf	inf	1.0
Q9NWT6	inf	inf	1.0
Q96KR1	inf	inf	1.0
P78325	inf	inf	0.0
Q15286	inf	0.0	inf
Q9NWT8	inf	inf	1.0
Q6UWZ7	0.0	0.0	inf
Q13618	inf	0.0	1.0
P19801	0.0	0.0	0.0
Q9P2W9	inf	inf	0.0
Q9UQM7	inf	inf	1.0
E9PSH4	inf	inf	1.0
P49721	inf	inf	1.0
Q5D1E8	inf	inf	1.0
Q13615	inf	inf	1.0
O95047	0.0	inf	inf
Q05GC8	inf	inf	1.0
P15311	inf	0.0	inf
Q9H6K1	0.0	0.0	inf
Q16625	inf	0.0	inf
Q9BRD0	0.0	inf	1.0
Q16620	inf	0.0	inf
Q9NS15	0.0	0.0	0.0
P55040	0.0	0.0	inf
A8MT69	inf	0.0	inf
Q9P0W2	inf	inf	1.0
O60858	inf	inf	0.0
P56539	0.0	inf	0.0
O60888	0.0	0.0	0.0
Q8NBQ5	inf	inf	0.0
O60885	inf	inf	1.0
O60884	inf	inf	0.0
Q8TDB4	inf	0.0	inf
P51965	0.0	inf	1.0
O14521	inf	inf	0.0
Q9BYC8	1.0	inf	inf
Q9BYC9	1.0	inf	inf
F6Q0Y6	inf	inf	1.0
Q8TBZ6	0.0	0.0	1.0
O14529	0.0	0.0	inf
P30307	inf	inf	1.0
Q9BUJ2	inf	inf	1.0
Q9NVH6	1.0	inf	inf
Q9BYC5	inf	inf	0.0
Q16143	inf	inf	1.0
P51693	0.0	inf	0.0
Q5T440	1.0	inf	inf
M0QZU5	inf	inf	1.0
P29353	inf	0.0	inf
Q504T8	inf	inf	1.0
P29350	inf	inf	1.0
Q12907	0.0	0.0	inf
Q12906	inf	inf	1.0
P06756	0.0	inf	0.0
Q99590	inf	inf	1.0
Q2M1P5	inf	0.0	0.0
I3L3Z2	inf	inf	1.0
Q9BUB7	inf	inf	1.0
P37173	inf	0.0	inf
Q9NZP6	inf	inf	1.0
P38405	0.0	0.0	inf
Q16630	inf	inf	1.0
Q86XE0	0.0	inf	inf
Q9BXY0	inf	inf	1.0
Q9UKB1	0.0	inf	inf
Q9P035	0.0	inf	inf
Q86XE5	inf	0.0	inf
P18505	0.0	0.0	inf
Q96QE5	1.0	inf	0.0
Q96AZ6	inf	inf	1.0
Q9UKT5	inf	inf	0.0
Q96H20	inf	inf	1.0
Q15054	inf	inf	1.0
Q96S94	inf	inf	1.0
F8W8G7	inf	inf	1.0
Q15050	inf	inf	1.0
Q15051	0.0	0.0	inf
Q9UP38	0.0	0.0	0.0
Q9Y222	inf	inf	1.0
P16591	inf	inf	1.0
Q12874	0.0	0.0	inf
Q9ULH0	inf	inf	1.0
Q9Y224	inf	inf	1.0
Q96A08	inf	inf	1.0
O00755	inf	1.0	inf
P46977	inf	inf	0.0
Q9HBI1	inf	0.0	0.0
Q99757	1.0	inf	1.0
Q9BR76	inf	inf	0.0
Q9UJA3	0.0	0.0	1.0
P04216	0.0	inf	0.0
M0QYH2	inf	inf	1.0
O75379	inf	0.0	0.0
Q86TM6	0.0	inf	1.0
Q9BZE9	inf	inf	1.0
P23284	0.0	inf	inf
Q5T1S8	0.0	inf	inf
Q07817	1.0	inf	inf
P56750	0.0	inf	0.0
P29373	inf	inf	1.0
P31327	1.0	inf	1.0
P62937	0.0	0.0	inf
P09622	1.0	inf	1.0
P52434	0.0	inf	1.0
A0A087WWE2	inf	inf	1.0
B0QYP3	inf	inf	1.0
Q92903	0.0	inf	0.0
Q9UI95	inf	inf	1.0
A6PVC2	0.0	0.0	0.0
O43861	inf	inf	0.0
P05186	0.0	inf	0.0
Q15120	1.0	inf	inf
O95858	inf	0.0	0.0
Q15126	0.0	inf	0.0
Q8NFW9	0.0	0.0	0.0
Q49AM1	1.0	inf	inf
O15213	0.0	0.0	inf
Q5EBL8	0.0	0.0	0.0
Q5VWP3	inf	inf	1.0
Q86W47	0.0	inf	0.0
Q9Y316	0.0	0.0	inf
Q9P2K5	inf	inf	1.0
Q9Y314	inf	inf	1.0
Q9H0W9	0.0	0.0	inf
Q9P2K2	inf	1.0	inf
P43251	1.0	inf	1.0
Q86XP3	inf	inf	1.0
Q6ZMD2	inf	inf	0.0
Q8TF62	0.0	0.0	inf
O75908	0.0	inf	inf
P46778	inf	inf	1.0
P43897	inf	inf	1.0
Q8IYS1	inf	inf	1.0
O75477	inf	inf	0.0
O75475	0.0	0.0	1.0
Q3ZCQ8	inf	0.0	1.0
P09758	0.0	inf	inf
Q8TEP8	inf	inf	0.0
Q96QK1	inf	0.0	inf
P05452	inf	inf	1.0
Q96LA8	0.0	inf	inf
P17405	inf	0.0	0.0
P16519	inf	0.0	0.0
Q96HI0	inf	inf	1.0
P28715	inf	inf	1.0
Q86XS8	inf	inf	1.0
Q92698	inf	inf	1.0
P28067	inf	inf	0.0
Q92878	inf	0.0	inf
Q32MK0	inf	inf	0.0
Q92692	0.0	0.0	inf
P06241	inf	0.0	inf
P08590	0.0	inf	inf
O75521	inf	inf	1.0
P54278	inf	inf	1.0
Q6ZYL4	inf	inf	1.0
Q8WV44	inf	inf	1.0
Q9Y3U8	inf	inf	1.0
Q8WV41	0.0	0.0	0.0
Q92674	inf	inf	1.0
P18054	inf	inf	0.0
Q9H8L6	inf	0.0	inf
P08571	inf	inf	0.0
Q13057	inf	inf	1.0
Q99607	0.0	0.0	1.0
Q9NRR5	inf	inf	1.0
O75616	1.0	inf	inf
Q9Y4C8	inf	inf	1.0
P20827	inf	inf	0.0
Q14527	inf	inf	1.0
P00558	inf	inf	0.0
P62753	inf	inf	1.0
P18031	inf	inf	0.0
P35443	0.0	inf	0.0
O75581	0.0	inf	inf
Q96P11	inf	inf	1.0
Q92769	inf	inf	1.0
Q86TC9	inf	0.0	inf
Q92585	inf	inf	1.0
Q8NFM7	0.0	0.0	1.0
P20073	0.0	0.0	inf
Q9UHR4	inf	inf	1.0
P01903	0.0	inf	0.0
Q13105	inf	inf	1.0
Q5JU85	0.0	inf	inf
Q9H920	0.0	0.0	0.0
Q8IV16	0.0	0.0	0.0
Q9NWK9	0.0	0.0	0.0
O43513	inf	0.0	1.0
Q5RL73	inf	inf	1.0
Q9NQW8	0.0	inf	0.0
P54619	0.0	inf	inf
Q9Y5Y9	inf	inf	0.0
Q5XG87	inf	inf	1.0
O75052	inf	0.0	inf
O43283	inf	inf	0.0
Q9Y5Y5	0.0	inf	0.0
P07910	0.0	0.0	1.0
Q9UHB7	inf	inf	1.0
Q2VPB7	0.0	inf	0.0
O96033	inf	0.0	0.0
P53675	0.0	inf	0.0
Q8IWQ3	inf	inf	0.0
Q96AE7	inf	inf	0.0
Q6P179	inf	1.0	inf
P17947	inf	inf	1.0
Q96RK4	0.0	0.0	inf
Q8IVP5	0.0	inf	inf
Q14145	inf	inf	1.0
Q14146	inf	inf	1.0
Q9H4L4	inf	inf	1.0
Q9H4L7	0.0	inf	inf
Q8WVY7	inf	inf	1.0
P10827	0.0	inf	inf
P19634	inf	inf	1.0
P11831	inf	inf	1.0
O95696	0.0	inf	inf
Q9NYQ3	inf	0.0	0.0
P10828	inf	inf	1.0
O00194	0.0	0.0	inf
Q9NZ56	0.0	0.0	inf
Q9H4B4	inf	inf	1.0
P07355	inf	0.0	inf
P19320	0.0	inf	inf
P07359	0.0	inf	0.0
Q9BZE0	inf	inf	1.0
Q9UPX8	0.0	inf	0.0
P09629	inf	inf	1.0
Q99426	inf	inf	1.0
P11488	inf	0.0	inf
P22735	0.0	inf	0.0
O43196	inf	inf	1.0
O75127	inf	0.0	inf
O75128	inf	inf	0.0
Q5VX20	inf	inf	1.0
Q9HAN9	inf	inf	1.0
A8K5M9	inf	inf	0.0
Q9BPZ7	inf	inf	1.0
Q16568	0.0	inf	0.0
O60341	0.0	0.0	inf
Q9UHX1	inf	inf	1.0
Q9NSU2	0.0	inf	inf
Q9UBT2	0.0	0.0	1.0
Q9NZC4	0.0	inf	inf
Q86YR5	inf	inf	1.0
Q86SQ7	0.0	0.0	inf
Q2T9J0	0.0	inf	0.0
P04839	inf	inf	0.0
Q96M63	0.0	inf	inf
P61018	inf	inf	0.0
P61019	0.0	0.0	inf
Q99497	inf	inf	1.0
P19256	0.0	inf	0.0
Q96D96	0.0	0.0	inf
P49643	inf	inf	1.0
P49642	inf	inf	1.0
O75787	inf	0.0	inf
Q15723	inf	inf	1.0
Q9BWC9	inf	inf	1.0
Q8IZU1	inf	inf	1.0
O15455	inf	inf	0.0
Q68CR1	inf	inf	1.0
P48742	0.0	inf	inf
O14983	0.0	0.0	inf
Q96KC8	0.0	inf	inf
Q8IXM3	1.0	inf	0.0
Q8IXM2	inf	inf	1.0
Q8NB49	0.0	inf	0.0
Q96PU4	0.0	inf	inf
P36544	0.0	inf	0.0
P50222	inf	inf	1.0
Q8TCY5	inf	inf	0.0
Q99459	inf	inf	1.0
Q9Y5K8	0.0	inf	inf
Q9BY76	0.0	inf	0.0
P17081	0.0	0.0	0.0
Q14CW9	inf	inf	1.0
Q9NR30	inf	0.0	inf
Q9NR33	0.0	inf	inf
Q8N4S9	inf	inf	0.0
Q96EP1	inf	inf	1.0
Q7Z699	inf	inf	1.0
Q9BQ95	inf	inf	1.0
E9PP36	inf	inf	1.0
Q9BQ90	inf	inf	1.0
Q9NWW5	inf	1.0	1.0
Q9Y2L5	inf	0.0	0.0
Q96L93	inf	0.0	0.0
Q9Y2L1	inf	inf	1.0
Q13608	inf	inf	0.0
P06400	inf	0.0	inf
P51513	inf	inf	1.0
Q96MY1	inf	inf	1.0
Q9H0H5	0.0	inf	inf
P34947	inf	inf	1.0
P12272	inf	inf	1.0
Q16635	inf	0.0	inf
Q12891	inf	inf	0.0
Q16637	inf	inf	1.0
Q9NV66	inf	inf	1.0
P30461	0.0	inf	0.0
Q9UNN8	0.0	0.0	0.0
Q9UNN5	inf	0.0	inf
P50570	inf	inf	0.0
P55055	inf	inf	1.0
Q7Z434	inf	inf	0.0
Q9P270	inf	inf	1.0
Q9H0F5	inf	0.0	1.0
Q6NZY4	inf	inf	1.0
Q6NVY1	1.0	inf	inf
Q8NBP7	inf	inf	0.0
Q6NZY7	inf	inf	0.0
P30084	1.0	inf	inf
Q16584	inf	inf	0.0
Q9BVS5	inf	inf	0.0
Q9Y3C7	inf	inf	1.0
E7EPP6	inf	inf	1.0
E9PMI6	inf	inf	1.0
Q9P296	0.0	inf	inf
O14519	0.0	inf	inf
Q9UK97	inf	inf	0.0
Q8NCG7	inf	inf	0.0
P47989	inf	inf	0.0
Q567V2	1.0	inf	inf
Q15544	0.0	0.0	inf
Q15542	inf	inf	1.0
Q15543	0.0	inf	inf
Q29RF7	0.0	inf	inf
Q2M3C7	inf	0.0	0.0
Q9HC29	inf	inf	0.0
Q9NQW7	inf	inf	0.0
Q7Z4V5	inf	inf	1.0
O00206	inf	inf	0.0
Q8N5C1	0.0	0.0	inf
H7C3H7	inf	inf	1.0
P08962	inf	inf	0.0
Q9UBF6	inf	inf	1.0
Q96T21	inf	inf	1.0
Q96QD9	0.0	inf	inf
Q96EP5	inf	inf	1.0
Q9UKC9	inf	inf	0.0
Q969P6	1.0	0.0	inf
Q86XD5	inf	inf	1.0
O00444	inf	inf	1.0
P57740	0.0	inf	1.0
P51649	1.0	inf	inf
Q96SH1	inf	inf	1.0
O95202	inf	0.0	inf
Q9BZR9	inf	inf	1.0
Q15043	0.0	inf	0.0
Q15042	inf	inf	0.0
P11802	0.0	inf	1.0
C9J3T3	inf	inf	1.0
Q9UN36	inf	inf	1.0
O95208	inf	inf	1.0
O15111	inf	inf	1.0
Q9H7B2	0.0	inf	inf
Q6ZN04	inf	inf	1.0
Q12805	inf	0.0	0.0
Q15047	inf	inf	1.0
P50579	inf	inf	0.0
O95361	inf	inf	1.0
Q6UVJ0	inf	0.0	0.0
Q9H2F5	0.0	0.0	inf
Q9Y399	1.0	0.0	0.0
P25098	inf	inf	0.0
P05107	0.0	0.0	0.0
Q8NFZ4	inf	inf	0.0
P58753	inf	inf	1.0
Q9UJU6	inf	inf	0.0
Q86TL0	inf	inf	0.0
P35858	inf	inf	1.0
P60953	inf	inf	0.0
P17706	0.0	inf	1.0
E5RGB3	inf	inf	1.0
H0Y4J1	inf	inf	1.0
P18206	0.0	inf	inf
C0H5Y2	inf	inf	1.0
O60500	0.0	0.0	0.0
O60502	inf	0.0	inf
P43088	inf	inf	0.0
O60506	0.0	inf	1.0
Q9H2X6	inf	inf	1.0
Q9BTA9	inf	inf	1.0
Q96AX2	0.0	0.0	0.0
Q96AX1	inf	0.0	inf
Q01658	inf	0.0	inf
P24386	inf	inf	0.0
P24385	inf	inf	1.0
P43246	0.0	0.0	inf
Q9Y366	0.0	inf	inf
P39748	inf	0.0	inf
P43243	inf	inf	1.0
Q8N4V1	0.0	inf	0.0
Q02241	inf	0.0	inf
O60828	inf	inf	1.0
Q9Y5B6	inf	0.0	inf
Q9UGI0	inf	inf	1.0
P53803	0.0	0.0	inf
Q95460	inf	inf	0.0
Q9Y3D5	1.0	inf	inf
Q8NBL1	0.0	1.0	0.0
P35218	1.0	inf	inf
P09769	inf	0.0	0.0
Q9NTI2	0.0	0.0	0.0
Q9NTI5	0.0	inf	inf
O75460	inf	inf	0.0
P02538	inf	0.0	inf
P41227	inf	inf	1.0
Q9P0K8	inf	inf	1.0
A9QM74	inf	inf	1.0
F5H0K0	inf	inf	1.0
Q8TEQ6	inf	inf	1.0
Q9Y3D0	inf	inf	1.0
Q96LB3	inf	0.0	inf
P01579	inf	0.0	inf
P28702	inf	inf	1.0
P43403	inf	inf	0.0
Q969F1	0.0	0.0	inf
P08582	inf	0.0	0.0
P08581	0.0	inf	inf
Q969F2	0.0	0.0	inf
Q86XR7	0.0	inf	inf
Q02539	inf	inf	1.0
P00390	1.0	inf	inf
Q7Z6L1	inf	0.0	0.0
Q9H008	inf	inf	1.0
Q9Y6I4	inf	inf	1.0
Q3ZLR7	inf	inf	1.0
Q99638	inf	inf	1.0
Q9BXF3	inf	0.0	inf
Q13045	inf	inf	1.0
O75600	inf	inf	1.0
P49137	inf	inf	1.0
P53355	inf	inf	0.0
Q9NXV6	inf	inf	1.0
P23490	inf	inf	1.0
Q5FWF6	inf	inf	1.0
P62745	0.0	inf	inf
Q96IT1	inf	inf	1.0
O60237	inf	inf	1.0
Q14554	inf	1.0	inf
Q8WYA1	inf	inf	1.0
Q96P20	inf	inf	0.0
P04003	0.0	inf	0.0
O75593	0.0	0.0	inf
Q9NWB6	inf	inf	1.0
Q86TB9	inf	inf	1.0
P60510	inf	inf	1.0
P11801	inf	inf	1.0
Q9H488	0.0	inf	0.0
Q8WX92	inf	inf	1.0
Q8WW22	0.0	0.0	0.0
Q13148	inf	inf	1.0
P01375	0.0	0.0	inf
P22674	inf	inf	1.0
Q96PD2	0.0	inf	inf
O43502	inf	inf	1.0
Q9GZZ8	0.0	0.0	inf
F8WEA1	inf	inf	1.0
Q9UID3	inf	0.0	0.0
Q9GZZ1	inf	inf	0.0
O43293	inf	inf	1.0
O96009	0.0	0.0	0.0
Q8TC44	inf	inf	0.0
Q9H9G7	inf	inf	0.0
O43294	inf	inf	1.0
Q6J9G0	0.0	0.0	0.0
Q9NPC4	0.0	inf	0.0
Q9UHA4	0.0	0.0	inf
O96005	0.0	inf	0.0
O96006	inf	inf	1.0
Q9Y5Z7	inf	inf	1.0
Q5MNZ9	inf	inf	0.0
P0C1Z6	inf	inf	1.0
H0YLE6	inf	inf	1.0
P36222	inf	inf	0.0
P0C0L4	inf	inf	0.0
H0YN68	inf	inf	1.0
H7C4Y1	inf	inf	1.0
O43615	1.0	inf	inf
P61916	0.0	inf	0.0
E7EU71	inf	inf	1.0
Q92538	inf	inf	0.0
J3QR12	inf	inf	1.0
Q9Y5X9	0.0	0.0	0.0
Q8N3R9	inf	inf	1.0
Q9H9Y6	inf	inf	1.0
E9PME6	inf	inf	1.0
O95684	0.0	0.0	inf
O60481	inf	inf	1.0
Q13461	0.0	0.0	inf
P15151	inf	inf	0.0
Q13467	0.0	0.0	0.0
Q9HCM9	inf	0.0	0.0
O75081	inf	inf	1.0
Q13464	inf	0.0	inf
O95445	0.0	inf	0.0
Q13469	inf	inf	1.0
Q02318	1.0	inf	inf
P24941	inf	inf	1.0
O15198	inf	inf	1.0
Q5SXM2	inf	inf	1.0
P54284	0.0	inf	0.0
Q96NT5	inf	inf	0.0
P11498	1.0	inf	0.0
B1AKP8	inf	inf	1.0
Q13263	0.0	0.0	inf
Q16822	1.0	inf	inf
P54289	0.0	inf	inf
Q13268	1.0	inf	inf
O43181	inf	0.0	0.0
Q16827	0.0	inf	0.0
B8ZZJ5	inf	inf	1.0
O60353	0.0	inf	0.0
Q8WUK0	inf	0.0	inf
P61006	0.0	inf	1.0
M0R2Z9	inf	inf	1.0
E7EPA0	inf	inf	1.0
P11473	inf	0.0	1.0
Q96GC6	inf	inf	1.0
Q5JVG8	inf	inf	1.0
P21399	inf	inf	0.0
Q9HA38	inf	inf	1.0
F8WAW9	inf	inf	1.0
Q9NUX5	inf	inf	1.0
P36954	0.0	inf	inf
P36957	1.0	inf	inf
B5MCJ9	inf	inf	1.0
P36952	inf	inf	0.0
Q8TAZ6	inf	inf	1.0
P19793	0.0	inf	1.0
Q96A58	0.0	inf	inf
Q96A59	0.0	inf	inf
Q96A54	inf	inf	0.0
Q96A56	0.0	inf	1.0
Q9H5Q4	inf	inf	0.0
Q9BY84	inf	inf	1.0
Q9Y5L2	0.0	0.0	0.0
Q99727	inf	inf	0.0
Q9Y5L4	inf	inf	1.0
Q96PV7	inf	inf	1.0
P14555	inf	inf	0.0
Q13356	inf	inf	1.0
Q9BY67	0.0	inf	0.0
Q06787	inf	inf	1.0
O00116	inf	inf	1.0
O15355	inf	inf	1.0
F5GWA4	inf	inf	1.0
O14640	0.0	inf	0.0
P49747	0.0	0.0	inf
Q9NWV8	inf	inf	1.0
Q14957	0.0	inf	inf
P49748	1.0	inf	inf
Q9NV88	inf	inf	1.0
Q15428	0.0	0.0	1.0
Q9P0U4	inf	inf	1.0
E7EWQ4	inf	inf	1.0
Q14116	inf	inf	0.0
Q9ULM3	inf	inf	1.0
I3L2L9	inf	inf	1.0
Q9ULM6	0.0	inf	inf
M0R102	inf	inf	1.0
O60508	inf	inf	1.0
Q8WXC3	0.0	inf	inf
J3KN32	inf	inf	1.0
Q8ND76	0.0	inf	inf
P20338	inf	inf	0.0
Q9HCC0	1.0	inf	inf
P43351	inf	inf	1.0
P30419	inf	inf	0.0
Q9HCC9	inf	0.0	0.0
Q9H0G5	inf	0.0	inf
Q8TDN6	inf	inf	1.0
O00534	inf	inf	1.0
Q8NBS9	inf	1.0	0.0
Q9HCS7	inf	0.0	1.0
Q8TDD1	0.0	inf	1.0
H3BMA4	inf	inf	1.0
Q6ZN17	inf	inf	1.0
Q6ZN18	inf	inf	1.0
P06731	0.0	inf	0.0
Q9H6W3	inf	inf	1.0
P06737	inf	inf	0.0
Q03468	inf	0.0	inf
O15055	inf	inf	1.0
O14503	0.0	inf	1.0
P17787	0.0	0.0	0.0
G5E9L0	inf	inf	1.0
Q676U5	inf	0.0	inf
Q9BRX8	inf	inf	0.0
Q9BRX9	inf	inf	0.0
Q9NZN4	0.0	0.0	inf
Q9HB96	inf	inf	1.0
Q9P121	inf	inf	0.0
P16410	0.0	0.0	0.0
Q7Z4W1	0.0	0.0	inf
Q13705	inf	inf	0.0
Q13702	inf	inf	0.0
Q96NW4	inf	inf	0.0
Q96GM8	inf	inf	1.0
O00165	inf	inf	0.0
Q4ADV7	inf	inf	0.0
F8WAE6	inf	inf	1.0
Q06546	0.0	0.0	1.0
Q16566	inf	inf	1.0
Q9NW64	inf	inf	1.0
Q969W9	0.0	0.0	0.0
J3KNE3	inf	inf	1.0
J3KNE2	inf	inf	1.0
O14757	inf	inf	1.0
P54727	inf	inf	1.0
O60337	0.0	inf	inf
Q9UMQ3	inf	inf	1.0
Q9P016	inf	inf	1.0
Q9P015	1.0	inf	inf
J3KNE8	inf	inf	1.0
O60423	inf	inf	0.0
Q9UBK2	inf	inf	1.0
O95271	inf	inf	1.0
Q9UBK8	inf	inf	1.0
P56199	inf	0.0	0.0
Q96K21	inf	inf	0.0
P55884	inf	inf	1.0
Q9Y6Q1	0.0	inf	inf
Q01650	inf	inf	1.0
Q13325	inf	inf	0.0
Q9BU61	0.0	0.0	inf
Q6AZZ1	inf	inf	1.0
Q86V15	inf	inf	1.0
P50440	0.0	inf	0.0
P49715	inf	inf	1.0
Q9Y2Y0	inf	0.0	inf
Q9UJC3	0.0	inf	inf
Q9UJC5	inf	inf	1.0
Q9BVP2	inf	0.0	inf
Q13489	inf	inf	1.0
P07737	0.0	inf	inf
P09603	0.0	0.0	0.0
P08779	inf	0.0	inf
P09601	0.0	inf	inf
P08107	inf	inf	1.0
P02708	0.0	inf	0.0
P28066	inf	inf	1.0
O14613	inf	inf	0.0
P28065	inf	inf	1.0
P28062	inf	inf	1.0
Q01959	inf	inf	0.0
P52294	inf	inf	1.0
P14222	inf	0.0	inf
B4DZ31	inf	inf	1.0
Q5VT52	inf	inf	1.0
G5E977	inf	inf	1.0
P52292	inf	inf	1.0
Q9BQA5	inf	0.0	inf
Q66PJ3	inf	inf	1.0
Q9NZJ5	inf	inf	0.0
Q03518	inf	0.0	inf
P62917	inf	inf	1.0
Q9Y484	0.0	inf	0.0
Q6IB77	1.0	0.0	0.0
O00423	inf	0.0	0.0
Q9UNL4	inf	0.0	1.0
Q10471	inf	0.0	0.0
P10253	0.0	0.0	0.0
Q10472	0.0	0.0	0.0
O95302	0.0	inf	inf
Q15389	inf	0.0	inf
P06396	inf	inf	0.0
Q9UJ55	0.0	inf	inf
A8K0Z3	0.0	inf	0.0
Q00796	inf	0.0	0.0
Q9H0U6	1.0	inf	inf
P15173	inf	0.0	1.0
Q9H0U3	inf	inf	0.0
Q9P2M4	0.0	inf	0.0
H0Y8U4	inf	inf	1.0
O75928	0.0	inf	1.0
Q9UKV5	inf	0.0	inf
P24592	0.0	inf	inf
Q9UGN4	0.0	inf	inf
P32246	inf	0.0	0.0
Q6NT89	0.0	inf	inf
O75925	0.0	inf	1.0
Q08345	0.0	0.0	0.0
Q8TDB6	inf	inf	1.0
P35269	0.0	inf	1.0
Q9Y3E7	inf	0.0	inf
Q8IYI6	inf	inf	0.0
P27487	0.0	0.0	inf
Q68CJ9	0.0	inf	inf
Q9UK39	inf	inf	1.0
Q96Q42	0.0	inf	0.0
E5KLJ5	inf	inf	1.0
Q02535	inf	inf	1.0
Q8N6I1	inf	inf	1.0
P10323	0.0	inf	inf
Q92797	inf	inf	1.0
P14316	inf	inf	1.0
P00367	1.0	inf	0.0
P00813	inf	inf	0.0
P23634	inf	inf	0.0
O15304	inf	inf	1.0
O15303	0.0	0.0	0.0
F2Z2T0	inf	inf	1.0
O75150	inf	0.0	1.0
O75469	inf	inf	1.0
Q8IX90	inf	inf	0.0
O15145	inf	inf	0.0
Q99627	inf	inf	1.0
Q7Z6M4	1.0	inf	inf
Q99624	inf	inf	0.0
Q9H015	inf	0.0	0.0
P54920	0.0	0.0	inf
Q6X4W1	inf	inf	1.0
Q9P0J0	inf	inf	1.0
O75154	inf	inf	1.0
E9PC47	inf	inf	1.0
Q9BZI7	inf	inf	1.0
J3KQS6	inf	inf	1.0
P35462	0.0	inf	0.0
Q5HYK7	inf	inf	1.0
Q8N0S6	inf	inf	1.0
P28289	inf	0.0	inf
Q14541	inf	inf	1.0
Q9UN79	inf	inf	1.0
Q6ZUJ8	0.0	inf	0.0
Q14542	inf	inf	1.0
Q9H492	inf	0.0	0.0
Q9BSI4	0.0	inf	1.0
Q9H490	inf	0.0	inf
Q9Y3D8	inf	0.0	inf
O60741	inf	inf	0.0
Q9HCT0	inf	inf	1.0
P24752	1.0	inf	inf
P43699	0.0	0.0	1.0
Q9H944	inf	inf	1.0
O94925	1.0	inf	inf
Q8N1I0	0.0	inf	0.0
O96014	inf	inf	0.0
Q13387	inf	inf	0.0
H0YCH8	inf	inf	1.0
P01286	inf	0.0	0.0
P42126	1.0	inf	inf
P41238	inf	inf	1.0
O96019	0.0	inf	1.0
Q5R372	0.0	inf	inf
Q9NPD8	inf	inf	1.0
P46937	inf	inf	1.0
Q8NFA0	inf	inf	0.0
Q99714	1.0	inf	inf
P14784	0.0	0.0	0.0
Q9NPD3	inf	inf	1.0
P14780	0.0	0.0	0.0
Q8IWU4	inf	inf	0.0
Q9NVU7	inf	inf	1.0
O60271	inf	inf	0.0
F5H1F7	inf	inf	1.0
P52701	inf	inf	1.0
Q5TA31	inf	inf	1.0
B7Z4J8	inf	inf	1.0
Q8N5J2	inf	inf	1.0
K7ENN5	inf	inf	1.0
Q3YBR2	inf	inf	1.0
P26992	0.0	0.0	0.0
Q6NUT2	0.0	0.0	inf
P26447	0.0	0.0	inf
Q14161	inf	inf	1.0
Q5NDL2	inf	1.0	inf
Q86Y25	inf	inf	0.0
O14879	inf	inf	0.0
P10809	1.0	inf	inf
P53985	inf	inf	0.0
Q15637	inf	inf	1.0
O15160	inf	inf	1.0
O14874	1.0	0.0	0.0
Q96G01	inf	0.0	inf
Q96G03	0.0	0.0	inf
O14791	inf	0.0	0.0
Q16832	inf	0.0	0.0
Q13496	inf	inf	0.0
Q7L3T8	1.0	inf	inf
O43405	inf	inf	0.0
C9J148	inf	inf	1.0
Q13257	inf	0.0	inf
O75143	inf	0.0	0.0
Q6ZNL6	inf	inf	0.0
Q9BWS9	inf	0.0	inf
Q92966	inf	inf	1.0
Q32MQ0	inf	inf	1.0
M0R1N9	inf	inf	1.0
Q8N8Q3	inf	inf	1.0
Q9BRG1	inf	inf	1.0
P11441	0.0	0.0	inf
P40967	inf	0.0	inf
Q6ZNB6	0.0	0.0	inf
Q92747	inf	0.0	0.0
O95785	0.0	inf	inf
Q9BUQ8	inf	inf	1.0
Q9NZA1	inf	0.0	0.0
Q9UBV7	0.0	inf	0.0
Q9UBV4	inf	inf	0.0
J3KPQ0	inf	inf	1.0
Q92802	inf	0.0	inf
Q9BWE0	inf	inf	1.0
P51681	inf	inf	0.0
Q8WUD1	0.0	inf	inf
P48764	0.0	inf	inf
Q15700	0.0	inf	0.0
P40189	0.0	0.0	0.0
Q5H8A4	inf	inf	0.0
Q9Y4L1	0.0	inf	inf
O43318	inf	inf	1.0
Q9BQI5	inf	inf	0.0
P11047	0.0	inf	0.0
P33316	inf	0.0	1.0
Q9GZR7	inf	inf	1.0
O75717	inf	inf	1.0
P19784	0.0	0.0	inf
P54105	inf	inf	1.0
P63165	inf	inf	1.0
Q8IUQ0	inf	inf	0.0
Q9BSU3	0.0	inf	inf
H0Y326	inf	inf	1.0
Q9UHV9	inf	inf	1.0
Q86YW5	0.0	inf	0.0
O43809	inf	0.0	inf
Q96SF7	inf	inf	1.0
P21860	0.0	0.0	0.0
Q96BD8	0.0	inf	inf
P33993	inf	inf	1.0
P33991	inf	inf	1.0
Q9UQR1	inf	inf	1.0
P61296	inf	0.0	1.0
Q08AH1	1.0	inf	inf
Q9Y2N7	inf	inf	1.0
Q15208	inf	inf	1.0
Q8WTX9	0.0	inf	0.0
Q9NWQ8	0.0	0.0	0.0
P49755	0.0	inf	0.0
P49754	inf	0.0	inf
P49757	0.0	inf	inf
Q9NX58	inf	inf	1.0
Q15418	inf	inf	1.0
F8WEZ9	inf	inf	1.0
P49593	0.0	inf	0.0
J3KNN9	inf	inf	1.0
Q9H9L7	inf	inf	1.0
P56181	inf	inf	1.0
P51530	inf	0.0	1.0
Q5XKL5	inf	inf	1.0
Q9HCB6	inf	1.0	inf
P61586	0.0	inf	0.0
Q8N3Y1	inf	inf	0.0
Q9BRK5	inf	inf	0.0
Q8TDH9	inf	0.0	0.0
Q16698	1.0	inf	inf
Q9UNH5	inf	inf	1.0
H0YCK3	inf	inf	1.0
Q16610	inf	0.0	0.0
Q86UL3	0.0	inf	inf
H0YKC5	inf	inf	1.0
Q9H0D6	0.0	0.0	1.0
F8W6I3	inf	inf	1.0
Q9ULG1	inf	0.0	inf
Q9NQ03	inf	inf	1.0
P31751	inf	0.0	inf
Q13698	inf	inf	0.0
Q13433	inf	inf	0.0
Q8TBF4	inf	inf	1.0
P06727	inf	1.0	0.0
F8WCF5	inf	inf	1.0
P06729	inf	0.0	inf
P20908	0.0	inf	0.0
Q9UPT6	inf	inf	0.0
Q15560	inf	inf	1.0
Q15561	inf	inf	1.0
Q15562	inf	inf	1.0
P16401	0.0	inf	1.0
P16403	inf	inf	1.0
Q9UI36	inf	inf	1.0
Q13541	inf	inf	1.0
Q86SE9	inf	inf	1.0
Q96B36	inf	inf	1.0
Q8NHY5	inf	inf	1.0
Q5R342	inf	inf	1.0
F6QYI9	inf	inf	1.0
Q8NHY3	inf	inf	0.0
O95352	inf	inf	0.0
Q96HY7	inf	0.0	0.0
E9PN35	inf	inf	1.0
Q5SQN1	inf	inf	0.0
P51665	inf	inf	1.0
P03951	0.0	inf	inf
P03950	0.0	0.0	1.0
Q9UKA1	inf	0.0	inf
P03952	inf	inf	0.0
Q969V5	inf	inf	1.0
O00257	inf	inf	1.0
O00253	0.0	inf	0.0
Q08945	inf	inf	1.0
C9J3R0	inf	inf	1.0
F6U3F6	inf	inf	1.0
Q96P16	inf	inf	1.0
Q9BZP6	inf	inf	0.0
Q32P41	1.0	inf	inf
Q6UXH8	0.0	inf	0.0
Q7Z3U7	0.0	inf	0.0
Q9BW92	1.0	inf	inf
Q9H8M7	inf	inf	1.0
Q8NHG7	0.0	0.0	0.0
P27824	0.0	inf	inf
Q9Y2X0	0.0	0.0	inf
Q9Y2X3	inf	inf	1.0
Q13043	inf	inf	1.0
Q9Y2X9	inf	inf	1.0
Q6PKG0	inf	inf	1.0
P83916	inf	inf	1.0
P78362	inf	inf	1.0
P02778	0.0	inf	inf
P28074	inf	inf	1.0
Q93063	0.0	inf	inf
Q969R8	inf	inf	1.0
Q9HAJ7	inf	inf	1.0
Q04206	inf	inf	1.0
P17542	0.0	0.0	1.0
P56704	0.0	inf	0.0
P35052	0.0	0.0	0.0
O00410	inf	inf	1.0
Q15392	0.0	inf	inf
Q9P2N6	inf	inf	1.0
Q8WYA0	inf	0.0	inf
Q9P2N2	inf	inf	1.0
Q03692	inf	1.0	inf
Q8TDY4	inf	inf	0.0
P42696	inf	inf	1.0
O60566	inf	inf	1.0
Q9Y2W2	inf	inf	1.0
P51816	inf	inf	1.0
P43268	inf	inf	1.0
F8W9F8	inf	inf	1.0
Q9H0R6	inf	0.0	inf
Q9P0N8	0.0	inf	0.0
Q9P0N9	0.0	0.0	0.0
Q7RTV3	0.0	inf	inf
Q7RTV0	0.0	0.0	inf
Q8N4T8	1.0	inf	inf
O95881	inf	1.0	inf
Q8IY33	0.0	inf	0.0
Q8IY31	inf	inf	0.0
P49023	inf	inf	1.0
P55854	inf	inf	1.0
J3QSY4	inf	inf	1.0
O75448	inf	inf	1.0
C9JFV4	inf	inf	1.0
Q5W5W9	inf	1.0	inf
Q6NZ36	inf	0.0	1.0
Q9UK05	0.0	inf	0.0
P13051	inf	inf	1.0
F8W0Q9	inf	inf	1.0
Q9P202	inf	inf	0.0
P10301	inf	inf	0.0
Q92824	0.0	inf	0.0
M0R3F3	inf	inf	1.0
Q92820	0.0	0.0	inf
P25116	inf	0.0	inf
G3V5T3	inf	inf	1.0
Q8N271	0.0	inf	0.0
E9PNI7	inf	inf	1.0
P17948	0.0	inf	inf
Q9BZF2	0.0	0.0	inf
Q86T24	inf	inf	1.0
Q14397	inf	inf	1.0
F5GX28	inf	inf	1.0
Q4ZHG4	inf	inf	1.0
Q15084	0.0	1.0	0.0
O15318	0.0	0.0	inf
Q15080	0.0	inf	0.0
Q9Y2I9	0.0	0.0	0.0
P10451	inf	0.0	0.0
P42336	inf	0.0	0.0
Q14393	inf	inf	0.0
Q96SZ4	inf	inf	1.0
P09012	inf	inf	1.0
P30989	inf	inf	0.0
Q05048	inf	inf	1.0
Q92622	inf	inf	0.0
Q92626	0.0	inf	inf
Q14257	inf	1.0	inf
Q92625	inf	inf	1.0
P00734	0.0	1.0	0.0
I3L3E8	inf	inf	1.0
Q8WZ73	inf	inf	0.0
P00738	inf	0.0	0.0
O75935	inf	0.0	0.0
P53396	inf	inf	1.0
P20023	inf	inf	0.0
Q8WW01	inf	inf	1.0
P43686	inf	inf	1.0
P43681	0.0	inf	0.0
P25786	inf	inf	1.0
Q9UHG2	0.0	0.0	0.0
Q9UHG3	0.0	inf	0.0
Q13393	0.0	0.0	0.0
P41222	inf	inf	0.0
Q8IV48	inf	inf	1.0
P27216	inf	0.0	1.0
P41226	0.0	inf	inf
Q86YF9	inf	inf	1.0
E7EQN5	inf	inf	1.0
O60285	inf	inf	1.0
Q02487	inf	0.0	0.0
P46926	inf	inf	0.0
O75718	0.0	1.0	0.0
O75446	inf	inf	1.0
Q9NPE3	inf	inf	1.0
M0R3C8	inf	inf	1.0
Q96RF0	0.0	inf	0.0
O43272	1.0	inf	inf
P32297	inf	0.0	inf
C9JLN7	inf	inf	1.0
P41240	inf	inf	0.0
F5GXL6	inf	inf	1.0
P49761	0.0	inf	1.0
P20336	0.0	0.0	inf
P20337	inf	inf	0.0
O43674	inf	inf	1.0
Q70J99	0.0	0.0	inf
J9JID7	inf	inf	1.0
Q9HAQ2	inf	inf	0.0
Q14117	0.0	inf	inf
Q14114	0.0	inf	0.0
Q12986	inf	inf	1.0
O95466	0.0	inf	inf
Q09013	inf	0.0	0.0
P16144	0.0	0.0	0.0
Q8IZL2	0.0	inf	1.0
P41597	inf	inf	0.0
P41595	inf	inf	0.0
Q96RT7	inf	0.0	0.0
Q9H204	inf	inf	1.0
Q96E17	inf	inf	0.0
Q9NZ08	0.0	1.0	inf
Q13488	inf	0.0	inf
Q9P0M6	0.0	inf	inf
Q9H4A6	inf	0.0	1.0
Q96G30	0.0	inf	0.0
P15172	inf	inf	1.0
Q96E11	1.0	inf	inf
P22748	inf	0.0	0.0
H3BQL7	inf	inf	1.0
Q13247	inf	inf	1.0
Q70CQ3	inf	0.0	inf
Q16539	inf	inf	1.0
Q13243	inf	inf	1.0
Q13242	inf	inf	1.0
P11279	inf	inf	0.0
Q9GZX5	inf	0.0	1.0
Q9H3R2	0.0	inf	0.0
K7EQN9	inf	inf	1.0
Q14028	0.0	0.0	0.0
Q9NU63	inf	inf	1.0
P17301	0.0	0.0	inf
P17302	inf	0.0	inf
Q6ZNA4	inf	inf	1.0
I3L2B2	inf	inf	1.0
Q8TBK2	inf	inf	1.0
Q53S48	inf	inf	1.0
Q8WUG5	0.0	inf	0.0
O43303	0.0	0.0	inf
Q9Y6N7	inf	inf	0.0
P22607	0.0	inf	inf
Q6PIL6	inf	inf	0.0
Q5VTD9	inf	inf	1.0
Q8NB16	inf	inf	0.0
P08237	inf	inf	0.0
Q9NWF9	inf	inf	1.0
P04818	inf	inf	1.0
Q9NY12	inf	inf	1.0
Q495C1	inf	inf	1.0
O75607	inf	inf	1.0
P25705	1.0	inf	inf
E9PMG4	inf	inf	1.0
H0Y339	inf	inf	1.0
Q9NYV6	inf	inf	1.0
H3BSL4	inf	inf	1.0
H7BY23	inf	inf	1.0
Q7Z7H8	1.0	0.0	1.0
Q86YP4	inf	0.0	1.0
P55085	inf	inf	0.0
O00139	0.0	inf	inf
P20591	inf	inf	0.0
F8VX10	inf	inf	1.0
Q96IF1	0.0	0.0	inf
Q9BW60	0.0	inf	inf
Q14978	inf	inf	1.0
Q8IXB1	inf	1.0	0.0
Q9ULK0	0.0	inf	inf
Q5H9R7	inf	inf	1.0
Q15404	inf	0.0	inf
Q96GA3	inf	inf	1.0
Q6UUV7	inf	inf	1.0
F8VYK3	inf	inf	1.0
P49760	0.0	inf	1.0
Q13651	0.0	inf	0.0
P07384	inf	inf	0.0
Q969X5	inf	inf	0.0
P50336	0.0	0.0	inf
Q9NS56	inf	0.0	1.0
Q96MV8	0.0	0.0	0.0
Q9BX97	0.0	inf	inf
Q7L014	inf	inf	1.0
O95644	inf	inf	1.0
C9K0R9	inf	inf	1.0
Q9UPS6	inf	inf	1.0
Q96B86	0.0	inf	inf
Q96HR3	inf	0.0	1.0
E9PKU4	inf	inf	1.0
Q2M3R5	0.0	inf	0.0
Q9UJX2	inf	inf	1.0
Q16666	inf	inf	1.0
Q16667	inf	inf	0.0
E9PQP7	inf	inf	1.0
