	GO0045211	GO0097060
O00623	inf	0.0
O00622	inf	0.0
Q8TBF2	inf	0.0
Q9H0E3	0.0	inf
O00628	0.0	inf
P60880	inf	1.0
Q5TAX3	0.0	0.0
Q9NQT8	0.0	0.0
O15072	inf	0.0
Q9NZL3	0.0	0.0
Q7LFL8	0.0	inf
E7ENE5	1.0	inf
Q9HC77	inf	0.0
P84077	1.0	1.0
P23919	0.0	0.0
Q8N5F7	0.0	0.0
Q9NXR8	inf	0.0
E9PK11	1.0	1.0
Q00535	1.0	1.0
Q00534	0.0	inf
Q9NXR7	0.0	inf
Q9HBM1	inf	0.0
Q06587	inf	0.0
Q9HBM6	0.0	inf
P21675	0.0	0.0
O95257	0.0	inf
O95251	inf	0.0
Q6UXI9	inf	0.0
P40424	0.0	0.0
P17050	0.0	inf
Q9BW83	0.0	0.0
Q07699	inf	0.0
Q7Z3T8	0.0	0.0
Q13838	0.0	inf
O00391	0.0	0.0
P58400	inf	1.0
P02768	0.0	inf
Q53ET0	inf	0.0
P20936	inf	0.0
Q8TCJ0	inf	0.0
Q9NRZ9	0.0	0.0
Q01201	inf	0.0
Q04323	0.0	inf
Q7L266	0.0	0.0
P10275	inf	0.0
Q9Y2U5	0.0	inf
A0AVT1	0.0	0.0
O76027	0.0	0.0
E7ERL8	inf	1.0
Q8TDX5	0.0	0.0
Q9H816	0.0	0.0
Q969U6	0.0	inf
Q9UMS0	0.0	inf
P29401	inf	0.0
Q49AN0	0.0	inf
Q8IY21	inf	0.0
H0YL14	inf	0.0
P08151	0.0	inf
P43034	0.0	inf
Q96AC1	0.0	0.0
Q96CS3	inf	0.0
Q96BP3	0.0	0.0
Q92833	0.0	inf
Q92831	inf	0.0
Q9UKL3	0.0	inf
P17936	inf	0.0
Q9BXW9	0.0	0.0
Q92834	inf	0.0
O15229	0.0	inf
Q9NQW7	inf	0.0
P51878	0.0	inf
P06280	0.0	inf
Q9Y6E7	0.0	inf
P01019	0.0	inf
Q8N2S1	inf	0.0
P01011	0.0	0.0
Q9H8H0	0.0	inf
P52655	inf	0.0
Q99081	0.0	inf
P52657	inf	0.0
P78563	0.0	inf
Q5MNZ9	0.0	0.0
P60520	0.0	0.0
Q92630	0.0	inf
P22352	0.0	inf
Q92636	0.0	0.0
Q14562	0.0	0.0
P15514	inf	0.0
P32780	0.0	0.0
Q05901	1.0	1.0
Q15185	0.0	inf
Q7Z5K2	0.0	0.0
Q9NYI0	1.0	1.0
Q14587	inf	0.0
Q9UHF7	0.0	0.0
P41214	inf	0.0
O94903	0.0	0.0
O43248	inf	0.0
Q13127	0.0	inf
O43791	0.0	0.0
Q8TC71	0.0	inf
Q9UGB7	inf	0.0
O43189	inf	0.0
Q9UPN9	inf	0.0
P62736	inf	0.0
Q5VWK5	0.0	inf
Q9Y3Y2	inf	0.0
Q96Q89	inf	0.0
P49450	inf	0.0
O75486	0.0	0.0
O43424	1.0	inf
Q17RS7	0.0	inf
Q96HA7	inf	0.0
Q96PM5	0.0	0.0
P16157	1.0	1.0
Q6Q788	inf	0.0
Q7L5Y9	inf	0.0
P54098	0.0	0.0
P99999	0.0	0.0
Q9H211	0.0	0.0
P19474	inf	0.0
P54764	1.0	inf
E7ENK3	inf	1.0
Q16520	0.0	inf
O75362	inf	0.0
Q13232	inf	0.0
I3L1T7	1.0	inf
P26885	0.0	0.0
P60323	0.0	inf
P10916	inf	0.0
Q8N5U6	0.0	inf
Q5JXB2	inf	0.0
Q96BT3	0.0	0.0
Q96BT7	inf	0.0
Q9UL03	0.0	inf
P12645	inf	0.0
P12643	0.0	inf
Q96CF2	0.0	0.0
P49419	0.0	inf
Q96RU2	inf	0.0
Q6VMQ6	inf	0.0
Q9NYU2	0.0	inf
Q9NWS1	inf	0.0
P36639	inf	0.0
Q9BYP7	0.0	inf
P49770	0.0	0.0
O15527	inf	0.0
Q02127	inf	0.0
P25208	inf	0.0
P31260	inf	0.0
Q9UPR3	0.0	0.0
O75969	inf	0.0
Q8TBE0	inf	0.0
Q8TBE1	inf	1.0
Q9NQS7	inf	0.0
Q9NQ66	inf	0.0
P83369	inf	0.0
Q9NXA8	0.0	0.0
Q9H6R4	0.0	inf
P02545	0.0	0.0
O15067	0.0	inf
P41143	inf	1.0
P07093	0.0	inf
Q8NAP3	inf	0.0
Q96GN5	0.0	0.0
Q9HC62	0.0	inf
P37231	inf	0.0
Q96J94	0.0	0.0
Q03989	0.0	inf
Q9C0K7	0.0	inf
Q06609	inf	0.0
Q9UBL9	0.0	inf
O00273	inf	0.0
Q9Y294	0.0	inf
Q9UBL3	0.0	inf
Q6UXN9	inf	0.0
Q6ICB4	inf	0.0
P17066	0.0	0.0
Q08629	0.0	0.0
Q08999	0.0	inf
Q9NZU5	inf	0.0
Q93009	0.0	0.0
Q8TDF5	inf	1.0
P29508	0.0	0.0
Q00613	0.0	0.0
P78357	inf	0.0
O76039	0.0	inf
Q5VUG0	0.0	inf
Q9UQ16	inf	0.0
Q9UQ13	inf	0.0
O60543	0.0	0.0
Q8IU60	inf	0.0
Q9H0P0	0.0	0.0
Q9NVC3	0.0	inf
Q9BT43	0.0	0.0
Q7Z2W4	0.0	inf
Q8IYB7	inf	0.0
O15083	inf	1.0
Q9Y616	0.0	inf
P49789	inf	0.0
P07476	inf	0.0
Q08752	inf	0.0
P01138	inf	0.0
P35250	inf	0.0
P49959	inf	0.0
Q8IY18	inf	0.0
Q92731	inf	0.0
Q9UGM1	1.0	1.0
P08631	0.0	inf
Q96AB3	inf	0.0
A4D2P6	1.0	1.0
O00506	0.0	inf
P16989	inf	0.0
Q8TCI5	0.0	0.0
Q9Y4P8	0.0	inf
P20132	0.0	0.0
Q9Y4P1	0.0	0.0
Q9BXP5	inf	0.0
Q9Y6D6	0.0	inf
Q9Y6D9	0.0	0.0
O43929	0.0	0.0
Q13003	1.0	inf
O75398	0.0	inf
Q99678	0.0	0.0
Q1ZZU3	0.0	inf
O75390	inf	0.0
Q92609	0.0	0.0
Q9Y4F9	0.0	inf
P10071	inf	0.0
Q9UH77	0.0	inf
Q8TE68	0.0	inf
Q6PI25	inf	1.0
Q5VT25	inf	0.0
Q96P63	0.0	0.0
Q99986	0.0	inf
P04066	inf	0.0
Q96PV0	0.0	inf
Q99988	0.0	0.0
P18065	0.0	0.0
P27694	inf	0.0
Q08379	inf	0.0
Q9NRI5	inf	1.0
Q9H7Z6	inf	0.0
O43257	inf	0.0
O43255	inf	0.0
O94979	0.0	inf
Q9H422	0.0	inf
P42773	0.0	inf
O43251	0.0	inf
P42771	inf	0.0
O94972	0.0	inf
Q9NYF8	0.0	0.0
P68543	0.0	inf
Q5SYC1	0.0	inf
Q9NRG4	0.0	0.0
P30154	0.0	0.0
P53350	0.0	inf
Q13136	inf	0.0
Q99217	0.0	inf
Q14137	inf	0.0
Q96EP1	inf	0.0
P62633	0.0	inf
O95400	0.0	0.0
O95409	inf	0.0
Q5T2T1	0.0	0.0
Q14644	0.0	0.0
Q8N4N8	0.0	0.0
P04637	0.0	0.0
Q9H4G4	0.0	0.0
Q14847	inf	0.0
Q99697	0.0	0.0
Q16514	0.0	inf
O00408	inf	1.0
O75379	0.0	0.0
Q13224	1.0	inf
P42261	inf	1.0
Q8TCU5	1.0	inf
Q8N144	inf	0.0
P19224	0.0	inf
P40938	0.0	inf
Q8NCW5	0.0	inf
P40937	inf	0.0
Q15363	0.0	inf
Q02040	inf	0.0
Q9UFC0	inf	0.0
Q9BWF3	0.0	0.0
O43324	inf	0.0
Q9UHK6	inf	0.0
P31942	0.0	0.0
Q9Y5P4	0.0	inf
P31947	0.0	inf
Q9UHK0	0.0	inf
P31944	0.0	0.0
Q8N1F8	inf	0.0
Q96DA6	inf	0.0
Q8N3V7	1.0	inf
Q6PL18	inf	0.0
Q96MF7	0.0	0.0
Q9Y2K1	0.0	inf
P19532	inf	0.0
Q96MT3	0.0	inf
Q9Y5B6	0.0	inf
O14682	inf	0.0
Q96MT8	0.0	inf
Q16644	0.0	inf
Q16647	inf	0.0
Q9NS73	inf	0.0
Q13576	inf	0.0
Q03426	inf	0.0
O95833	inf	0.0
P68871	0.0	inf
O75436	inf	0.0
Q9H6S0	0.0	0.0
Q68DU8	1.0	inf
Q9NQZ2	inf	0.0
O95754	1.0	1.0
Q08209	0.0	0.0
P13349	0.0	inf
Q9NZJ0	0.0	0.0
P55103	0.0	0.0
P29597	0.0	inf
Q8NCE0	0.0	inf
Q6TDP4	1.0	1.0
Q9Y6U3	0.0	inf
P01127	0.0	inf
Q9Y281	0.0	0.0
P48436	inf	0.0
Q8NCK7	inf	0.0
P48431	0.0	0.0
O00268	0.0	0.0
O00267	0.0	inf
Q8WWQ0	0.0	inf
Q9H2K2	0.0	0.0
Q06124	0.0	inf
P83436	0.0	0.0
Q01826	0.0	0.0
Q9ULG1	inf	0.0
Q07343	0.0	0.0
P13765	0.0	inf
Q9HCC9	inf	0.0
Q7Z449	inf	0.0
O76041	0.0	0.0
P0C2W1	inf	1.0
Q9UNS1	0.0	inf
Q9Y2W1	0.0	inf
Q9BVJ6	inf	0.0
O95347	0.0	0.0
P05129	inf	1.0
P10451	0.0	inf
O43623	0.0	0.0
O00463	inf	0.0
Q5HYA8	inf	0.0
Q9NQH7	0.0	0.0
Q12981	inf	0.0
Q14155	0.0	0.0
O75175	0.0	inf
P57735	inf	0.0
O75419	inf	0.0
Q9Y3I1	0.0	0.0
Q9Y3I0	0.0	inf
Q7RTU7	0.0	inf
P28330	0.0	inf
P28331	0.0	0.0
Q92830	inf	0.0
Q86US8	inf	0.0
P35716	0.0	inf
Q6ZW49	0.0	inf
Q8IYU8	0.0	0.0
P35713	inf	0.0
Q9NVV4	inf	0.0
P18615	0.0	inf
P01588	0.0	0.0
Q9UF02	1.0	inf
Q8IVW8	0.0	inf
P05230	inf	0.0
P01583	0.0	inf
P01584	inf	0.0
O95983	inf	0.0
P02743	0.0	inf
P02741	0.0	inf
P07510	inf	1.0
Q9BZE0	0.0	0.0
P01034	0.0	inf
P01036	inf	0.0
Q8TCD5	0.0	0.0
Q9UKX2	0.0	inf
Q9BXC9	0.0	inf
Q9Y4E8	0.0	inf
Q99638	inf	0.0
Q9BZK7	0.0	inf
Q8TD23	inf	0.0
Q8N339	inf	0.0
Q8N336	0.0	inf
Q8TAP6	inf	0.0
P61218	0.0	inf
Q9H160	0.0	inf
O43933	0.0	0.0
P42765	0.0	0.0
Q15834	inf	0.0
Q9NPH9	0.0	0.0
Q9NPH0	0.0	inf
Q9UHD4	0.0	inf
Q9NRD0	0.0	inf
Q9NRD1	0.0	0.0
Q7Z5G4	inf	0.0
Q9NRD5	inf	1.0
P61964	0.0	inf
Q96JM3	0.0	0.0
P17482	0.0	inf
P20309	1.0	1.0
Q8WV22	0.0	0.0
Q9H4D5	0.0	0.0
O94817	inf	0.0
O94811	0.0	inf
Q96HC4	1.0	inf
Q8IWY4	0.0	inf
O95433	0.0	0.0
Q13216	0.0	inf
Q16873	0.0	inf
Q9NZN9	0.0	inf
O75182	inf	0.0
O75340	inf	0.0
Q99684	0.0	0.0
P11229	1.0	inf
P25685	0.0	0.0
P25686	inf	0.0
Q8N157	0.0	0.0
Q5VVJ2	0.0	inf
Q06546	0.0	0.0
P02489	0.0	0.0
Q8WY54	0.0	0.0
P36382	inf	0.0
Q9NUS5	0.0	inf
Q15746	0.0	inf
P10620	0.0	0.0
O14929	inf	0.0
Q9GZS3	0.0	inf
Q9GZS0	inf	0.0
O43353	0.0	inf
O95503	inf	0.0
O14920	0.0	inf
Q86YS3	inf	0.0
Q9ULZ3	0.0	0.0
Q13363	0.0	0.0
Q86YS6	inf	0.0
Q9UHJ3	0.0	inf
Q99538	0.0	inf
Q96PK6	inf	0.0
Q8N1G2	0.0	inf
P23560	0.0	0.0
Q16478	inf	1.0
Q96RS0	0.0	0.0
Q0ZGT2	inf	0.0
Q8TE96	inf	0.0
P40855	0.0	0.0
Q9Y2J8	0.0	0.0
H0YM29	1.0	1.0
Q8NG08	inf	0.0
O75899	inf	1.0
Q12769	0.0	0.0
O95619	0.0	0.0
Q9Y5C1	inf	0.0
Q15699	inf	0.0
P48050	inf	1.0
Q15691	inf	0.0
Q15697	inf	0.0
Q16890	0.0	inf
P12755	inf	0.0
P12757	0.0	0.0
Q9UPP2	1.0	1.0
Q9UPP1	0.0	inf
P13489	0.0	0.0
Q3SYG4	inf	0.0
Q5TCY1	0.0	0.0
Q9BV86	0.0	inf
Q9BV81	0.0	inf
Q8TBC4	0.0	inf
P52948	0.0	inf
Q9HD33	inf	0.0
Q9P0N9	0.0	inf
Q14831	1.0	inf
O14744	inf	0.0
P23946	0.0	inf
O14746	inf	0.0
Q9UQL6	inf	0.0
Q8WWB7	0.0	inf
P22415	inf	0.0
P15259	inf	0.0
Q16099	inf	1.0
Q09FC8	inf	0.0
Q8NHU6	0.0	0.0
O60493	0.0	inf
P10599	0.0	inf
O60499	inf	0.0
P31150	0.0	0.0
P31151	0.0	0.0
Q3SXY8	0.0	0.0
Q86V40	0.0	0.0
P18074	inf	0.0
P30711	inf	0.0
O00217	0.0	inf
Q9UJF2	0.0	inf
Q9Y2D1	inf	0.0
P48681	inf	0.0
P55884	inf	0.0
P29218	inf	0.0
O75940	0.0	0.0
P59103	0.0	0.0
Q9NV31	0.0	0.0
Q9Y6Q1	0.0	inf
P13716	inf	0.0
O76050	1.0	1.0
Q12888	0.0	0.0
Q9Y653	inf	0.0
Q3T906	inf	0.0
Q86VD7	0.0	0.0
O00327	0.0	0.0
Q9UMX1	0.0	0.0
Q9BVK6	0.0	0.0
Q6NT89	inf	0.0
Q9NWU1	0.0	inf
Q9Y2V2	0.0	inf
Q92993	0.0	0.0
A8MWX3	inf	0.0
Q9UL45	0.0	0.0
Q969X0	0.0	0.0
Q96RL1	0.0	0.0
Q96EZ8	0.0	0.0
Q9P0J0	inf	0.0
P57727	0.0	inf
Q969Z3	0.0	0.0
Q01167	0.0	inf
Q05586	inf	1.0
P28325	0.0	0.0
P28324	0.0	inf
Q9UHF3	inf	0.0
Q8IYT2	inf	0.0
Q969H0	0.0	inf
Q8IYT8	0.0	inf
O43164	inf	1.0
Q9H1B4	0.0	0.0
P01023	0.0	0.0
P53999	0.0	inf
C9JFP8	inf	1.0
P51826	0.0	inf
Q9Y2Y0	0.0	inf
Q9Y255	inf	0.0
Q9Y252	0.0	inf
P78371	0.0	0.0
Q9Y251	0.0	inf
O15350	0.0	0.0
Q9Y6F1	0.0	0.0
Q5SW96	0.0	inf
Q8IX07	inf	0.0
Q8IX03	inf	0.0
O15503	inf	0.0
Q8TAQ2	inf	0.0
P08294	0.0	0.0
Q86VH5	inf	1.0
P35638	inf	0.0
Q9UBB5	inf	0.0
Q9NRW3	0.0	0.0
Q86VH2	0.0	0.0
Q8N302	0.0	inf
Q5T7B8	0.0	0.0
Q92979	inf	0.0
Q15825	1.0	inf
Q02446	0.0	inf
Q13114	0.0	0.0
Q8N3F8	0.0	inf
P08476	inf	0.0
Q9UEU0	0.0	inf
P42681	0.0	inf
Q96JJ7	inf	0.0
Q9HAU5	0.0	0.0
P08185	0.0	inf
P10124	0.0	0.0
P04179	0.0	0.0
Q7Z6J4	0.0	0.0
Q16719	inf	0.0
Q8TEY7	0.0	0.0
Q7Z6J2	1.0	inf
Q12947	inf	0.0
Q14247	inf	0.0
P26232	inf	0.0
Q14469	inf	0.0
Q13202	inf	0.0
P07858	0.0	0.0
O75192	0.0	inf
P23416	1.0	1.0
P23415	1.0	inf
O75356	0.0	0.0
P11230	1.0	1.0
O75351	0.0	0.0
Q8N163	inf	0.0
Q14790	inf	0.0
P30926	1.0	inf
Q6ZP29	0.0	inf
Q68E01	0.0	0.0
Q9GZR5	0.0	inf
Q9BX63	inf	0.0
Q9NWB7	0.0	0.0
P54198	0.0	0.0
P67809	0.0	inf
Q9Y5R2	0.0	0.0
P25787	0.0	0.0
P49427	0.0	inf
Q99543	inf	0.0
Q99547	0.0	0.0
L7N2F9	inf	0.0
Q9NR23	inf	0.0
P61626	0.0	inf
Q9ULW2	inf	0.0
Q9ULW0	inf	0.0
Q9H9Q4	inf	0.0
Q9Y484	0.0	inf
P21953	0.0	0.0
Q12792	0.0	inf
O94777	0.0	0.0
Q9HCE5	0.0	inf
Q8NC60	0.0	inf
P09917	0.0	inf
Q9HCE1	0.0	0.0
O15514	0.0	inf
Q9NX24	0.0	0.0
Q5SZQ8	0.0	0.0
Q9BUT1	inf	0.0
P63220	inf	0.0
Q5TB30	0.0	inf
Q29983	0.0	inf
P50053	0.0	inf
O95302	inf	0.0
Q96NY9	0.0	inf
Q9NZH6	inf	0.0
Q13769	0.0	0.0
P24278	inf	0.0
Q70HW3	0.0	inf
Q13761	0.0	inf
Q14807	inf	0.0
O14773	0.0	inf
O14776	inf	0.0
P61086	inf	0.0
Q13562	0.0	inf
P16278	0.0	inf
P55197	inf	0.0
P85037	0.0	0.0
Q9UJW0	0.0	0.0
Q9Y2M0	0.0	inf
P16152	inf	0.0
P30542	1.0	inf
O60481	inf	0.0
Q9NZV8	inf	1.0
Q9Y6W5	inf	0.0
Q9Y6W3	0.0	0.0
Q8NE86	0.0	0.0
Q9NUN7	0.0	inf
Q9H0U6	0.0	inf
O75164	inf	0.0
Q9H2M3	0.0	0.0
Q8WTS1	inf	0.0
Q9HB40	inf	0.0
O00194	0.0	0.0
Q9NV06	0.0	0.0
Q6NS38	0.0	0.0
B4E0Y9	0.0	inf
P07196	inf	0.0
O75928	0.0	inf
P09132	inf	0.0
O76064	inf	0.0
Q13614	inf	1.0
Q9BTT0	0.0	0.0
P32243	inf	0.0
Q9Y397	0.0	0.0
O60828	0.0	inf
P30039	inf	0.0
O95361	0.0	0.0
Q9Y399	inf	0.0
Q9GZV5	inf	0.0
O95163	0.0	0.0
O43542	0.0	inf
Q9P0K8	0.0	inf
P15313	inf	0.0
P13631	inf	0.0
P18859	0.0	inf
Q12965	inf	0.0
Q96EY5	0.0	inf
Q9NXV6	0.0	inf
Q96EY1	inf	1.0
Q12962	inf	0.0
Q9P253	inf	0.0
Q9UID6	inf	0.0
Q9H9C1	0.0	0.0
P78417	inf	0.0
P04180	inf	0.0
P02654	0.0	0.0
Q9NXX6	0.0	0.0
Q9BXS6	0.0	inf
Q86UU0	0.0	0.0
Q9H8V3	0.0	inf
P20783	inf	0.0
Q9H1E1	inf	0.0
Q8IVU3	0.0	0.0
Q9C0F3	0.0	inf
Q7Z3K3	inf	0.0
Q9Y244	inf	0.0
P35269	0.0	0.0
Q9Y240	0.0	0.0
Q8IX15	inf	0.0
Q8N9H8	inf	0.0
Q9GZM8	0.0	0.0
P22314	inf	0.0
O95948	inf	0.0
Q9UKV0	0.0	0.0
Q9Y6K1	0.0	inf
P46199	0.0	0.0
Q4VCS5	inf	0.0
O60729	0.0	0.0
Q9BZI7	inf	0.0
Q9Y6K9	inf	0.0
P35609	inf	0.0
P24046	inf	1.0
Q6P1M3	inf	0.0
P42568	0.0	inf
Q92743	inf	0.0
Q92747	0.0	inf
Q6NTF7	0.0	0.0
O95388	0.0	inf
O43809	0.0	0.0
Q15814	inf	0.0
Q13164	inf	0.0
Q9NPJ3	0.0	0.0
Q9NPJ4	inf	0.0
Q9UI36	inf	0.0
Q9NQ38	inf	0.0
Q7KZN9	0.0	0.0
Q9UI30	0.0	inf
P53367	0.0	0.0
Q92560	0.0	0.0
Q9UI38	inf	0.0
Q9HAT2	0.0	inf
P0DME0	inf	0.0
Q96JK9	0.0	0.0
P18146	0.0	0.0
A6NFA1	inf	0.0
Q7Z6K1	0.0	inf
Q14258	0.0	0.0
Q5VTR2	inf	0.0
P21579	inf	1.0
Q8N4C8	1.0	1.0
Q7Z2E3	0.0	0.0
O94832	0.0	0.0
O14529	inf	0.0
Q53HL2	inf	0.0
Q8N6S4	0.0	inf
Q9HAF1	0.0	0.0
Q8IW41	0.0	inf
Q8IW40	inf	0.0
Q6IBS0	0.0	inf
P49184	inf	0.0
Q8TED0	0.0	inf
Q6ZSZ5	inf	0.0
Q8WUP2	0.0	inf
Q2VIQ3	0.0	0.0
P53567	inf	0.0
O94941	0.0	inf
P07996	0.0	inf
O43592	0.0	inf
O15303	inf	1.0
O14904	0.0	0.0
P40126	0.0	0.0
P20813	0.0	0.0
P41182	0.0	0.0
Q9NUQ7	0.0	0.0
Q9NUQ3	0.0	inf
Q86X55	inf	0.0
Q9GZQ8	inf	0.0
Q9NWM0	inf	0.0
Q96PM9	0.0	inf
Q13308	0.0	inf
Q13309	0.0	inf
Q9Y5S9	inf	0.0
Q9Y5S8	0.0	inf
Q7Z7C8	inf	0.0
P07205	0.0	0.0
Q14678	inf	0.0
Q4U2R6	0.0	0.0
O94763	0.0	inf
O94762	0.0	0.0
Q9BQ15	inf	0.0
Q9BQ16	0.0	inf
Q9Y2D8	inf	0.0
Q12788	inf	0.0
Q02363	0.0	inf
P07332	0.0	inf
Q8IU68	inf	0.0
Q9UPV9	inf	0.0
P11172	0.0	inf
P11177	0.0	0.0
Q8NI77	0.0	0.0
Q14814	0.0	0.0
Q13347	inf	0.0
P47900	1.0	inf
Q9NZI2	0.0	0.0
Q9NZI8	inf	0.0
P62072	inf	0.0
Q9P2P5	inf	0.0
Q9BUX1	inf	0.0
Q6FHJ7	0.0	inf
O14764	1.0	inf
Q9BUI4	0.0	0.0
O95707	0.0	inf
Q9UJV3	0.0	inf
P47870	1.0	inf
Q13426	inf	0.0
P37275	0.0	0.0
O00233	0.0	0.0
P37108	0.0	inf
Q9NUM4	inf	0.0
P17028	inf	0.0
P55327	0.0	0.0
Q86XE5	0.0	0.0
Q9UK97	0.0	0.0
Q8WTP8	inf	0.0
Q15257	0.0	0.0
Q8TB24	inf	0.0
Q5GLZ8	inf	0.0
Q9H0N0	inf	0.0
Q9ULD0	0.0	inf
P31040	0.0	0.0
P51159	0.0	inf
P05111	inf	0.0
Q96AP0	0.0	0.0
P35030	inf	0.0
O76075	0.0	inf
O60858	0.0	inf
Q15334	0.0	0.0
Q9BVI0	0.0	inf
Q9Y2P5	inf	0.0
O95376	0.0	0.0
Q9Y2P7	0.0	0.0
Q9BT81	0.0	0.0
Q9UMX2	inf	0.0
Q9UMX3	0.0	inf
Q13950	0.0	0.0
Q9Y657	0.0	0.0
Q9BV47	0.0	inf
O14576	inf	0.0
O95171	0.0	inf
Q13794	0.0	inf
Q9BRQ8	0.0	0.0
P18847	inf	0.0
P18846	0.0	0.0
P02462	inf	0.0
P62857	0.0	inf
Q6IQ55	0.0	inf
Q9Y473	inf	0.0
Q96CV9	0.0	inf
Q9P267	inf	0.0
Q96SQ9	0.0	0.0
Q9UKI9	inf	0.0
Q92889	inf	0.0
Q96QB1	inf	0.0
Q9NQC8	0.0	inf
P01040	0.0	inf
Q9Y6X3	inf	0.0
Q92990	inf	0.0
P20774	0.0	0.0
Q15020	0.0	0.0
Q15022	0.0	0.0
Q9UQR1	inf	0.0
E9PJP9	inf	1.0
P02794	inf	0.0
O15178	inf	0.0
P04080	inf	0.0
Q8NI27	0.0	0.0
P53778	0.0	inf
P04085	0.0	inf
Q6IMN6	0.0	0.0
Q9Y6J9	0.0	0.0
Q12873	0.0	inf
Q5QGS0	0.0	inf
P78537	0.0	0.0
Q8TDN6	0.0	inf
Q9UGP4	inf	0.0
Q9H7V2	1.0	1.0
O43815	1.0	1.0
O95393	0.0	inf
Q9BVG8	inf	0.0
Q9GZY8	inf	0.0
Q9H469	0.0	0.0
Q99966	inf	0.0
Q99969	inf	0.0
P42224	inf	0.0
P42226	0.0	0.0
Q9NRC8	inf	0.0
Q8TA86	inf	0.0
Q01459	0.0	0.0
Q8TF30	0.0	0.0
Q9Y639	inf	1.0
Q6PCD5	inf	0.0
Q9Y3B8	0.0	0.0
P28161	0.0	inf
Q96LD8	0.0	inf
Q9H081	0.0	inf
Q9H082	inf	0.0
Q9H8E8	0.0	inf
Q9H267	inf	0.0
O94842	0.0	inf
Q9H4K7	0.0	inf
P25490	0.0	inf
Q9H269	0.0	0.0
Q04844	1.0	1.0
P46527	0.0	inf
Q68CQ4	0.0	0.0
Q99496	inf	0.0
Q02880	inf	0.0
P23435	inf	1.0
Q53T94	inf	0.0
Q9BQT9	inf	1.0
Q9UH92	0.0	inf
P20226	inf	0.0
Q9UH99	0.0	inf
O14972	0.0	inf
Q02086	inf	0.0
O14974	inf	0.0
Q9NUP1	0.0	0.0
O14979	inf	0.0
O43567	0.0	0.0
O43566	1.0	inf
P07942	0.0	inf
Q86X45	0.0	0.0
P53420	inf	0.0
O75027	inf	0.0
Q8IZV5	inf	0.0
Q9NYH9	0.0	0.0
P14780	inf	0.0
P11387	0.0	0.0
Q96HF1	0.0	inf
Q14684	inf	0.0
Q6X4W1	1.0	inf
Q14683	0.0	inf
P60896	inf	0.0
O60299	inf	1.0
Q8IXH6	inf	0.0
P16389	inf	1.0
Q9H9S0	0.0	0.0
Q8IUH3	inf	0.0
Q8IUH5	inf	0.0
Q13404	0.0	inf
Q8IU54	inf	0.0
Q5VSF9	inf	1.0
P36406	0.0	0.0
P36405	inf	0.0
P36404	inf	0.0
P63208	0.0	inf
P11161	inf	0.0
O60934	0.0	0.0
O60936	inf	0.0
Q96K30	0.0	0.0
Q06413	0.0	0.0
P10632	inf	0.0
Q9NVW2	0.0	0.0
Q15797	0.0	0.0
Q13541	0.0	inf
Q6N069	inf	0.0
Q13546	0.0	inf
Q13547	inf	0.0
P47869	1.0	inf
Q86UT5	inf	0.0
P50452	inf	0.0
O00222	inf	1.0
P12235	inf	0.0
O43865	0.0	inf
Q9UBC3	inf	0.0
A6PVC2	inf	0.0
Q9HB65	0.0	inf
P61201	0.0	inf
Q01860	0.0	inf
Q9UJM3	0.0	0.0
Q9NSA3	inf	0.0
Q9Y2A7	inf	0.0
Q6ZRQ5	0.0	0.0
Q504Y2	inf	0.0
P34931	inf	0.0
O75064	inf	0.0
Q6PGN9	0.0	inf
P51149	0.0	0.0
P05164	0.0	0.0
Q9H2A2	0.0	inf
P53990	0.0	0.0
Q9BYG3	0.0	0.0
B4DKT6	1.0	inf
O60840	0.0	0.0
O00311	0.0	inf
Q86XK2	inf	0.0
Q86UE8	0.0	inf
Q9UMY4	0.0	inf
Q9Y646	0.0	inf
O95140	inf	0.0
Q9H6R0	0.0	inf
O14561	inf	0.0
Q86UE4	inf	0.0
Q7L7V1	0.0	0.0
Q12948	0.0	0.0
Q9NP62	0.0	inf
Q9NQL2	0.0	0.0
Q96NM4	inf	0.0
Q86UW7	1.0	1.0
Q9UIF9	0.0	0.0
Q9Y3M2	inf	0.0
Q9P270	0.0	0.0
Q9P275	0.0	0.0
P51813	0.0	inf
Q9NQB0	0.0	inf
Q96EU6	inf	0.0
P20160	inf	0.0
P02787	0.0	0.0
O60447	inf	0.0
Q9UM63	0.0	0.0
P60008	inf	0.0
Q6STE5	0.0	0.0
Q15013	0.0	inf
Q7L0Y3	inf	0.0
O15143	0.0	inf
P45973	0.0	0.0
Q9UBZ4	inf	0.0
O75528	0.0	0.0
O75838	inf	0.0
Q9Y512	0.0	inf
Q9UKT4	0.0	0.0
Q9UKT5	0.0	inf
O75830	0.0	0.0
Q14997	0.0	inf
Q8WYH8	0.0	inf
Q9Y250	inf	1.0
Q8TAT6	inf	0.0
P09668	0.0	0.0
Q9Y6M4	0.0	inf
P08247	inf	1.0
Q76FK4	inf	0.0
P05305	0.0	0.0
O43820	inf	0.0
Q92769	inf	0.0
Q13490	inf	0.0
Q86U42	inf	0.0
O43829	0.0	inf
Q92766	0.0	inf
Q86U44	0.0	0.0
Q99798	inf	0.0
Q92547	inf	0.0
Q9Y3C6	inf	0.0
Q9Y3C1	0.0	0.0
P05413	inf	0.0
Q01196	0.0	0.0
P35573	0.0	inf
Q13257	0.0	0.0
Q9HAV4	0.0	0.0
Q8NCD3	inf	0.0
Q5VVX9	0.0	inf
O43172	inf	0.0
Q15907	inf	0.0
P19419	0.0	0.0
Q14457	inf	0.0
P27352	0.0	inf
Q9UGL1	inf	0.0
Q96LW4	0.0	0.0
Q8NEU8	0.0	0.0
Q8TEB9	0.0	inf
Q70SY1	inf	0.0
Q02962	inf	0.0
Q9Y462	inf	0.0
O14964	0.0	0.0
Q02742	0.0	0.0
O43395	0.0	inf
Q8N1C3	1.0	inf
Q13325	0.0	inf
Q8IXW5	0.0	inf
Q6QNY1	0.0	0.0
Q6QNY0	inf	0.0
P11388	inf	0.0
Q9UHN1	inf	0.0
Q96FN5	inf	0.0
Q14694	inf	0.0
O60271	inf	0.0
Q8IWU2	0.0	inf
Q14693	0.0	0.0
P26006	inf	1.0
P40818	0.0	0.0
Q15493	0.0	inf
Q16695	inf	0.0
O15547	inf	0.0
Q9NX57	inf	0.0
Q8N3Y1	inf	0.0
Q16698	0.0	0.0
Q13432	inf	0.0
Q5SV17	inf	1.0
Q9UPT6	0.0	0.0
Q96B36	0.0	0.0
Q9UPT9	0.0	0.0
Q96HY6	inf	0.0
P63272	0.0	0.0
Q68DX3	inf	0.0
O60907	0.0	inf
Q9BRA2	inf	0.0
Q8WXF1	inf	0.0
Q15544	inf	0.0
Q969G3	inf	0.0
Q9UBP5	inf	0.0
Q96GD4	0.0	inf
Q9UBP6	inf	0.0
P13533	0.0	0.0
Q6UW88	0.0	0.0
Q5T4F4	0.0	inf
P60903	0.0	0.0
Q16740	0.0	0.0
Q9UJX5	0.0	0.0
P12004	inf	0.0
Q96A26	0.0	inf
P62253	inf	0.0
Q13829	inf	0.0
Q9UJX3	0.0	inf
Q6PD62	inf	0.0
Q9UQB9	0.0	inf
Q9NSC2	0.0	0.0
Q63ZY3	inf	0.0
Q9NSC5	inf	1.0
Q15274	inf	0.0
Q13882	0.0	inf
Q9HB75	inf	0.0
Q9UJJ9	0.0	inf
Q5VIR6	0.0	0.0
P48643	0.0	inf
O14639	0.0	0.0
Q9UBE0	0.0	0.0
Q03167	0.0	0.0
P13995	0.0	0.0
Q96K21	inf	0.0
Q9ULB1	inf	1.0
P34903	1.0	inf
P51553	0.0	0.0
Q9BVW5	0.0	inf
Q9Y2R2	0.0	inf
P52209	0.0	0.0
Q9Y2R0	0.0	0.0
P84550	0.0	inf
P30049	0.0	0.0
P30048	0.0	0.0
Q9UL01	0.0	inf
Q9NVE5	0.0	0.0
P31269	0.0	inf
Q9H0Z9	0.0	0.0
P55273	inf	0.0
P30044	0.0	inf
Q5TCS8	0.0	0.0
Q86XJ1	0.0	0.0
Q12933	0.0	inf
Q9Y678	0.0	0.0
Q9NZU7	inf	1.0
Q9NP71	inf	0.0
Q6P2C8	inf	0.0
Q96GV9	0.0	0.0
O60870	inf	0.0
Q9Y697	inf	0.0
Q8IYX4	inf	0.0
P62875	0.0	0.0
Q9C0C4	1.0	inf
Q9UKG9	inf	0.0
Q9C0C9	0.0	0.0
Q53EU6	inf	0.0
O00764	0.0	0.0
P28562	0.0	inf
O15392	inf	0.0
Q9BTW9	inf	0.0
P78334	inf	1.0
Q9BZL1	0.0	0.0
P28749	0.0	inf
O95931	0.0	inf
Q8N2Z9	0.0	0.0
Q9H1H9	0.0	0.0
Q00059	0.0	0.0
Q96R06	0.0	0.0
Q9H7T9	0.0	inf
Q32NB8	0.0	0.0
Q15072	inf	0.0
Q3B820	0.0	0.0
P28360	0.0	inf
Q9Y324	0.0	0.0
A8K2U0	0.0	0.0
Q9P2H0	inf	0.0
P08651	0.0	0.0
Q13158	0.0	inf
O75223	inf	0.0
Q7LC44	inf	1.0
Q9UL25	0.0	0.0
Q14191	0.0	0.0
Q14197	inf	0.0
P46098	1.0	1.0
P60484	1.0	inf
P52756	inf	0.0
Q9NTM9	0.0	inf
Q9UII4	0.0	0.0
O60687	inf	1.0
Q9UII2	0.0	0.0
Q9Y5K5	0.0	inf
Q3ZCT1	0.0	0.0
Q96NA2	0.0	inf
Q92845	0.0	0.0
Q92843	inf	0.0
Q9H3D4	0.0	0.0
P68036	0.0	inf
Q15915	0.0	0.0
Q15910	0.0	0.0
Q8IW19	0.0	inf
P27169	inf	0.0
Q9H040	inf	0.0
O75312	0.0	0.0
O75311	1.0	1.0
Q8NEV4	0.0	0.0
O15247	0.0	0.0
Q5XUX0	0.0	inf
Q2NKJ3	inf	0.0
Q8IVL5	inf	0.0
P05546	inf	0.0
P26583	0.0	inf
P20248	0.0	inf
Q8WZ19	inf	0.0
P62304	inf	0.0
O94992	0.0	0.0
Q2M2I8	0.0	inf
Q86YN6	0.0	0.0
P24855	0.0	0.0
Q13330	0.0	0.0
Q5TC82	0.0	0.0
Q9GZV1	inf	0.0
Q99584	inf	0.0
O43543	0.0	0.0
Q6FI81	0.0	inf
Q99741	0.0	inf
Q99743	inf	0.0
P22079	inf	0.0
Q99747	0.0	0.0
Q9BVI4	inf	0.0
Q8IUX7	inf	0.0
Q8IUX4	0.0	0.0
O94864	0.0	inf
Q9H4I2	0.0	0.0
Q8IWT1	0.0	inf
O60264	0.0	0.0
O15553	inf	0.0
Q8IWF6	inf	0.0
Q5VZE5	0.0	inf
Q13427	0.0	inf
Q7Z2Z1	0.0	0.0
P62314	inf	0.0
P62312	0.0	inf
Q9HCI5	1.0	inf
Q16594	0.0	inf
Q16595	0.0	inf
Q5JSP0	inf	0.0
Q6AZZ1	inf	0.0
Q9UHB9	inf	0.0
Q9HD40	0.0	inf
Q9HD42	0.0	0.0
Q86WI3	0.0	inf
Q9H6I2	0.0	0.0
Q96M98	0.0	0.0
P30101	0.0	0.0
Q63HK5	0.0	inf
Q9UBS8	inf	0.0
O14737	inf	0.0
P22466	0.0	0.0
Q9UBS5	inf	1.0
Q5QJU3	inf	0.0
P63316	inf	0.0
Q16775	0.0	inf
Q9NT62	0.0	0.0
Q7L592	0.0	0.0
Q7L2E3	inf	0.0
Q15262	0.0	inf
Q9NUJ1	0.0	inf
O00154	inf	0.0
Q14999	0.0	0.0
Q15468	0.0	0.0
Q14994	inf	0.0
P51784	inf	0.0
P15336	0.0	0.0
Q16610	0.0	inf
Q8IUD2	inf	1.0
O00487	inf	0.0
O00483	0.0	0.0
O00482	inf	0.0
O60869	inf	0.0
Q9H2C0	inf	0.0
P55317	inf	0.0
P37802	0.0	inf
Q9BYE7	inf	0.0
P55201	0.0	0.0
Q9P2G4	inf	0.0
Q9NQR1	0.0	inf
P29374	0.0	0.0
Q9BRT2	0.0	0.0
Q12929	inf	0.0
Q04837	inf	0.0
Q9P0G3	0.0	0.0
P08912	1.0	1.0
Q9C000	inf	0.0
Q9C005	0.0	inf
Q9NSB8	inf	1.0
Q13568	inf	0.0
Q969S3	inf	0.0
P02458	inf	0.0
Q8N271	0.0	0.0
P02452	inf	0.0
Q969S8	0.0	inf
P15848	0.0	inf
Q8WY41	inf	0.0
P14867	inf	1.0
Q9NZL9	inf	0.0
Q9C0E2	0.0	inf
Q96ES6	inf	0.0
Q96ES7	0.0	inf
P20749	inf	0.0
Q08050	0.0	0.0
Q8TAD8	inf	0.0
Q8WWY3	inf	0.0
O95235	inf	0.0
P09467	0.0	0.0
O15126	inf	0.0
O15127	0.0	inf
Q9BZM5	0.0	0.0
Q9Y535	inf	0.0
O75817	0.0	inf
P35318	0.0	0.0
P29590	inf	0.0
Q9H7S9	inf	0.0
Q8N357	0.0	0.0
Q09470	inf	1.0
Q8WVC0	0.0	0.0
Q9H2U1	0.0	inf
O95831	0.0	inf
O95832	inf	0.0
Q92922	0.0	0.0
Q92925	0.0	0.0
Q8TDR0	inf	0.0
O75251	inf	1.0
P43652	0.0	0.0
P02753	inf	0.0
Q86VQ3	0.0	0.0
Q14181	0.0	0.0
O75496	inf	0.0
P35225	0.0	0.0
Q9H4X1	0.0	0.0
P26045	inf	0.0
P35228	inf	0.0
Q9Y448	0.0	0.0
Q9UIJ5	0.0	0.0
Q9UIJ7	0.0	0.0
Q9Y3A6	inf	0.0
Q9Y3A5	0.0	0.0
Q9Y3A4	inf	0.0
Q9Y3A2	0.0	0.0
Q9UK73	inf	0.0
O60671	0.0	0.0
Q9UKR3	0.0	0.0
P62324	0.0	0.0
Q9GZR1	inf	0.0
P54253	inf	0.0
Q6UWZ7	0.0	0.0
Q7L5N1	inf	0.0
Q6NUP7	0.0	inf
P98171	inf	0.0
P98170	inf	0.0
P98177	0.0	inf
O43151	0.0	inf
P98174	inf	0.0
P05556	inf	1.0
P14678	0.0	inf
Q709F0	0.0	0.0
O75676	0.0	inf
Q8TB68	1.0	1.0
P04054	0.0	inf
O94985	inf	1.0
Q8N137	inf	0.0
Q4G0U5	inf	0.0
P26374	0.0	inf
Q8N138	inf	0.0
Q13009	inf	0.0
P42701	inf	0.0
O43716	0.0	0.0
Q9P1Q0	0.0	inf
O43715	0.0	inf
Q9BSM1	0.0	0.0
Q9UER7	inf	0.0
Q8NHY2	inf	0.0
Q9H5Z1	0.0	0.0
Q9UHL0	0.0	0.0
Q99598	0.0	inf
Q8IV36	inf	0.0
Q99590	0.0	inf
Q99593	0.0	inf
Q99592	0.0	0.0
Q13185	0.0	0.0
Q8N3I7	0.0	inf
P22003	0.0	inf
Q6P158	0.0	inf
Q9UI95	inf	0.0
A8MPY1	inf	1.0
Q6ZMT4	0.0	inf
P82675	inf	0.0
P21291	inf	0.0
Q9BZJ0	0.0	inf
Q9UHR5	0.0	inf
Q9BYX2	inf	0.0
O60674	0.0	inf
Q15678	0.0	0.0
O43447	0.0	0.0
Q8N4Q1	inf	0.0
Q9H9T3	0.0	inf
P11137	inf	0.0
Q5JQC9	0.0	0.0
P50222	0.0	inf
P50221	0.0	0.0
P62306	inf	0.0
Q5TB80	0.0	0.0
Q9NZ72	inf	0.0
Q8NEY4	0.0	0.0
Q16587	0.0	0.0
Q9NZC9	inf	0.0
Q8WXD5	0.0	inf
P49662	0.0	0.0
O14727	0.0	inf
Q06265	0.0	inf
Q96BZ9	inf	0.0
Q9UJZ1	0.0	0.0
P22674	0.0	0.0
Q6DKK2	0.0	0.0
Q53H47	0.0	inf
Q6PIW4	0.0	0.0
Q16762	0.0	0.0
O95264	1.0	1.0
Q96BH1	inf	0.0
Q7Z569	0.0	0.0
Q5BJF6	0.0	0.0
Q9NR50	inf	0.0
P47895	inf	0.0
Q6ZN17	0.0	0.0
O00165	0.0	0.0
O00167	inf	0.0
O14618	0.0	inf
Q13625	0.0	0.0
Q15459	0.0	0.0
P49711	0.0	inf
P19838	0.0	inf
Q9BPW8	inf	1.0
Q9UNL4	inf	0.0
P12110	inf	0.0
Q9P0V3	0.0	0.0
Q96IU4	0.0	0.0
Q86XK3	inf	0.0
P55210	0.0	0.0
Q9H0X6	inf	0.0
P55212	0.0	inf
Q8N8Q3	inf	0.0
P17174	0.0	inf
P52952	inf	0.0
Q9BRU9	0.0	inf
Q9H6T0	inf	0.0
P31644	1.0	inf
Q7Z5J4	inf	0.0
Q96QF0	inf	0.0
Q86XF0	0.0	0.0
P09529	inf	0.0
P45379	0.0	0.0
P41208	inf	0.0
P55854	0.0	inf
Q147X3	inf	0.0
O00584	0.0	inf
Q86UE6	inf	1.0
Q9NQG6	inf	0.0
Q9NQG5	0.0	inf
Q9Y237	inf	0.0
O95229	0.0	inf
Q9Y232	inf	0.0
Q9HBH9	0.0	inf
Q9UM11	0.0	inf
Q93088	0.0	inf
Q9UHE5	inf	0.0
Q9BTY2	0.0	inf
Q5HY92	0.0	0.0
P54259	inf	0.0
P08237	inf	0.0
P18754	0.0	0.0
Q9HAZ2	0.0	0.0
P09327	inf	0.0
Q86U70	0.0	inf
Q15119	inf	0.0
P24522	0.0	0.0
Q15113	0.0	inf
O15226	0.0	0.0
Q9P2J5	0.0	inf
Q9H840	0.0	0.0
O75674	0.0	0.0
Q9BVC3	0.0	inf
P28347	0.0	0.0
Q9H845	0.0	inf
P48742	inf	0.0
Q9H116	0.0	0.0
Q7Z5L7	0.0	0.0
Q9UGK8	0.0	inf
O75489	0.0	inf
P15923	0.0	0.0
Q96AH0	0.0	inf
Q8N720	0.0	0.0
Q8TES7	inf	0.0
Q6W0C5	0.0	0.0
Q8TC07	0.0	0.0
Q92688	inf	0.0
P56962	0.0	inf
Q96QT6	0.0	inf
Q92466	0.0	0.0
Q7LBR1	0.0	inf
P27144	0.0	0.0
Q9Y3T9	0.0	0.0
Q8IYB4	inf	0.0
Q04771	0.0	inf
O75663	0.0	0.0
Q8IYB8	inf	0.0
Q01094	0.0	inf
P04062	0.0	0.0
P26368	inf	0.0
P27540	0.0	inf
Q6NT76	0.0	0.0
Q6PI48	0.0	inf
P26367	0.0	inf
P14060	inf	0.0
Q99928	1.0	1.0
Q99929	0.0	inf
P42263	inf	1.0
Q14714	inf	1.0
Q9GZT8	inf	0.0
Q8WYQ5	inf	0.0
P58340	0.0	0.0
Q9Y5X9	0.0	inf
O43521	0.0	0.0
P23510	0.0	inf
Q9Y5X2	0.0	0.0
Q9Y5X3	0.0	0.0
Q9Y5X0	0.0	inf
P42702	inf	0.0
Q99727	0.0	inf
Q9UNS2	0.0	0.0
Q13190	inf	0.0
Q8WVX9	0.0	0.0
Q6ZMU5	0.0	inf
Q5TA31	inf	0.0
Q14159	0.0	inf
Q15393	inf	0.0
Q9Y5J1	inf	0.0
Q9Y5J3	inf	0.0
Q7Z7L1	0.0	inf
Q9Y5J7	inf	0.0
Q6W2J9	0.0	0.0
O75113	0.0	inf
Q16576	0.0	inf
Q9UBU3	0.0	inf
Q16394	0.0	inf
Q96GA7	0.0	inf
Q86SP6	inf	0.0
Q8TDY2	0.0	0.0
Q9UBU9	inf	0.0
Q5VSL9	inf	0.0
P41134	0.0	inf
Q9GZU7	inf	0.0
Q13501	inf	0.0
Q96A72	0.0	0.0
A6ND36	inf	0.0
Q9NWZ8	0.0	0.0
Q8IXL6	0.0	0.0
Q8IXL7	0.0	inf
O15498	0.0	0.0
P06400	0.0	inf
O15146	1.0	1.0
Q7Z3B3	0.0	inf
P12272	0.0	inf
P12273	0.0	0.0
Q53EL6	0.0	inf
P30279	0.0	0.0
Q9UQE7	inf	0.0
P55199	0.0	inf
Q9UFW8	inf	0.0
Q6ZN04	inf	0.0
Q9NWT8	0.0	0.0
P61247	0.0	0.0
Q9P2W9	inf	0.0
Q9UQM7	inf	1.0
Q96C92	0.0	inf
B7ZAQ6	0.0	0.0
Q13616	inf	0.0
Q6S5L8	1.0	inf
Q9BRD0	0.0	inf
H3BMM0	0.0	inf
Q16620	1.0	1.0
Q96K76	0.0	0.0
Q9NS15	0.0	0.0
P55040	0.0	0.0
A8MT69	inf	0.0
Q8WXE9	0.0	inf
Q16629	0.0	inf
P50613	0.0	inf
Q8NBQ5	0.0	0.0
Q8TDB6	inf	0.0
P51965	0.0	inf
Q8TBZ6	inf	0.0
Q9NVH0	0.0	0.0
P30305	inf	0.0
Q5T447	0.0	0.0
Q9C026	inf	0.0
O15033	0.0	0.0
Q12907	0.0	inf
Q2M1P5	inf	0.0
Q86XE0	inf	0.0
Q9P032	0.0	0.0
Q9P035	0.0	inf
P18507	1.0	1.0
P18505	1.0	inf
O75832	inf	0.0
Q96ST3	0.0	0.0
Q9UJW3	inf	0.0
Q96H20	0.0	0.0
Q96S99	inf	0.0
Q15054	inf	0.0
Q63HQ0	0.0	0.0
Q9UKT7	0.0	0.0
Q15050	0.0	inf
Q15051	0.0	0.0
P16591	0.0	inf
Q12874	0.0	inf
Q9Y227	0.0	0.0
Q9Y226	0.0	0.0
Q9Y224	0.0	inf
Q12879	1.0	inf
P39687	inf	0.0
Q9UJA3	0.0	inf
Q9BTZ2	inf	0.0
Q6I9Y2	inf	0.0
Q9P1A6	inf	1.0
Q8N2W9	0.0	0.0
O60391	1.0	1.0
Q9Y6A4	0.0	0.0
Q9Y6A5	inf	0.0
Q5T1S8	0.0	0.0
Q07817	0.0	0.0
Q9UK05	inf	0.0
P52434	inf	0.0
Q92903	0.0	0.0
P05181	0.0	0.0
Q96AY2	0.0	0.0
Q92900	0.0	0.0
Q9NVS9	0.0	0.0
O15212	0.0	0.0
O15213	inf	0.0
P08246	inf	0.0
Q9Y316	0.0	inf
Q9P2K5	inf	0.0
Q9Y314	0.0	inf
Q9H0W9	0.0	0.0
Q92824	inf	0.0
Q6ZMD2	0.0	0.0
O75909	inf	0.0
Q7RTS9	inf	0.0
O75477	0.0	inf
Q8TEP8	0.0	0.0
P05452	0.0	0.0
Q96LA8	0.0	inf
Q9UIL1	0.0	0.0
P28715	0.0	inf
Q08257	0.0	inf
O75874	0.0	0.0
Q8N9A8	0.0	inf
Q8N9F0	inf	0.0
Q92876	0.0	0.0
O75879	0.0	inf
P08590	0.0	0.0
Q969G5	inf	0.0
P54278	0.0	0.0
Q68CZ1	inf	0.0
P08572	inf	0.0
Q9H8L6	0.0	0.0
Q13057	0.0	0.0
Q99607	inf	0.0
O75616	inf	0.0
P35443	0.0	inf
Q86TC9	0.0	inf
Q92585	inf	0.0
Q8NFM7	0.0	0.0
Q99935	0.0	0.0
Q8N394	0.0	0.0
Q9H920	0.0	0.0
Q8IV16	0.0	inf
Q9NWK9	inf	0.0
O43513	0.0	0.0
Q9Y2G2	0.0	inf
Q9Y5Y9	0.0	0.0
O75052	0.0	0.0
P41250	0.0	inf
Q9UHB4	0.0	inf
Q2VPB7	inf	0.0
O96033	inf	0.0
O75293	inf	0.0
P32004	inf	1.0
Q96RK4	0.0	0.0
O95813	0.0	0.0
Q14145	inf	0.0
Q14416	inf	1.0
Q9H4L7	0.0	0.0
Q8IZA3	0.0	inf
P10827	0.0	0.0
P10826	inf	0.0
Q96ST2	inf	0.0
Q9NYQ3	0.0	inf
P17014	0.0	0.0
Q9H4B6	inf	0.0
P54727	0.0	inf
P54725	0.0	inf
P15121	0.0	inf
Q13148	inf	0.0
O75127	inf	0.0
Q9NZC4	0.0	0.0
Q86SQ7	0.0	inf
P31941	0.0	inf
Q96M63	0.0	0.0
P61019	inf	0.0
A8MTZ0	0.0	0.0
P61011	0.0	0.0
Q6VVX0	0.0	inf
Q15723	0.0	0.0
Q99527	inf	1.0
P48745	0.0	0.0
Q07001	inf	1.0
Q0VGL1	0.0	inf
Q8IXM3	0.0	0.0
Q9UHP3	0.0	inf
Q96PU4	0.0	inf
P36544	1.0	1.0
P15104	inf	0.0
Q9ULP9	0.0	inf
Q9BY76	inf	0.0
P34896	0.0	0.0
P34897	0.0	0.0
Q7Z699	0.0	0.0
Q9BQ95	0.0	0.0
P07101	0.0	0.0
Q13454	0.0	0.0
Q9Y2L5	0.0	0.0
Q96L92	0.0	inf
Q13608	inf	0.0
Q8TBK2	0.0	0.0
Q9H0H5	inf	0.0
Q16635	0.0	0.0
Q16637	0.0	0.0
Q9NT99	inf	1.0
P50570	inf	1.0
Q12893	inf	0.0
P55055	0.0	inf
Q9H0F6	0.0	0.0
P30085	0.0	0.0
Q9BVS5	0.0	inf
P06746	0.0	0.0
O14519	inf	0.0
P05412	0.0	inf
P47989	inf	0.0
Q9UN88	1.0	1.0
Q9NQW8	0.0	inf
Q15545	0.0	inf
Q15542	0.0	inf
Q15543	inf	0.0
Q2M3C7	0.0	inf
Q7Z4V0	0.0	0.0
Q14894	0.0	inf
Q9NQW6	0.0	inf
Q86YH6	inf	0.0
P30793	0.0	inf
Q03014	0.0	inf
P23921	0.0	0.0
Q9UBF6	0.0	inf
Q96QD9	0.0	inf
Q96EP0	inf	0.0
Q969P6	inf	0.0
Q96T23	0.0	0.0
Q04206	inf	0.0
P51648	0.0	inf
O95206	inf	1.0
O95202	0.0	0.0
Q9BZR9	0.0	inf
Q15042	inf	0.0
P11802	0.0	inf
Q9HBJ8	inf	0.0
O15111	0.0	inf
Q9H7B2	0.0	0.0
O15116	0.0	inf
Q12805	0.0	inf
Q96PN7	inf	0.0
Q6UVJ0	inf	0.0
Q9H2F5	0.0	0.0
P49918	inf	0.0
Q8NFZ5	0.0	0.0
Q8NFZ4	1.0	1.0
C9JE40	inf	0.0
Q86TL0	0.0	0.0
Q8NI36	inf	0.0
P00973	0.0	inf
Q00653	0.0	0.0
P31350	inf	0.0
Q96AX1	inf	0.0
Q01658	0.0	0.0
P24387	inf	0.0
P24386	0.0	0.0
O15205	0.0	inf
Q9Y366	inf	0.0
P07438	inf	0.0
P08107	0.0	0.0
Q8NDV7	inf	0.0
Q9UGI0	0.0	inf
P53803	0.0	0.0
Q5JVS0	0.0	inf
Q8N6F1	inf	0.0
Q9Y3D0	inf	0.0
P15941	0.0	0.0
Q9NTI5	0.0	inf
P01286	inf	0.0
A8MX76	0.0	0.0
Q96LB3	0.0	0.0
P01579	0.0	inf
Q86XR8	inf	0.0
Q92802	inf	0.0
Q12968	inf	0.0
Q13868	inf	0.0
Q9H008	inf	0.0
Q02535	inf	0.0
O76031	0.0	0.0
Q9Y4B6	0.0	inf
Q13049	0.0	0.0
Q9BXF6	inf	0.0
P23497	0.0	0.0
O75604	inf	0.0
Q13043	0.0	inf
Q13042	0.0	0.0
Q8WYA0	inf	0.0
Q8WYA1	0.0	0.0
P23258	0.0	0.0
O75593	0.0	inf
Q86TB9	0.0	0.0
Q96KS0	inf	0.0
P04004	0.0	0.0
Q9NRM7	0.0	inf
Q14397	0.0	0.0
Q14393	0.0	0.0
Q96PD2	0.0	inf
Q8IV63	0.0	inf
O43505	0.0	0.0
O43504	0.0	0.0
Q9GZZ6	inf	1.0
Q9GZZ1	0.0	0.0
O96008	inf	0.0
O96009	0.0	0.0
O43290	inf	0.0
Q9NYB9	inf	0.0
O75044	inf	1.0
Q9UNN5	inf	0.0
Q9UHA4	0.0	0.0
Q9NYB0	inf	0.0
O96007	inf	0.0
P0C1Z6	0.0	0.0
P36222	inf	0.0
O43615	0.0	0.0
P61916	0.0	0.0
Q7Z7J9	inf	1.0
P32297	1.0	inf
O14867	inf	0.0
Q9H9Y2	0.0	0.0
O14862	0.0	inf
Q8IUR6	0.0	0.0
Q9HCM9	inf	0.0
O95445	0.0	inf
O43474	inf	0.0
P49354	inf	0.0
P11498	inf	0.0
Q13263	0.0	0.0
P54289	inf	0.0
Q13268	0.0	0.0
Q8WUK0	0.0	0.0
P34130	inf	0.0
Q9BUR4	0.0	0.0
P11473	inf	0.0
P21399	inf	0.0
Q96BY2	0.0	inf
Q9NUX5	inf	0.0
P36954	inf	0.0
P36952	0.0	inf
P19793	0.0	0.0
Q96A56	0.0	inf
P54132	inf	0.0
Q9H5Q4	0.0	inf
Q9BY84	0.0	inf
Q9Y5L2	0.0	0.0
P14555	0.0	inf
Q06830	0.0	0.0
O00115	0.0	inf
O14647	inf	0.0
P62166	inf	1.0
Q6U7Q0	inf	0.0
Q14957	1.0	inf
Q13351	inf	0.0
Q9NV88	0.0	0.0
Q9H0I3	0.0	inf
Q14116	0.0	inf
P49589	0.0	0.0
Q8WXC3	0.0	0.0
P15374	0.0	inf
P47974	0.0	inf
Q9H0G5	inf	0.0
Q8WUW1	inf	0.0
Q8NBS9	inf	0.0
Q8TDD2	0.0	0.0
Q96EA4	0.0	0.0
P55083	0.0	inf
Q03468	0.0	0.0
O14503	0.0	inf
P17787	1.0	1.0
Q06945	0.0	inf
Q676U5	0.0	0.0
Q15554	inf	0.0
Q9NQZ6	1.0	1.0
Q9HC16	0.0	0.0
Q9NZN1	1.0	inf
Q13702	1.0	1.0
Q96NW7	inf	1.0
Q9HB90	0.0	0.0
H3BU86	0.0	0.0
P37198	inf	0.0
Q15291	inf	0.0
O95271	inf	0.0
Q9Y6Q9	inf	0.0
Q9UBK8	0.0	inf
Q9UBK9	0.0	inf
Q9BZS1	0.0	0.0
Q9HBK9	0.0	0.0
Q53GT1	0.0	0.0
Q9BU61	0.0	inf
Q9H2G2	0.0	inf
P09429	0.0	0.0
Q9UJC3	0.0	inf
Q7Z3V4	inf	0.0
P04271	inf	0.0
P08779	0.0	0.0
P02708	1.0	1.0
Q8WYN0	inf	0.0
P52294	0.0	0.0
Q6ZV73	0.0	0.0
P00966	inf	0.0
P52298	inf	0.0
Q15386	0.0	0.0
Q9H832	0.0	inf
Q6IB77	0.0	inf
O43502	0.0	inf
Q9BVN2	1.0	inf
P06396	inf	0.0
Q9UJ55	inf	0.0
P35914	inf	0.0
A8K0Z3	inf	0.0
O15273	0.0	0.0
Q9P2M4	inf	0.0
P08172	1.0	inf
P15976	0.0	inf
P24592	inf	0.0
Q9NTJ3	0.0	0.0
P00491	0.0	inf
P00492	inf	0.0
O75925	0.0	inf
Q96QE5	inf	0.0
P11274	1.0	inf
Q9UK39	0.0	0.0
Q96Q42	inf	0.0
Q8IYQ7	0.0	0.0
P00367	inf	0.0
P51575	inf	1.0
O15304	0.0	inf
Q8N2Q7	inf	1.0
P0C7U0	inf	0.0
Q8IX90	0.0	0.0
Q99623	0.0	inf
Q05329	inf	1.0
Q8N9R8	0.0	0.0
P08559	0.0	0.0
Q13075	0.0	inf
Q6ZWB6	1.0	1.0
Q9H492	0.0	0.0
P23246	inf	0.0
P43699	inf	0.0
Q8WW12	0.0	inf
Q02252	inf	0.0
Q13387	0.0	inf
P41235	0.0	inf
Q99717	inf	0.0
Q9H9F9	inf	0.0
Q8TC59	0.0	0.0
P98179	inf	0.0
Q6GQQ9	0.0	0.0
P19387	0.0	inf
Q8N668	inf	0.0
P11310	0.0	inf
Q3YBR2	inf	0.0
P61925	0.0	0.0
Q6NUT2	inf	0.0
P26447	inf	0.0
Q14164	0.0	inf
Q86Y25	0.0	inf
O14879	inf	0.0
P11597	0.0	0.0
Q15633	0.0	0.0
Q96G03	0.0	inf
P06881	0.0	inf
O95476	0.0	inf
Q16543	inf	0.0
Q5EE01	0.0	inf
O75143	0.0	0.0
O75146	inf	0.0
Q6ZNL6	inf	0.0
Q9H3S7	0.0	0.0
P19013	0.0	inf
Q32MQ0	0.0	inf
Q8WUJ0	inf	0.0
P11441	0.0	inf
O95786	0.0	inf
O95785	0.0	inf
Q9NZA1	0.0	0.0
Q9UBV7	inf	0.0
Q9UBV4	0.0	0.0
O43310	0.0	inf
P48167	1.0	1.0
P11047	0.0	0.0
Q96DF8	0.0	inf
Q9NY27	0.0	0.0
P48169	1.0	inf
Q9BSU3	inf	0.0
O00422	inf	0.0
Q96FV9	inf	0.0
O43300	inf	1.0
Q96BD8	0.0	inf
Q9UJP4	0.0	0.0
O95292	inf	0.0
P30532	1.0	1.0
P49753	inf	0.0
Q96PY6	0.0	inf
O14657	0.0	0.0
Q9NV92	0.0	inf
P49756	inf	0.0
Q9ULL8	0.0	inf
P49593	inf	0.0
O14896	inf	0.0
P51530	0.0	0.0
P51531	inf	0.0
Q8NDQ6	0.0	0.0
Q8TDH9	inf	0.0
Q6BDI9	0.0	inf
Q16611	0.0	0.0
Q9UNH6	0.0	0.0
Q7Z419	0.0	0.0
Q96N16	0.0	0.0
Q9UBD9	0.0	inf
P06727	0.0	0.0
P30622	0.0	0.0
Q9Y4B5	inf	0.0
P16401	inf	0.0
Q9BXF3	0.0	0.0
P50135	0.0	0.0
Q8NHY3	inf	0.0
Q9NR19	0.0	inf
Q96HY7	0.0	0.0
O00591	inf	1.0
P50454	0.0	0.0
P03950	0.0	0.0
Q9UKA1	inf	0.0
O00255	0.0	0.0
O00253	0.0	0.0
Q08945	inf	0.0
Q9UBJ2	0.0	0.0
Q9BZP6	0.0	0.0
Q6UXH8	0.0	inf
Q7Z3U7	0.0	inf
Q8NHG8	inf	1.0
P23490	0.0	0.0
Q9Y2X9	0.0	inf
Q86X95	inf	0.0
Q05086	0.0	inf
Q9P2N4	inf	0.0
O00411	inf	0.0
Q9P2N6	0.0	inf
Q7Z7H8	0.0	inf
Q15397	0.0	inf
O95863	inf	0.0
O60563	inf	0.0
Q8TDY4	inf	0.0
O60566	0.0	inf
O95865	inf	0.0
Q96P20	inf	0.0
Q9UMR3	0.0	0.0
O15265	0.0	0.0
P57768	0.0	0.0
Q8IY37	inf	0.0
Q7RTV0	0.0	0.0
O95886	1.0	inf
Q9H790	0.0	0.0
Q8IY31	inf	0.0
P14859	inf	0.0
Q6NZ36	0.0	inf
P35270	0.0	inf
Q9P202	0.0	inf
Q9H3N1	0.0	inf
Q92820	0.0	inf
A8K979	0.0	inf
O15318	0.0	0.0
Q14289	0.0	inf
Q5JXX5	1.0	inf
P42330	0.0	inf
Q5HYJ3	inf	0.0
Q92624	0.0	inf
O60759	0.0	inf
P00738	0.0	inf
Q9ULK0	1.0	inf
O75935	inf	0.0
P54840	0.0	0.0
P43681	1.0	1.0
Q8WVJ9	inf	0.0
Q9UHG0	inf	0.0
P41222	0.0	inf
P41226	0.0	0.0
Q86YF9	0.0	inf
Q96PF2	0.0	inf
O60285	0.0	inf
O75718	inf	0.0
Q92539	0.0	inf
Q12983	0.0	inf
Q8N693	inf	0.0
Q14118	1.0	inf
Q9HAQ2	0.0	0.0
Q9HCS2	inf	0.0
Q16658	inf	0.0
Q76N32	0.0	0.0
Q9H7L9	0.0	inf
P52926	inf	0.0
Q13489	inf	0.0
Q9UNK0	inf	0.0
O43414	inf	0.0
P15172	0.0	0.0
P15173	0.0	0.0
P32121	1.0	inf
Q16531	0.0	0.0
Q13247	inf	0.0
Q70CQ3	0.0	inf
Q6NUK1	inf	0.0
O75154	inf	0.0
Q9GZX7	0.0	inf
Q9GZX5	0.0	0.0
Q9H3R2	0.0	0.0
O14791	0.0	0.0
Q6ZNA4	0.0	inf
O43294	inf	0.0
P10909	0.0	0.0
Q8WUG5	0.0	0.0
O43303	0.0	0.0
Q5GFL6	inf	0.0
Q99504	inf	0.0
Q9NWF9	inf	0.0
Q99501	inf	0.0
Q9Y5Z4	0.0	0.0
Q96MH2	inf	0.0
Q9NYV4	0.0	inf
P05813	0.0	0.0
Q16445	1.0	1.0
P62487	inf	0.0
Q86YP4	0.0	0.0
Q9UJS0	0.0	0.0
P20591	0.0	0.0
Q96PZ2	0.0	0.0
Q15404	inf	0.0
Q04724	inf	0.0
P50440	inf	0.0
Q9NS56	0.0	0.0
Q96MV8	inf	0.0
Q9BX97	0.0	inf
P21266	0.0	0.0
O95644	0.0	0.0
Q96M32	0.0	0.0
Q96HR3	0.0	0.0
P61599	0.0	0.0
Q8ND56	0.0	0.0
Q16667	inf	0.0
